NONE;;SEM-SA_500_-1_-1_[0.1-8/0.15-2]_CAMQ_DR_[RGBI,RGBIR];0;0;5.747194472194472;5.747194472194472;0;200;5;14
NONE;;SEM-SA_500_-1_-1_[0.1-8/0.15-2]_CAMQ_DR_[RGBI,RGBIR];0;1;5.747194472194472;5.766344439873852;180;200;5;13
NONE;;SEM-SA_500_-1_-1_[0.1-8/0.15-2]_CAMQ_DR_[RGBI,RGBIR];0;2;5.747194472194472;5.766344439873852;82;200;0;13
NONE;;SEM-SA_500_-1_-1_[0.1-8/0.15-2]_CAMQ_DR_[RGBI,RGBIR];0;3;5.747194472194472;5.766344439873852;196;200;5;13
NONE;;SEM-SA_500_-1_-1_[0.1-8/0.15-2]_CAMQ_DR_[RGBI,RGBIR];0;4;5.747194472194472;5.766344439873852;101;200;5;13
NONE;;SEM-SA_500_-1_-1_[0.1-8/0.15-2]_CAMQ_DR_[RGBI,RGBIR];0;5;5.747194472194472;5.766344439873852;215;200;5;13
NONE;;SEM-SA_500_-1_-1_[0.1-8/0.15-2]_CAMQ_DR_[RGBI,RGBIR];0;6;5.747194472194472;5.766344439873852;58;200;0;13
NONE;;SEM-SA_500_-1_-1_[0.1-8/0.15-2]_CAMQ_DR_[RGBI,RGBIR];0;7;5.747194472194472;5.747194472194472;0;200;5;14
NONE;;SEM-SA_500_-1_-1_[0.1-8/0.15-2]_CAMQ_DR_[RGBI,RGBIR];0;8;5.747194472194472;5.747194472194472;0;200;0;14
NONE;;SEM-SA_500_-1_-1_[0.1-8/0.15-2]_CAMQ_DR_[RGBI,RGBIR];0;9;5.747194472194472;5.74886490321273;73;200;10;13
NONE;;SEM-SA_500_-1_-1_[0.1-8/0.15-2]_CAMQ_DR_[RGBI,RGBIR];0;10;5.747194472194472;5.766344439873852;108;200;0;13
NONE;;SEM-SA_500_-1_-1_[0.1-8/0.15-2]_CAMQ_DR_[RGBI,RGBIR];0;11;5.747194472194472;5.766344439873852;146;200;0;13
NONE;;SEM-SA_500_-1_-1_[0.1-8/0.15-2]_CAMQ_DR_[RGBI,RGBIR];0;12;5.747194472194472;5.766344439873852;134;200;5;13
NONE;;SEM-SA_500_-1_-1_[0.1-8/0.15-2]_CAMQ_DR_[RGBI,RGBIR];0;13;5.747194472194472;5.74886490321273;58;200;0;13
NONE;;SEM-SA_500_-1_-1_[0.1-8/0.15-2]_CAMQ_DR_[RGBI,RGBIR];0;14;5.747194472194472;5.766344439873852;75;200;5;13
NONE;;SEM-SA_500_-1_-1_[0.1-8/0.15-2]_CAMQ_DR_[RGBI,RGBIR];0;15;5.747194472194472;5.74886490321273;16;200;0;13
NONE;;SEM-SA_500_-1_-1_[0.1-8/0.15-2]_CAMQ_DR_[RGBI,RGBIR];0;16;5.747194472194472;5.766344439873852;263;200;5;13
NONE;;SEM-SA_500_-1_-1_[0.1-8/0.15-2]_CAMQ_DR_[RGBI,RGBIR];0;17;5.747194472194472;5.766344439873852;68;200;5;13
NONE;;SEM-SA_500_-1_-1_[0.1-8/0.15-2]_CAMQ_DR_[RGBI,RGBIR];0;18;5.747194472194472;5.747194472194472;0;200;0;14
NONE;;SEM-SA_500_-1_-1_[0.1-8/0.15-2]_CAMQ_DR_[RGBI,RGBIR];0;19;5.747194472194472;5.747194472194472;0;200;0;14
NONE;;SEM-SA_500_-1_-1_[0.1-8/0.15-2]_CAMQ_DR_[RGBI,RGBIR];0;20;5.747194472194472;5.766344439873852;68;200;5;13
NONE;;SEM-SA_500_-1_-1_[0.1-8/0.15-2]_CAMQ_DR_[RGBI,RGBIR];0;21;5.747194472194472;5.766344439873852;181;200;5;13
NONE;;SEM-SA_500_-1_-1_[0.1-8/0.15-2]_CAMQ_DR_[RGBI,RGBIR];0;22;5.747194472194472;5.766344439873852;109;200;0;13
NONE;;SEM-SA_500_-1_-1_[0.1-8/0.15-2]_CAMQ_DR_[RGBI,RGBIR];0;23;5.747194472194472;5.74886490321273;8;200;0;13
NONE;;SEM-SA_500_-1_-1_[0.1-8/0.15-2]_CAMQ_DR_[RGBI,RGBIR];0;24;5.747194472194472;5.766344439873852;76;200;0;13
NONE;;SEM-SA_500_-1_-1_[0.1-8/0.15-2]_CAMQ_DR_[RGBI,RGBIR];0;25;5.747194472194472;5.747194472194472;0;200;0;14
NONE;;SEM-SA_500_-1_-1_[0.1-8/0.15-2]_CAMQ_DR_[RGBI,RGBIR];0;26;5.747194472194472;5.748864903212731;11;200;0;13
NONE;;SEM-SA_500_-1_-1_[0.1-8/0.15-2]_CAMQ_DR_[RGBI,RGBIR];0;27;5.747194472194472;5.766344439873852;35;200;0;13
NONE;;SEM-SA_500_-1_-1_[0.1-8/0.15-2]_CAMQ_DR_[RGBI,RGBIR];0;28;5.747194472194472;5.74886490321273;126;200;0;13
NONE;;SEM-SA_500_-1_-1_[0.1-8/0.15-2]_CAMQ_DR_[RGBI,RGBIR];0;29;5.747194472194472;5.747194472194472;0;200;5;14
NONE;;SEM-SA_500_-1_-1_[0.1-8/0.15-2]_CAMQ_DR_[RGBI,RGBIR];0;30;5.747194472194472;5.74886490321273;44;200;20;13
NONE;;SEM-SA_500_-1_-1_[0.1-8/0.15-2]_CAMQ_DR_[RGBI,RGBIR];0;31;5.747194472194472;5.74886490321273;20;200;0;13
NONE;;SEM-SA_500_-1_-1_[0.1-8/0.15-2]_CAMQ_DR_[RGBI,RGBIR];0;32;5.747194472194472;5.766344439873852;131;200;5;13
NONE;;SEM-SA_500_-1_-1_[0.1-8/0.15-2]_CAMQ_DR_[RGBI,RGBIR];0;33;5.747194472194472;5.74886490321273;22;200;0;13
NONE;;SEM-SA_500_-1_-1_[0.1-8/0.15-2]_CAMQ_DR_[RGBI,RGBIR];0;34;5.747194472194472;5.766344439873852;166;200;5;13
NONE;;SEM-SA_500_-1_-1_[0.1-8/0.15-2]_CAMQ_DR_[RGBI,RGBIR];0;35;5.747194472194472;5.74886490321273;69;200;0;13
NONE;;SEM-SA_500_-1_-1_[0.1-8/0.15-2]_CAMQ_DR_[RGBI,RGBIR];0;36;5.747194472194472;5.766344439873852;289;200;0;13
NONE;;SEM-SA_500_-1_-1_[0.1-8/0.15-2]_CAMQ_DR_[RGBI,RGBIR];0;37;5.747194472194472;5.747194472194472;0;200;5;14
NONE;;SEM-SA_500_-1_-1_[0.1-8/0.15-2]_CAMQ_DR_[RGBI,RGBIR];0;38;5.747194472194472;5.747194472194472;0;200;0;14
NONE;;SEM-SA_500_-1_-1_[0.1-8/0.15-2]_CAMQ_DR_[RGBI,RGBIR];0;39;5.747194472194472;5.766344439873852;128;200;5;13
NONE;;SEM-SA_500_-1_-1_[0.1-8/0.15-2]_CAMQ_DR_[RGBI,RGBIR];0;40;5.747194472194472;5.74886490321273;168;200;0;13
NONE;;SEM-SA_500_-1_-1_[0.1-8/0.15-2]_CAMQ_DR_[RGBI,RGBIR];0;41;5.747194472194472;5.766344439873852;57;200;0;13
NONE;;SEM-SA_500_-1_-1_[0.1-8/0.15-2]_CAMQ_DR_[RGBI,RGBIR];0;42;5.747194472194472;5.766344439873852;88;200;0;13
NONE;;SEM-SA_500_-1_-1_[0.1-8/0.15-2]_CAMQ_DR_[RGBI,RGBIR];0;43;5.747194472194472;5.766344439873852;107;200;0;13
NONE;;SEM-SA_500_-1_-1_[0.1-8/0.15-2]_CAMQ_DR_[RGBI,RGBIR];0;44;5.747194472194472;5.747194472194472;0;200;5;14
NONE;;SEM-SA_500_-1_-1_[0.1-8/0.15-2]_CAMQ_DR_[RGBI,RGBIR];0;45;5.747194472194472;5.766344439873852;63;200;0;13
NONE;;SEM-SA_500_-1_-1_[0.1-8/0.15-2]_CAMQ_DR_[RGBI,RGBIR];0;46;5.747194472194472;5.766344439873852;39;200;5;13
NONE;;SEM-SA_500_-1_-1_[0.1-8/0.15-2]_CAMQ_DR_[RGBI,RGBIR];0;47;5.747194472194472;5.766344439873852;183;200;0;13
NONE;;SEM-SA_500_-1_-1_[0.1-8/0.15-2]_CAMQ_DR_[RGBI,RGBIR];0;48;5.747194472194472;5.748864903212731;8;200;5;13
NONE;;SEM-SA_500_-1_-1_[0.1-8/0.15-2]_CAMQ_DR_[RGBI,RGBIR];0;49;5.747194472194472;5.766344439873852;199;200;5;13
NONE;;SEM-SA_500_-1_-1_[0.1-8/0.15-2]_CAMQ_DR_[RGBI,RGBIR];0;50;5.747194472194472;5.766344439873852;96;200;20;13
NONE;;SEM-SA_500_-1_-1_[0.1-8/0.15-2]_CAMQ_DR_[RGBI,RGBIR];0;51;5.747194472194472;5.74886490321273;46;200;0;13
NONE;;SEM-SA_500_-1_-1_[0.1-8/0.15-2]_CAMQ_DR_[RGBI,RGBIR];0;52;5.747194472194472;5.766344439873852;149;200;5;13
NONE;;SEM-SA_500_-1_-1_[0.1-8/0.15-2]_CAMQ_DR_[RGBI,RGBIR];0;53;5.747194472194472;5.747194472194472;0;200;0;14
NONE;;SEM-SA_500_-1_-1_[0.1-8/0.15-2]_CAMQ_DR_[RGBI,RGBIR];0;54;5.747194472194472;5.74886490321273;173;200;5;13
NONE;;SEM-SA_500_-1_-1_[0.1-8/0.15-2]_CAMQ_DR_[RGBI,RGBIR];0;55;5.747194472194472;5.766344439873852;56;200;0;13
NONE;;SEM-SA_500_-1_-1_[0.1-8/0.15-2]_CAMQ_DR_[RGBI,RGBIR];0;56;5.747194472194472;5.766344439873852;113;200;0;13
NONE;;SEM-SA_500_-1_-1_[0.1-8/0.15-2]_CAMQ_DR_[RGBI,RGBIR];0;57;5.747194472194472;5.766344439873852;39;200;5;13
NONE;;SEM-SA_500_-1_-1_[0.1-8/0.15-2]_CAMQ_DR_[RGBI,RGBIR];0;58;5.747194472194472;5.766344439873852;9;200;0;13
NONE;;SEM-SA_500_-1_-1_[0.1-8/0.15-2]_CAMQ_DR_[RGBI,RGBIR];0;59;5.747194472194472;5.766344439873852;255;200;5;13
NONE;;SEM-SA_500_-1_-1_[0.1-8/0.15-2]_CAMQ_DR_[RGBI,RGBIR];0;60;5.747194472194472;5.766344439873852;105;200;0;13
NONE;;SEM-SA_500_-1_-1_[0.1-8/0.15-2]_CAMQ_DR_[RGBI,RGBIR];0;61;5.747194472194472;5.766344439873852;161;200;0;13
NONE;;SEM-SA_500_-1_-1_[0.1-8/0.15-2]_CAMQ_DR_[RGBI,RGBIR];0;62;5.747194472194472;5.766344439873852;57;200;5;13
NONE;;SEM-SA_500_-1_-1_[0.1-8/0.15-2]_CAMQ_DR_[RGBI,RGBIR];0;63;5.747194472194472;5.766344439873852;45;200;0;13
NONE;;SEM-SA_500_-1_-1_[0.1-8/0.15-2]_CAMQ_DR_[RGBI,RGBIR];0;64;5.747194472194472;5.747194472194472;0;200;5;14
NONE;;SEM-SA_500_-1_-1_[0.1-8/0.15-2]_CAMQ_DR_[RGBI,RGBIR];0;65;5.747194472194472;5.747194472194472;0;200;0;14
NONE;;SEM-SA_500_-1_-1_[0.1-8/0.15-2]_CAMQ_DR_[RGBI,RGBIR];0;66;5.747194472194472;5.766344439873852;25;200;0;13
NONE;;SEM-SA_500_-1_-1_[0.1-8/0.15-2]_CAMQ_DR_[RGBI,RGBIR];0;67;5.747194472194472;5.747194472194472;0;200;0;14
NONE;;SEM-SA_500_-1_-1_[0.1-8/0.15-2]_CAMQ_DR_[RGBI,RGBIR];0;68;5.747194472194472;5.766344439873852;177;200;5;13
NONE;;SEM-SA_500_-1_-1_[0.1-8/0.15-2]_CAMQ_DR_[RGBI,RGBIR];0;69;5.747194472194472;5.766344439873852;204;200;0;13
NONE;;SEM-SA_500_-1_-1_[0.1-8/0.15-2]_CAMQ_DR_[RGBI,RGBIR];0;70;5.747194472194472;5.766344439873852;185;200;5;13
NONE;;SEM-SA_500_-1_-1_[0.1-8/0.15-2]_CAMQ_DR_[RGBI,RGBIR];0;71;5.747194472194472;5.766344439873852;71;200;5;13
NONE;;SEM-SA_500_-1_-1_[0.1-8/0.15-2]_CAMQ_DR_[RGBI,RGBIR];0;72;5.747194472194472;5.747194472194472;0;200;0;14
NONE;;SEM-SA_500_-1_-1_[0.1-8/0.15-2]_CAMQ_DR_[RGBI,RGBIR];0;73;5.747194472194472;5.747194472194472;0;200;5;14
NONE;;SEM-SA_500_-1_-1_[0.1-8/0.15-2]_CAMQ_DR_[RGBI,RGBIR];0;74;5.747194472194472;5.766344439873852;370;194;5;13
NONE;;SEM-SA_500_-1_-1_[0.1-8/0.15-2]_CAMQ_DR_[RGBI,RGBIR];0;75;5.747194472194472;5.766344439873852;97;200;5;13
NONE;;SEM-SA_500_-1_-1_[0.1-8/0.15-2]_CAMQ_DR_[RGBI,RGBIR];0;76;5.747194472194472;5.74886490321273;24;200;0;13
NONE;;SEM-SA_500_-1_-1_[0.1-8/0.15-2]_CAMQ_DR_[RGBI,RGBIR];0;77;5.747194472194472;5.766344439873852;340;184;5;13
NONE;;SEM-SA_500_-1_-1_[0.1-8/0.15-2]_CAMQ_DR_[RGBI,RGBIR];0;78;5.747194472194472;5.766344439873852;120;200;5;13
NONE;;SEM-SA_500_-1_-1_[0.1-8/0.15-2]_CAMQ_DR_[RGBI,RGBIR];0;79;5.747194472194472;5.766344439873852;77;200;5;13
NONE;;SEM-SA_500_-1_-1_[0.1-8/0.15-2]_CAMQ_DR_[RGBI,RGBIR];0;80;5.747194472194472;5.766344439873852;35;200;0;13
NONE;;SEM-SA_500_-1_-1_[0.1-8/0.15-2]_CAMQ_DR_[RGBI,RGBIR];0;81;5.747194472194472;5.766344439873852;336;199;10;13
NONE;;SEM-SA_500_-1_-1_[0.1-8/0.15-2]_CAMQ_DR_[RGBI,RGBIR];0;82;5.747194472194472;5.74886490321273;4;200;0;13
NONE;;SEM-SA_500_-1_-1_[0.1-8/0.15-2]_CAMQ_DR_[RGBI,RGBIR];0;83;5.747194472194472;5.74886490321273;7;200;5;13
NONE;;SEM-SA_500_-1_-1_[0.1-8/0.15-2]_CAMQ_DR_[RGBI,RGBIR];0;84;5.747194472194472;5.74886490321273;186;200;0;13
NONE;;SEM-SA_500_-1_-1_[0.1-8/0.15-2]_CAMQ_DR_[RGBI,RGBIR];0;85;5.747194472194472;5.747194472194472;0;200;0;14
NONE;;SEM-SA_500_-1_-1_[0.1-8/0.15-2]_CAMQ_DR_[RGBI,RGBIR];0;86;5.747194472194472;5.766344439873852;86;200;0;13
NONE;;SEM-SA_500_-1_-1_[0.1-8/0.15-2]_CAMQ_DR_[RGBI,RGBIR];0;87;5.747194472194472;5.766344439873852;196;200;5;13
NONE;;SEM-SA_500_-1_-1_[0.1-8/0.15-2]_CAMQ_DR_[RGBI,RGBIR];0;88;5.747194472194472;5.747194472194472;0;200;0;14
NONE;;SEM-SA_500_-1_-1_[0.1-8/0.15-2]_CAMQ_DR_[RGBI,RGBIR];0;89;5.747194472194472;5.74886490321273;27;200;0;13
NONE;;SEM-SA_500_-1_-1_[0.1-8/0.15-2]_CAMQ_DR_[RGBI,RGBIR];0;90;5.747194472194472;5.766344439873852;49;200;0;13
NONE;;SEM-SA_500_-1_-1_[0.1-8/0.15-2]_CAMQ_DR_[RGBI,RGBIR];0;91;5.747194472194472;5.766344439873852;63;200;5;13
NONE;;SEM-SA_500_-1_-1_[0.1-8/0.15-2]_CAMQ_DR_[RGBI,RGBIR];0;92;5.747194472194472;5.74886490321273;116;200;5;13
NONE;;SEM-SA_500_-1_-1_[0.1-8/0.15-2]_CAMQ_DR_[RGBI,RGBIR];0;93;5.747194472194472;5.766344439873852;232;200;5;13
NONE;;SEM-SA_500_-1_-1_[0.1-8/0.15-2]_CAMQ_DR_[RGBI,RGBIR];0;94;5.747194472194472;5.766344439873852;123;200;0;13
NONE;;SEM-SA_500_-1_-1_[0.1-8/0.15-2]_CAMQ_DR_[RGBI,RGBIR];0;95;5.747194472194472;5.766344439873852;50;200;5;13
NONE;;SEM-SA_500_-1_-1_[0.1-8/0.15-2]_CAMQ_DR_[RGBI,RGBIR];0;96;5.747194472194472;5.766344439873852;98;200;0;13
NONE;;SEM-SA_500_-1_-1_[0.1-8/0.15-2]_CAMQ_DR_[RGBI,RGBIR];0;97;5.747194472194472;5.74886490321273;28;200;5;13
NONE;;SEM-SA_500_-1_-1_[0.1-8/0.15-2]_CAMQ_DR_[RGBI,RGBIR];0;98;5.747194472194472;5.766344439873852;69;200;0;13
NONE;;SEM-SA_500_-1_-1_[0.1-8/0.15-2]_CAMQ_DR_[RGBI,RGBIR];0;99;5.747194472194472;5.766344439873852;248;200;5;13
