"mtunis";1;337;97.63;201;537;297.63
"ispell";0;173;29.1;200;373;229.1
"nanoxml";2;291;55.34;202;491;255.34
"rcs";1;431;82.18;201;631;282.18
"apache_zip";0;314;84.41;200;514;284.41
"bison";6;500;151.82;206;700;351.82
"jscatterplot";4;417;89.49;204;617;289.49
"grappa";0;259;57.46;200;459;257.46
"junit";1;203;18.65;201;403;218.65
"tinytim";13;443;170.23;213;643;370.23
"gae_plugin_core";1;451;119.13;201;651;319.13
"incl";0;192;30.31;200;392;230.31
"jdendogram";17;410;123.47;217;610;323.47
"pdf_renderer";11;478;133.26;211;678;333.26
"jung_visualization";33;1132;323.33;233;1332;523.33
"pfcda_swing";50;723;280.03;250;923;480.03
"jml-1.0b4";69;1637;392.55;269;1837;592.55
"notelab-full";128;988;443.37;328;1188;643.37
