"mtunis";427;994;762.24
"ispell";528;1000;823.49
"nanoxml";597;999;953.71
"rcs";335;999;656.9
"apache_zip";388;972;753.16
"bison";332;977;700.46
"jscatterplot";448;994;870.89
"grappa";501;999;835.2
"junit";536;999;954.27
"tinytim";468;982;820.37
"gae_plugin_core";686;999;927.35
"incl";500;1000;813.82
"jdendogram";347;978;770.65
"pdf_renderer";379;981;719.89
"jung_visualization";191;907;559.83
"pfcda_swing";238;863;582.15
"jml-1.0b4";173;914;450.49
"notelab-full";152;736;405.95
