"mtunis";2.27532589284827;0.0371051286041248;3.45;2.32411599355866
"ispell";2.33227274837758;0.000420466058763935;4.35;1.68998834494816
"nanoxml";3.81586832714237;0.00335911520617641;3.95;2.04680090370166
"rcs";2.22475568524887;0.00284432522757004;6.1;2.08166599946613
"apache_zip";5.76616964450724;0.00174795366611225;8.15;2.81186159982416
"bison";2.67886972714484;0.00474350622644332;10.05;0.5
"jscatterplot";10.7416910584446;0.00128667860547645;31.15;2.11476292340825
"grappa";12.7053567751852;7.98413024539525e-16;61.25;2.17597069944622
"junit";11.0900497018327;0.000154392673949742;38.25;2.39686242720551
"tinytim";12.4963197354352;0.00389782309353275;201.7;3.03348317978198
"gae_plugin_core";17.2929264115157;0;71.95;2.55198476927788
"incl";13.6087748478101;0.0085513379007796;124.4;2.04494943258218
"jdendogram";26.0628860228239;0.00975431273486168;312.4;4.40844002276808
"pdf_renderer";22.3565923609509;0.00378015629156665;347.85;2.95205800495967
"jung_visualization";21.8224545557479;0.0266850335220695;826.36;12.3627985455878
"pfcda_swing";29.069980588835;0.0216807464351187;1280.25;15.2483647078179
"jml-1.0b4";17.5294046572832;0.0240795976872904;2676.35;40.7868009448293
"notelab-full";29.5905092422223;0.031268139808793;2482.7;35.1002892157643
