NONE;;SEM-SA_-1_-1_-1_[0.1-1]_CAMQ_DR_[RGBI,RGBIR]_RESTART-ENABLEDRESTART-DISABLED;0;0;2.0;8.496715714220171;43;2000;5;15;2043;1;1;15;0.3677811550151976;1.0;13-1-14-8-9-2-7-6-12-4-3-11-0-5-10
NONE;;SEM-SA_-1_-1_-1_[0.1-1]_CAMQ_DR_[RGBI,RGBIR]_RESTART-ENABLEDRESTART-DISABLED;0;1;2.0;8.496715714220171;36;2000;7;15;2036;1;1;15;0.3677811550151976;1.0;1-5-0-6-10-8-14-7-2-13-4-11-3-9-12
NONE;;SEM-SA_-1_-1_-1_[0.1-1]_CAMQ_DR_[RGBI,RGBIR]_RESTART-ENABLEDRESTART-DISABLED;0;2;2.0;8.496715714220173;45;2000;6;15;2045;1;1;15;0.3677811550151976;1.0;14-1-2-0-6-3-10-4-7-12-13-11-9-8-5
NONE;;SEM-SA_-1_-1_-1_[0.1-1]_CAMQ_DR_[RGBI,RGBIR]_RESTART-ENABLEDRESTART-DISABLED;0;3;2.0;8.496715714220171;78;2000;5;15;2078;1;1;15;0.3677811550151976;1.0;12-2-13-4-5-8-1-6-0-9-3-11-10-14-7
NONE;;SEM-SA_-1_-1_-1_[0.1-1]_CAMQ_DR_[RGBI,RGBIR]_RESTART-ENABLEDRESTART-DISABLED;0;4;2.0;8.496715714220171;38;2000;5;15;2038;1;1;15;0.3677811550151976;1.0;4-6-5-13-12-1-7-3-8-9-14-11-2-10-0
NONE;;SEM-SA_-1_-1_-1_[0.1-1]_CAMQ_DR_[RGBI,RGBIR]_RESTART-ENABLEDRESTART-DISABLED;0;5;2.0;8.496715714220171;70;2000;6;15;2070;1;1;15;0.3677811550151976;1.0;4-12-6-1-10-5-8-9-13-7-2-11-0-3-14
NONE;;SEM-SA_-1_-1_-1_[0.1-1]_CAMQ_DR_[RGBI,RGBIR]_RESTART-ENABLEDRESTART-DISABLED;0;6;2.0;8.496715714220171;51;2000;6;15;2051;1;1;15;0.3677811550151976;1.0;13-3-0-8-9-12-2-7-5-10-6-11-14-4-1
NONE;;SEM-SA_-1_-1_-1_[0.1-1]_CAMQ_DR_[RGBI,RGBIR]_RESTART-ENABLEDRESTART-DISABLED;0;7;2.0;8.496715714220171;22;2000;6;15;2022;1;1;15;0.3677811550151976;1.0;12-7-5-10-3-1-14-9-8-13-4-11-6-2-0
NONE;;SEM-SA_-1_-1_-1_[0.1-1]_CAMQ_DR_[RGBI,RGBIR]_RESTART-ENABLEDRESTART-DISABLED;0;8;2.0;8.496715714220171;33;2000;6;15;2033;1;1;15;0.3677811550151976;1.0;9-7-1-0-13-8-12-2-14-4-5-11-10-3-6
NONE;;SEM-SA_-1_-1_-1_[0.1-1]_CAMQ_DR_[RGBI,RGBIR]_RESTART-ENABLEDRESTART-DISABLED;0;9;2.0;8.496715714220171;41;2000;6;15;2041;1;1;15;0.3677811550151976;1.0;14-1-9-5-13-8-2-4-12-7-0-11-3-6-10
NONE;;SEM-SA_-1_-1_-1_[0.1-1]_CAMQ_DR_[RGBI,RGBIR]_RESTART-ENABLEDRESTART-DISABLED;0;10;2.0;8.496715714220171;63;2000;6;15;2063;1;1;15;0.3677811550151976;1.0;12-5-0-6-14-1-9-7-3-13-10-11-8-2-4
NONE;;SEM-SA_-1_-1_-1_[0.1-1]_CAMQ_DR_[RGBI,RGBIR]_RESTART-ENABLEDRESTART-DISABLED;0;11;2.0;8.496715714220171;30;2000;5;15;2030;1;1;15;0.3677811550151976;1.0;13-12-9-7-0-6-5-10-8-3-14-11-2-1-4
NONE;;SEM-SA_-1_-1_-1_[0.1-1]_CAMQ_DR_[RGBI,RGBIR]_RESTART-ENABLEDRESTART-DISABLED;0;12;2.0;8.496715714220171;36;2000;6;15;2036;1;1;15;0.3677811550151976;1.0;9-13-1-8-10-7-5-0-3-4-6-11-2-12-14
NONE;;SEM-SA_-1_-1_-1_[0.1-1]_CAMQ_DR_[RGBI,RGBIR]_RESTART-ENABLEDRESTART-DISABLED;0;13;2.0;8.496715714220171;34;2000;6;15;2034;1;1;15;0.3677811550151976;1.0;2-13-1-14-5-9-3-6-0-4-7-11-10-12-8
NONE;;SEM-SA_-1_-1_-1_[0.1-1]_CAMQ_DR_[RGBI,RGBIR]_RESTART-ENABLEDRESTART-DISABLED;0;14;2.0;8.496715714220173;82;2000;6;15;2082;1;1;15;0.3677811550151976;1.0;6-2-8-3-9-5-13-7-4-1-14-11-10-0-12
NONE;;SEM-SA_-1_-1_-1_[0.1-1]_CAMQ_DR_[RGBI,RGBIR]_RESTART-ENABLEDRESTART-DISABLED;0;15;2.0;8.496715714220171;47;2000;6;15;2047;1;1;15;0.3677811550151976;1.0;1-13-0-14-6-3-4-5-12-7-9-11-2-10-8
NONE;;SEM-SA_-1_-1_-1_[0.1-1]_CAMQ_DR_[RGBI,RGBIR]_RESTART-ENABLEDRESTART-DISABLED;0;16;2.0;8.496715714220171;77;2000;6;15;2077;1;1;15;0.3677811550151976;1.0;1-12-13-6-9-3-8-0-4-5-14-11-2-7-10
NONE;;SEM-SA_-1_-1_-1_[0.1-1]_CAMQ_DR_[RGBI,RGBIR]_RESTART-ENABLEDRESTART-DISABLED;0;17;2.0;8.496715714220171;72;2000;6;15;2072;1;1;15;0.3677811550151976;1.0;9-12-7-3-1-2-10-6-0-4-5-11-13-8-14
NONE;;SEM-SA_-1_-1_-1_[0.1-1]_CAMQ_DR_[RGBI,RGBIR]_RESTART-ENABLEDRESTART-DISABLED;0;18;2.0;8.496715714220171;46;2000;6;15;2046;1;1;15;0.3677811550151976;1.0;4-7-3-13-9-2-10-12-1-0-8-11-14-5-6
NONE;;SEM-SA_-1_-1_-1_[0.1-1]_CAMQ_DR_[RGBI,RGBIR]_RESTART-ENABLEDRESTART-DISABLED;0;19;2.0;8.496715714220171;25;2000;7;15;2025;1;1;15;0.3677811550151976;1.0;0-7-13-2-3-12-14-10-8-5-9-11-6-4-1
NONE;;SEM-SA_-1_-1_-1_[0.1-1]_CAMQ_DR_[RGBI,RGBIR]_RESTART-ENABLEDRESTART-DISABLED;0;20;2.0;8.496715714220171;63;2000;5;15;2063;1;1;15;0.3677811550151976;1.0;14-5-7-0-10-8-12-2-9-4-13-11-1-6-3
NONE;;SEM-SA_-1_-1_-1_[0.1-1]_CAMQ_DR_[RGBI,RGBIR]_RESTART-ENABLEDRESTART-DISABLED;0;21;2.0;8.496715714220171;37;2000;5;15;2037;1;1;15;0.3677811550151976;1.0;5-6-1-3-8-0-14-12-7-13-9-11-2-10-4
NONE;;SEM-SA_-1_-1_-1_[0.1-1]_CAMQ_DR_[RGBI,RGBIR]_RESTART-ENABLEDRESTART-DISABLED;0;22;2.0;8.496715714220171;53;2000;6;15;2053;1;1;15;0.3677811550151976;1.0;7-10-3-13-12-14-5-1-2-9-4-11-8-0-6
NONE;;SEM-SA_-1_-1_-1_[0.1-1]_CAMQ_DR_[RGBI,RGBIR]_RESTART-ENABLEDRESTART-DISABLED;0;23;2.0;8.496715714220171;94;2000;6;15;2094;1;1;15;0.3677811550151976;1.0;2-3-12-5-9-1-10-8-4-13-14-11-6-0-7
NONE;;SEM-SA_-1_-1_-1_[0.1-1]_CAMQ_DR_[RGBI,RGBIR]_RESTART-ENABLEDRESTART-DISABLED;0;24;2.0;8.496715714220171;36;2000;6;15;2036;1;1;15;0.3677811550151976;1.0;14-0-8-7-13-9-4-1-12-2-10-11-6-3-5
NONE;;SEM-SA_-1_-1_-1_[0.1-1]_CAMQ_DR_[RGBI,RGBIR]_RESTART-ENABLEDRESTART-DISABLED;0;25;2.0;8.496715714220171;50;2000;5;15;2050;1;1;15;0.3677811550151976;1.0;13-4-10-1-5-8-0-3-12-9-2-11-6-7-14
NONE;;SEM-SA_-1_-1_-1_[0.1-1]_CAMQ_DR_[RGBI,RGBIR]_RESTART-ENABLEDRESTART-DISABLED;0;26;2.0;8.496715714220171;66;2000;6;15;2066;1;1;15;0.3677811550151976;1.0;10-2-9-4-14-1-3-8-0-6-13-11-7-12-5
NONE;;SEM-SA_-1_-1_-1_[0.1-1]_CAMQ_DR_[RGBI,RGBIR]_RESTART-ENABLEDRESTART-DISABLED;0;27;2.0;8.496715714220171;37;2000;6;15;2037;1;1;15;0.3677811550151976;1.0;7-6-4-10-0-9-14-12-8-2-5-11-1-3-13
NONE;;SEM-SA_-1_-1_-1_[0.1-1]_CAMQ_DR_[RGBI,RGBIR]_RESTART-ENABLEDRESTART-DISABLED;0;28;2.0;8.496715714220171;31;2000;7;15;2031;1;1;15;0.3677811550151976;1.0;3-8-9-14-6-2-13-4-1-12-10-11-5-0-7
NONE;;SEM-SA_-1_-1_-1_[0.1-1]_CAMQ_DR_[RGBI,RGBIR]_RESTART-ENABLEDRESTART-DISABLED;0;29;2.0;8.496715714220171;57;2000;5;15;2057;1;1;15;0.3677811550151976;1.0;7-3-1-5-14-8-13-12-10-6-9-11-4-0-2
NONE;;SEM-SA_-1_-1_-1_[0.1-1]_CAMQ_DR_[RGBI,RGBIR]_RESTART-ENABLEDRESTART-DISABLED;0;30;2.0;8.496715714220171;26;2000;5;15;2026;1;1;15;0.3677811550151976;1.0;2-10-8-5-9-4-12-7-14-1-13-11-6-0-3
NONE;;SEM-SA_-1_-1_-1_[0.1-1]_CAMQ_DR_[RGBI,RGBIR]_RESTART-ENABLEDRESTART-DISABLED;0;31;2.0;8.496715714220173;46;2000;6;15;2046;1;1;15;0.3677811550151976;1.0;5-12-0-14-1-7-2-10-3-13-8-11-4-9-6
NONE;;SEM-SA_-1_-1_-1_[0.1-1]_CAMQ_DR_[RGBI,RGBIR]_RESTART-ENABLEDRESTART-DISABLED;0;32;2.0;8.496715714220171;18;2000;6;15;2018;1;1;15;0.3677811550151976;1.0;12-1-6-2-7-5-8-14-0-3-13-11-4-9-10
NONE;;SEM-SA_-1_-1_-1_[0.1-1]_CAMQ_DR_[RGBI,RGBIR]_RESTART-ENABLEDRESTART-DISABLED;0;33;2.0;8.496715714220171;35;2000;5;15;2035;1;1;15;0.3677811550151976;1.0;6-13-14-5-8-3-9-7-0-10-1-11-2-12-4
NONE;;SEM-SA_-1_-1_-1_[0.1-1]_CAMQ_DR_[RGBI,RGBIR]_RESTART-ENABLEDRESTART-DISABLED;0;34;2.0;8.496715714220171;28;2000;6;15;2028;1;1;15;0.3677811550151976;1.0;3-12-0-2-10-6-9-7-1-8-13-11-5-4-14
NONE;;SEM-SA_-1_-1_-1_[0.1-1]_CAMQ_DR_[RGBI,RGBIR]_RESTART-ENABLEDRESTART-DISABLED;0;35;2.0;8.496715714220171;61;2000;6;15;2061;1;1;15;0.3677811550151976;1.0;10-14-2-12-1-4-13-5-8-3-9-11-7-6-0
NONE;;SEM-SA_-1_-1_-1_[0.1-1]_CAMQ_DR_[RGBI,RGBIR]_RESTART-ENABLEDRESTART-DISABLED;0;36;2.0;8.496715714220171;71;2000;5;15;2071;1;1;15;0.3677811550151976;1.0;14-8-4-2-6-0-12-10-5-1-7-11-9-13-3
NONE;;SEM-SA_-1_-1_-1_[0.1-1]_CAMQ_DR_[RGBI,RGBIR]_RESTART-ENABLEDRESTART-DISABLED;0;37;2.0;8.496715714220173;46;2000;5;15;2046;1;1;15;0.3677811550151976;1.0;12-4-13-9-10-0-5-14-8-3-2-11-6-7-1
NONE;;SEM-SA_-1_-1_-1_[0.1-1]_CAMQ_DR_[RGBI,RGBIR]_RESTART-ENABLEDRESTART-DISABLED;0;38;2.0;8.496715714220171;34;2000;7;15;2034;1;1;15;0.3677811550151976;1.0;8-7-2-13-0-12-9-1-6-4-14-11-3-5-10
NONE;;SEM-SA_-1_-1_-1_[0.1-1]_CAMQ_DR_[RGBI,RGBIR]_RESTART-ENABLEDRESTART-DISABLED;0;39;2.0;8.496715714220171;50;2000;6;15;2050;1;1;15;0.3677811550151976;1.0;4-0-12-3-2-14-5-13-9-6-1-11-7-10-8
NONE;;SEM-SA_-1_-1_-1_[0.1-1]_CAMQ_DR_[RGBI,RGBIR]_RESTART-ENABLEDRESTART-DISABLED;0;40;2.0;8.496715714220171;45;2000;6;15;2045;1;1;15;0.3677811550151976;1.0;9-6-7-12-0-1-13-2-14-5-10-11-8-4-3
NONE;;SEM-SA_-1_-1_-1_[0.1-1]_CAMQ_DR_[RGBI,RGBIR]_RESTART-ENABLEDRESTART-DISABLED;0;41;2.0;8.496715714220171;51;2000;6;15;2051;1;1;15;0.3677811550151976;1.0;12-14-13-4-5-0-6-2-8-1-7-11-9-3-10
NONE;;SEM-SA_-1_-1_-1_[0.1-1]_CAMQ_DR_[RGBI,RGBIR]_RESTART-ENABLEDRESTART-DISABLED;0;42;2.0;8.496715714220173;38;2000;5;15;2038;1;1;15;0.3677811550151976;1.0;13-10-5-4-0-6-8-9-3-1-12-11-2-7-14
NONE;;SEM-SA_-1_-1_-1_[0.1-1]_CAMQ_DR_[RGBI,RGBIR]_RESTART-ENABLEDRESTART-DISABLED;0;43;2.0;8.496715714220171;31;2000;6;15;2031;1;1;15;0.3677811550151976;1.0;9-6-0-10-8-13-3-5-2-12-7-11-14-4-1
NONE;;SEM-SA_-1_-1_-1_[0.1-1]_CAMQ_DR_[RGBI,RGBIR]_RESTART-ENABLEDRESTART-DISABLED;0;44;2.0;8.496715714220171;23;2000;6;15;2023;1;1;15;0.3677811550151976;1.0;3-9-1-2-5-12-13-7-14-4-6-11-10-0-8
NONE;;SEM-SA_-1_-1_-1_[0.1-1]_CAMQ_DR_[RGBI,RGBIR]_RESTART-ENABLEDRESTART-DISABLED;0;45;2.0;8.496715714220173;97;2000;5;15;2097;1;1;15;0.3677811550151976;1.0;14-4-12-3-6-8-0-1-2-7-9-11-13-10-5
NONE;;SEM-SA_-1_-1_-1_[0.1-1]_CAMQ_DR_[RGBI,RGBIR]_RESTART-ENABLEDRESTART-DISABLED;0;46;2.0;8.496715714220171;37;2000;6;15;2037;1;1;15;0.3677811550151976;1.0;2-7-1-4-9-0-5-8-13-3-12-11-14-10-6
NONE;;SEM-SA_-1_-1_-1_[0.1-1]_CAMQ_DR_[RGBI,RGBIR]_RESTART-ENABLEDRESTART-DISABLED;0;47;2.0;8.496715714220171;32;2000;6;15;2032;1;1;15;0.3677811550151976;1.0;8-9-7-3-1-2-13-6-0-4-10-11-5-12-14
NONE;;SEM-SA_-1_-1_-1_[0.1-1]_CAMQ_DR_[RGBI,RGBIR]_RESTART-ENABLEDRESTART-DISABLED;0;48;2.0;8.496715714220171;57;2000;6;15;2057;1;1;15;0.3677811550151976;1.0;8-1-12-9-14-10-2-3-5-7-0-11-6-4-13
NONE;;SEM-SA_-1_-1_-1_[0.1-1]_CAMQ_DR_[RGBI,RGBIR]_RESTART-ENABLEDRESTART-DISABLED;0;49;2.0;8.496715714220171;56;2000;6;15;2056;1;1;15;0.3677811550151976;1.0;12-5-10-1-14-13-8-9-3-2-7-11-4-6-0
NONE;;SEM-SA_-1_-1_-1_[0.1-1]_CAMQ_DR_[RGBI,RGBIR]_RESTART-ENABLEDRESTART-DISABLED;0;50;2.0;8.496715714220171;33;2000;10;15;2033;1;1;15;0.3677811550151976;1.0;9-6-3-0-2-13-8-5-4-12-14-11-10-1-7
NONE;;SEM-SA_-1_-1_-1_[0.1-1]_CAMQ_DR_[RGBI,RGBIR]_RESTART-ENABLEDRESTART-DISABLED;0;51;2.0;8.496715714220171;63;2000;6;15;2063;1;1;15;0.3677811550151976;1.0;1-14-4-10-6-9-13-7-0-2-3-11-12-8-5
NONE;;SEM-SA_-1_-1_-1_[0.1-1]_CAMQ_DR_[RGBI,RGBIR]_RESTART-ENABLEDRESTART-DISABLED;0;52;2.0;8.496715714220171;33;2000;6;15;2033;1;1;15;0.3677811550151976;1.0;13-5-1-3-9-10-6-12-4-8-0-11-14-2-7
NONE;;SEM-SA_-1_-1_-1_[0.1-1]_CAMQ_DR_[RGBI,RGBIR]_RESTART-ENABLEDRESTART-DISABLED;0;53;2.0;8.496715714220173;38;2000;6;15;2038;1;1;15;0.3677811550151976;1.0;10-1-3-5-6-4-7-12-2-13-0-11-14-9-8
NONE;;SEM-SA_-1_-1_-1_[0.1-1]_CAMQ_DR_[RGBI,RGBIR]_RESTART-ENABLEDRESTART-DISABLED;0;54;2.0;8.496715714220171;30;2000;5;15;2030;1;1;15;0.3677811550151976;1.0;8-4-10-2-0-13-6-5-1-7-14-11-12-9-3
NONE;;SEM-SA_-1_-1_-1_[0.1-1]_CAMQ_DR_[RGBI,RGBIR]_RESTART-ENABLEDRESTART-DISABLED;0;55;2.0;8.496715714220171;30;2000;5;15;2030;1;1;15;0.3677811550151976;1.0;10-0-12-3-14-9-1-6-5-13-2-11-4-8-7
NONE;;SEM-SA_-1_-1_-1_[0.1-1]_CAMQ_DR_[RGBI,RGBIR]_RESTART-ENABLEDRESTART-DISABLED;0;56;2.0;8.496715714220171;22;2000;6;15;2022;1;1;15;0.3677811550151976;1.0;8-4-2-0-9-12-1-5-3-13-6-11-7-10-14
NONE;;SEM-SA_-1_-1_-1_[0.1-1]_CAMQ_DR_[RGBI,RGBIR]_RESTART-ENABLEDRESTART-DISABLED;0;57;2.0;8.496715714220171;50;2000;6;15;2050;1;1;15;0.3677811550151976;1.0;10-9-14-1-13-12-6-5-8-7-3-11-2-4-0
NONE;;SEM-SA_-1_-1_-1_[0.1-1]_CAMQ_DR_[RGBI,RGBIR]_RESTART-ENABLEDRESTART-DISABLED;0;58;2.0;8.496715714220171;28;2000;5;15;2028;1;1;15;0.3677811550151976;1.0;0-4-1-13-6-8-12-10-9-5-2-11-7-3-14
NONE;;SEM-SA_-1_-1_-1_[0.1-1]_CAMQ_DR_[RGBI,RGBIR]_RESTART-ENABLEDRESTART-DISABLED;0;59;2.0;8.496715714220171;45;2000;6;15;2045;1;1;15;0.3677811550151976;1.0;12-0-7-2-5-3-10-6-1-4-9-11-8-14-13
NONE;;SEM-SA_-1_-1_-1_[0.1-1]_CAMQ_DR_[RGBI,RGBIR]_RESTART-ENABLEDRESTART-DISABLED;0;60;2.0;8.496715714220171;57;2000;6;15;2057;1;1;15;0.3677811550151976;1.0;4-9-5-1-12-0-6-14-8-7-10-11-2-3-13
NONE;;SEM-SA_-1_-1_-1_[0.1-1]_CAMQ_DR_[RGBI,RGBIR]_RESTART-ENABLEDRESTART-DISABLED;0;61;2.0;8.496715714220171;28;2000;6;15;2028;1;1;15;0.3677811550151976;1.0;3-10-9-7-8-6-12-14-0-1-13-11-4-2-5
NONE;;SEM-SA_-1_-1_-1_[0.1-1]_CAMQ_DR_[RGBI,RGBIR]_RESTART-ENABLEDRESTART-DISABLED;0;62;2.0;8.496715714220171;39;2000;6;15;2039;1;1;15;0.3677811550151976;1.0;7-12-3-5-1-9-13-2-14-6-0-11-10-4-8
NONE;;SEM-SA_-1_-1_-1_[0.1-1]_CAMQ_DR_[RGBI,RGBIR]_RESTART-ENABLEDRESTART-DISABLED;0;63;2.0;8.496715714220171;40;2000;6;15;2040;1;1;15;0.3677811550151976;1.0;0-3-6-14-1-10-8-7-5-4-9-11-12-2-13
NONE;;SEM-SA_-1_-1_-1_[0.1-1]_CAMQ_DR_[RGBI,RGBIR]_RESTART-ENABLEDRESTART-DISABLED;0;64;2.0;8.496715714220173;94;2000;6;15;2094;1;1;15;0.3677811550151976;1.0;12-5-3-0-1-14-7-8-6-4-9-11-10-13-2
NONE;;SEM-SA_-1_-1_-1_[0.1-1]_CAMQ_DR_[RGBI,RGBIR]_RESTART-ENABLEDRESTART-DISABLED;0;65;2.0;8.496715714220173;57;2000;7;15;2057;1;1;15;0.3677811550151976;1.0;14-9-10-1-5-0-2-8-6-13-7-11-12-3-4
NONE;;SEM-SA_-1_-1_-1_[0.1-1]_CAMQ_DR_[RGBI,RGBIR]_RESTART-ENABLEDRESTART-DISABLED;0;66;2.0;8.496715714220173;99;2000;6;15;2099;1;1;15;0.3677811550151976;1.0;9-1-14-13-4-10-6-0-2-3-12-11-8-7-5
NONE;;SEM-SA_-1_-1_-1_[0.1-1]_CAMQ_DR_[RGBI,RGBIR]_RESTART-ENABLEDRESTART-DISABLED;0;67;2.0;8.496715714220173;211;2000;6;15;2211;1;1;15;0.3677811550151976;1.0;13-2-10-1-8-9-7-5-4-14-3-11-6-12-0
NONE;;SEM-SA_-1_-1_-1_[0.1-1]_CAMQ_DR_[RGBI,RGBIR]_RESTART-ENABLEDRESTART-DISABLED;0;68;2.0;8.496715714220171;38;2000;5;15;2038;1;1;15;0.3677811550151976;1.0;7-5-0-2-13-10-12-4-9-1-14-11-6-3-8
NONE;;SEM-SA_-1_-1_-1_[0.1-1]_CAMQ_DR_[RGBI,RGBIR]_RESTART-ENABLEDRESTART-DISABLED;0;69;2.0;8.496715714220171;36;2000;5;15;2036;1;1;15;0.3677811550151976;1.0;1-9-0-10-14-3-2-8-5-6-4-11-12-7-13
NONE;;SEM-SA_-1_-1_-1_[0.1-1]_CAMQ_DR_[RGBI,RGBIR]_RESTART-ENABLEDRESTART-DISABLED;0;70;2.0;8.496715714220171;37;2000;6;15;2037;1;1;15;0.3677811550151976;1.0;12-2-4-13-3-9-8-1-14-6-0-11-7-5-10
NONE;;SEM-SA_-1_-1_-1_[0.1-1]_CAMQ_DR_[RGBI,RGBIR]_RESTART-ENABLEDRESTART-DISABLED;0;71;2.0;8.496715714220171;23;2000;5;15;2023;1;1;15;0.3677811550151976;1.0;0-12-5-10-8-14-2-7-1-6-4-11-9-13-3
NONE;;SEM-SA_-1_-1_-1_[0.1-1]_CAMQ_DR_[RGBI,RGBIR]_RESTART-ENABLEDRESTART-DISABLED;0;72;2.0;8.496715714220171;33;2000;5;15;2033;1;1;15;0.3677811550151976;1.0;2-13-8-9-7-1-0-5-6-3-12-11-14-4-10
NONE;;SEM-SA_-1_-1_-1_[0.1-1]_CAMQ_DR_[RGBI,RGBIR]_RESTART-ENABLEDRESTART-DISABLED;0;73;2.0;8.496715714220171;78;2000;6;15;2078;1;1;15;0.3677811550151976;1.0;3-1-13-10-12-14-6-5-0-7-8-11-2-9-4
NONE;;SEM-SA_-1_-1_-1_[0.1-1]_CAMQ_DR_[RGBI,RGBIR]_RESTART-ENABLEDRESTART-DISABLED;0;74;2.0;8.496715714220171;65;2000;6;15;2065;1;1;15;0.3677811550151976;1.0;10-1-2-3-13-4-7-9-12-5-6-11-8-0-14
NONE;;SEM-SA_-1_-1_-1_[0.1-1]_CAMQ_DR_[RGBI,RGBIR]_RESTART-ENABLEDRESTART-DISABLED;0;75;2.0;8.496715714220171;50;2000;5;15;2050;1;1;15;0.3677811550151976;1.0;6-12-2-0-13-9-1-10-4-3-7-11-8-5-14
NONE;;SEM-SA_-1_-1_-1_[0.1-1]_CAMQ_DR_[RGBI,RGBIR]_RESTART-ENABLEDRESTART-DISABLED;0;76;2.0;8.496715714220171;55;2000;5;15;2055;1;1;15;0.3677811550151976;1.0;8-12-13-3-1-9-2-10-4-6-0-11-5-14-7
NONE;;SEM-SA_-1_-1_-1_[0.1-1]_CAMQ_DR_[RGBI,RGBIR]_RESTART-ENABLEDRESTART-DISABLED;0;77;2.0;8.496715714220171;61;2000;6;15;2061;1;1;15;0.3677811550151976;1.0;8-10-4-7-12-0-13-1-14-5-2-11-6-3-9
NONE;;SEM-SA_-1_-1_-1_[0.1-1]_CAMQ_DR_[RGBI,RGBIR]_RESTART-ENABLEDRESTART-DISABLED;0;78;2.0;8.496715714220173;178;2000;6;15;2178;1;1;15;0.3677811550151976;1.0;1-12-3-2-0-4-14-5-10-8-6-11-9-13-7
NONE;;SEM-SA_-1_-1_-1_[0.1-1]_CAMQ_DR_[RGBI,RGBIR]_RESTART-ENABLEDRESTART-DISABLED;0;79;2.0;8.496715714220171;54;2000;6;15;2054;1;1;15;0.3677811550151976;1.0;6-14-7-8-13-10-5-9-0-3-1-11-12-2-4
NONE;;SEM-SA_-1_-1_-1_[0.1-1]_CAMQ_DR_[RGBI,RGBIR]_RESTART-ENABLEDRESTART-DISABLED;0;80;2.0;8.496715714220171;89;2000;6;15;2089;1;1;15;0.3677811550151976;1.0;13-0-1-8-7-4-3-2-9-5-12-11-10-6-14
NONE;;SEM-SA_-1_-1_-1_[0.1-1]_CAMQ_DR_[RGBI,RGBIR]_RESTART-ENABLEDRESTART-DISABLED;0;81;2.0;8.496715714220171;70;2000;6;15;2070;1;1;15;0.3677811550151976;1.0;14-12-0-13-9-3-4-2-10-6-8-11-5-7-1
NONE;;SEM-SA_-1_-1_-1_[0.1-1]_CAMQ_DR_[RGBI,RGBIR]_RESTART-ENABLEDRESTART-DISABLED;0;82;2.0;8.496715714220171;64;2000;7;15;2064;1;1;15;0.3677811550151976;1.0;5-3-13-6-8-2-12-7-1-9-4-11-0-10-14
NONE;;SEM-SA_-1_-1_-1_[0.1-1]_CAMQ_DR_[RGBI,RGBIR]_RESTART-ENABLEDRESTART-DISABLED;0;83;2.0;8.496715714220171;42;2000;6;15;2042;1;1;15;0.3677811550151976;1.0;3-12-5-7-2-14-1-8-9-0-6-11-4-13-10
NONE;;SEM-SA_-1_-1_-1_[0.1-1]_CAMQ_DR_[RGBI,RGBIR]_RESTART-ENABLEDRESTART-DISABLED;0;84;2.0;8.496715714220171;49;2000;6;15;2049;1;1;15;0.3677811550151976;1.0;12-0-10-2-6-4-13-5-14-1-7-11-3-8-9
NONE;;SEM-SA_-1_-1_-1_[0.1-1]_CAMQ_DR_[RGBI,RGBIR]_RESTART-ENABLEDRESTART-DISABLED;0;85;2.0;8.496715714220171;23;2000;5;15;2023;1;1;15;0.3677811550151976;1.0;2-12-3-4-0-7-5-9-13-8-14-11-6-1-10
NONE;;SEM-SA_-1_-1_-1_[0.1-1]_CAMQ_DR_[RGBI,RGBIR]_RESTART-ENABLEDRESTART-DISABLED;0;86;2.0;8.496715714220171;34;2000;6;15;2034;1;1;15;0.3677811550151976;1.0;6-14-0-5-2-12-9-4-7-8-10-11-3-13-1
NONE;;SEM-SA_-1_-1_-1_[0.1-1]_CAMQ_DR_[RGBI,RGBIR]_RESTART-ENABLEDRESTART-DISABLED;0;87;2.0;8.496715714220171;48;2000;6;15;2048;1;1;15;0.3677811550151976;1.0;9-2-4-10-0-3-6-1-5-8-14-11-13-12-7
NONE;;SEM-SA_-1_-1_-1_[0.1-1]_CAMQ_DR_[RGBI,RGBIR]_RESTART-ENABLEDRESTART-DISABLED;0;88;2.0;8.496715714220171;44;2000;6;15;2044;1;1;15;0.3677811550151976;1.0;2-9-1-12-8-10-5-6-13-4-0-11-3-14-7
NONE;;SEM-SA_-1_-1_-1_[0.1-1]_CAMQ_DR_[RGBI,RGBIR]_RESTART-ENABLEDRESTART-DISABLED;0;89;2.0;8.496715714220171;76;2000;5;15;2076;1;1;15;0.3677811550151976;1.0;8-13-1-0-9-10-4-14-12-2-7-11-3-6-5
NONE;;SEM-SA_-1_-1_-1_[0.1-1]_CAMQ_DR_[RGBI,RGBIR]_RESTART-ENABLEDRESTART-DISABLED;0;90;2.0;8.496715714220171;40;2000;5;15;2040;1;1;15;0.3677811550151976;1.0;4-10-1-14-6-7-3-5-9-13-8-11-12-2-0
NONE;;SEM-SA_-1_-1_-1_[0.1-1]_CAMQ_DR_[RGBI,RGBIR]_RESTART-ENABLEDRESTART-DISABLED;0;91;2.0;8.496715714220171;43;2000;6;15;2043;1;1;15;0.3677811550151976;1.0;12-0-4-5-2-6-3-9-10-14-13-11-8-7-1
NONE;;SEM-SA_-1_-1_-1_[0.1-1]_CAMQ_DR_[RGBI,RGBIR]_RESTART-ENABLEDRESTART-DISABLED;0;92;2.0;8.496715714220171;64;2000;6;15;2064;1;1;15;0.3677811550151976;1.0;5-3-2-7-1-14-12-8-9-4-10-11-0-13-6
NONE;;SEM-SA_-1_-1_-1_[0.1-1]_CAMQ_DR_[RGBI,RGBIR]_RESTART-ENABLEDRESTART-DISABLED;0;93;2.0;8.496715714220171;48;2000;6;15;2048;1;1;15;0.3677811550151976;1.0;4-6-5-13-9-7-10-8-1-14-3-11-0-12-2
NONE;;SEM-SA_-1_-1_-1_[0.1-1]_CAMQ_DR_[RGBI,RGBIR]_RESTART-ENABLEDRESTART-DISABLED;0;94;2.0;8.496715714220171;51;2000;6;15;2051;1;1;15;0.3677811550151976;1.0;1-4-14-9-7-2-12-3-5-8-10-11-6-0-13
NONE;;SEM-SA_-1_-1_-1_[0.1-1]_CAMQ_DR_[RGBI,RGBIR]_RESTART-ENABLEDRESTART-DISABLED;0;95;2.0;8.496715714220171;56;2000;6;15;2056;1;1;15;0.3677811550151976;1.0;6-7-2-0-14-4-1-10-3-9-8-11-5-12-13
NONE;;SEM-SA_-1_-1_-1_[0.1-1]_CAMQ_DR_[RGBI,RGBIR]_RESTART-ENABLEDRESTART-DISABLED;0;96;2.0;8.496715714220171;49;2000;5;15;2049;1;1;15;0.3677811550151976;1.0;7-3-4-2-6-14-13-12-9-1-10-11-5-8-0
NONE;;SEM-SA_-1_-1_-1_[0.1-1]_CAMQ_DR_[RGBI,RGBIR]_RESTART-ENABLEDRESTART-DISABLED;0;97;2.0;8.496715714220171;37;2000;5;15;2037;1;1;15;0.3677811550151976;1.0;3-10-7-8-6-13-4-12-14-9-5-11-1-0-2
NONE;;SEM-SA_-1_-1_-1_[0.1-1]_CAMQ_DR_[RGBI,RGBIR]_RESTART-ENABLEDRESTART-DISABLED;0;98;2.0;8.496715714220173;72;2000;6;15;2072;1;1;15;0.3677811550151976;1.0;7-12-1-2-4-3-14-0-13-10-6-11-5-9-8
NONE;;SEM-SA_-1_-1_-1_[0.1-1]_CAMQ_DR_[RGBI,RGBIR]_RESTART-ENABLEDRESTART-DISABLED;0;99;2.0;8.496715714220171;49;2000;6;15;2049;1;1;15;0.3677811550151976;1.0;5-4-13-6-14-7-3-9-12-1-8-11-2-10-0
