NONE;;SEM-SA_-1_-1_-1_[0.1-1]_CAMQ_DR_[RGBI,RGBIR];0;0;12.349996448861093;12.525911916266823;650;600;200;39
NONE;;SEM-SA_-1_-1_-1_[0.1-1]_CAMQ_DR_[RGBI,RGBIR];0;1;12.349996448861093;12.521519920856521;475;600;160;40
NONE;;SEM-SA_-1_-1_-1_[0.1-1]_CAMQ_DR_[RGBI,RGBIR];0;2;12.349996448861093;12.521519920856521;460;600;170;40
NONE;;SEM-SA_-1_-1_-1_[0.1-1]_CAMQ_DR_[RGBI,RGBIR];0;3;12.349996448861093;12.517384121494533;546;600;170;40
NONE;;SEM-SA_-1_-1_-1_[0.1-1]_CAMQ_DR_[RGBI,RGBIR];0;4;12.349996448861093;12.517384121494532;742;600;190;40
NONE;;SEM-SA_-1_-1_-1_[0.1-1]_CAMQ_DR_[RGBI,RGBIR];0;5;12.349996448861093;12.495311179960003;23;600;75;39
NONE;;SEM-SA_-1_-1_-1_[0.1-1]_CAMQ_DR_[RGBI,RGBIR];0;6;12.349996448861093;12.499194499459895;251;600;130;40
NONE;;SEM-SA_-1_-1_-1_[0.1-1]_CAMQ_DR_[RGBI,RGBIR];0;7;12.349996448861093;12.495058700097902;47;600;85;40
NONE;;SEM-SA_-1_-1_-1_[0.1-1]_CAMQ_DR_[RGBI,RGBIR];0;8;12.349996448861093;12.499194499459891;127;600;105;40
NONE;;SEM-SA_-1_-1_-1_[0.1-1]_CAMQ_DR_[RGBI,RGBIR];0;9;12.349996448861093;12.499194499459891;224;600;125;40
NONE;;SEM-SA_-1_-1_-1_[0.1-1]_CAMQ_DR_[RGBI,RGBIR];0;10;12.349996448861093;12.525911916266823;659;600;170;39
NONE;;SEM-SA_-1_-1_-1_[0.1-1]_CAMQ_DR_[RGBI,RGBIR];0;11;12.349996448861093;12.517384121494533;505;600;160;40
NONE;;SEM-SA_-1_-1_-1_[0.1-1]_CAMQ_DR_[RGBI,RGBIR];0;12;12.349996448861093;12.521519920856523;548;600;180;40
NONE;;SEM-SA_-1_-1_-1_[0.1-1]_CAMQ_DR_[RGBI,RGBIR];0;13;12.349996448861093;12.499194499459895;190;600;115;40
NONE;;SEM-SA_-1_-1_-1_[0.1-1]_CAMQ_DR_[RGBI,RGBIR];0;14;12.349996448861093;12.521519920856523;485;600;165;40
NONE;;SEM-SA_-1_-1_-1_[0.1-1]_CAMQ_DR_[RGBI,RGBIR];0;15;12.349996448861093;12.521519920856523;528;600;175;40
NONE;;SEM-SA_-1_-1_-1_[0.1-1]_CAMQ_DR_[RGBI,RGBIR];0;16;12.349996448861093;12.521519920856521;391;600;150;40
NONE;;SEM-SA_-1_-1_-1_[0.1-1]_CAMQ_DR_[RGBI,RGBIR];0;17;12.349996448861093;12.499194499459893;66;600;85;40
NONE;;SEM-SA_-1_-1_-1_[0.1-1]_CAMQ_DR_[RGBI,RGBIR];0;18;12.349996448861093;12.521519920856521;384;600;150;40
NONE;;SEM-SA_-1_-1_-1_[0.1-1]_CAMQ_DR_[RGBI,RGBIR];0;19;12.349996448861093;12.521776116904835;511;600;160;39
NONE;;SEM-SA_-1_-1_-1_[0.1-1]_CAMQ_DR_[RGBI,RGBIR];0;20;12.349996448861093;12.465504196834516;32;600;80;41
NONE;;SEM-SA_-1_-1_-1_[0.1-1]_CAMQ_DR_[RGBI,RGBIR];0;21;12.349996448861093;12.499194499459891;511;600;165;40
NONE;;SEM-SA_-1_-1_-1_[0.1-1]_CAMQ_DR_[RGBI,RGBIR];0;22;12.349996448861093;12.493734942913381;115;600;95;38
NONE;;SEM-SA_-1_-1_-1_[0.1-1]_CAMQ_DR_[RGBI,RGBIR];0;23;12.349996448861093;12.517384121494532;792;600;195;40
NONE;;SEM-SA_-1_-1_-1_[0.1-1]_CAMQ_DR_[RGBI,RGBIR];0;24;12.349996448861093;12.521519920856521;449;600;155;40
NONE;;SEM-SA_-1_-1_-1_[0.1-1]_CAMQ_DR_[RGBI,RGBIR];0;25;12.349996448861093;12.521519920856521;685;600;175;40
NONE;;SEM-SA_-1_-1_-1_[0.1-1]_CAMQ_DR_[RGBI,RGBIR];0;26;12.349996448861093;12.517384121494532;545;600;180;40
NONE;;SEM-SA_-1_-1_-1_[0.1-1]_CAMQ_DR_[RGBI,RGBIR];0;27;12.349996448861093;12.517384121494532;680;600;185;40
NONE;;SEM-SA_-1_-1_-1_[0.1-1]_CAMQ_DR_[RGBI,RGBIR];0;28;12.349996448861093;12.48934294750308;89;600;90;39
NONE;;SEM-SA_-1_-1_-1_[0.1-1]_CAMQ_DR_[RGBI,RGBIR];0;29;12.349996448861093;12.517384121494533;648;600;165;40
NONE;;SEM-SA_-1_-1_-1_[0.1-1]_CAMQ_DR_[RGBI,RGBIR];0;30;12.349996448861093;12.521519920856521;534;600;180;40
NONE;;SEM-SA_-1_-1_-1_[0.1-1]_CAMQ_DR_[RGBI,RGBIR];0;31;12.349996448861093;12.495058700097905;21;600;80;40
NONE;;SEM-SA_-1_-1_-1_[0.1-1]_CAMQ_DR_[RGBI,RGBIR];0;32;12.349996448861093;12.499194499459895;89;600;95;40
NONE;;SEM-SA_-1_-1_-1_[0.1-1]_CAMQ_DR_[RGBI,RGBIR];0;33;12.349996448861093;12.497093203268065;169;600;110;40
NONE;;SEM-SA_-1_-1_-1_[0.1-1]_CAMQ_DR_[RGBI,RGBIR];0;34;12.349996448861093;12.485207148141088;170;600;110;39
NONE;;SEM-SA_-1_-1_-1_[0.1-1]_CAMQ_DR_[RGBI,RGBIR];0;35;12.349996448861093;12.521776116904833;691;600;165;39
NONE;;SEM-SA_-1_-1_-1_[0.1-1]_CAMQ_DR_[RGBI,RGBIR];0;36;12.349996448861093;12.528248659410833;762;600;165;39
NONE;;SEM-SA_-1_-1_-1_[0.1-1]_CAMQ_DR_[RGBI,RGBIR];0;37;12.349996448861093;12.495058700097903;69;600;90;40
NONE;;SEM-SA_-1_-1_-1_[0.1-1]_CAMQ_DR_[RGBI,RGBIR];0;38;12.349996448861093;12.521519920856521;550;600;160;40
NONE;;SEM-SA_-1_-1_-1_[0.1-1]_CAMQ_DR_[RGBI,RGBIR];0;39;12.349996448861093;12.517384121494532;483;600;170;40
NONE;;SEM-SA_-1_-1_-1_[0.1-1]_CAMQ_DR_[RGBI,RGBIR];0;40;12.349996448861093;12.521519920856523;478;600;155;40
NONE;;SEM-SA_-1_-1_-1_[0.1-1]_CAMQ_DR_[RGBI,RGBIR];0;41;12.349996448861093;12.499194499459895;108;600;95;40
NONE;;SEM-SA_-1_-1_-1_[0.1-1]_CAMQ_DR_[RGBI,RGBIR];0;42;12.349996448861093;12.528248659410833;493;600;155;39
NONE;;SEM-SA_-1_-1_-1_[0.1-1]_CAMQ_DR_[RGBI,RGBIR];0;43;12.349996448861093;12.521519920856523;582;600;180;40
NONE;;SEM-SA_-1_-1_-1_[0.1-1]_CAMQ_DR_[RGBI,RGBIR];0;44;12.349996448861093;12.499194499459893;132;600;105;40
NONE;;SEM-SA_-1_-1_-1_[0.1-1]_CAMQ_DR_[RGBI,RGBIR];0;45;12.349996448861093;12.521519920856521;476;600;165;40
NONE;;SEM-SA_-1_-1_-1_[0.1-1]_CAMQ_DR_[RGBI,RGBIR];0;46;12.349996448861093;12.495058700097903;42;600;85;40
NONE;;SEM-SA_-1_-1_-1_[0.1-1]_CAMQ_DR_[RGBI,RGBIR];0;47;12.349996448861093;12.495058700097905;121;600;100;40
NONE;;SEM-SA_-1_-1_-1_[0.1-1]_CAMQ_DR_[RGBI,RGBIR];0;48;12.349996448861093;12.519418624664693;459;600;150;40
NONE;;SEM-SA_-1_-1_-1_[0.1-1]_CAMQ_DR_[RGBI,RGBIR];0;49;12.349996448861093;12.493734942913381;303;600;130;38
NONE;;SEM-SA_-1_-1_-1_[0.1-1]_CAMQ_DR_[RGBI,RGBIR];0;50;12.349996448861093;12.521519920856521;710;600;200;40
NONE;;SEM-SA_-1_-1_-1_[0.1-1]_CAMQ_DR_[RGBI,RGBIR];0;51;12.349996448861093;12.495058700097905;249;600;125;40
NONE;;SEM-SA_-1_-1_-1_[0.1-1]_CAMQ_DR_[RGBI,RGBIR];0;52;12.349996448861093;12.521519920856521;691;600;200;40
NONE;;SEM-SA_-1_-1_-1_[0.1-1]_CAMQ_DR_[RGBI,RGBIR];0;53;12.349996448861093;12.519418624664693;658;600;165;40
NONE;;SEM-SA_-1_-1_-1_[0.1-1]_CAMQ_DR_[RGBI,RGBIR];0;54;12.349996448861093;12.528248659410833;885;600;190;39
NONE;;SEM-SA_-1_-1_-1_[0.1-1]_CAMQ_DR_[RGBI,RGBIR];0;55;12.349996448861093;12.521519920856523;455;600;165;40
NONE;;SEM-SA_-1_-1_-1_[0.1-1]_CAMQ_DR_[RGBI,RGBIR];0;56;12.349996448861093;12.485207148141086;214;600;120;39
NONE;;SEM-SA_-1_-1_-1_[0.1-1]_CAMQ_DR_[RGBI,RGBIR];0;57;12.349996448861093;12.521519920856521;515;600;160;40
NONE;;SEM-SA_-1_-1_-1_[0.1-1]_CAMQ_DR_[RGBI,RGBIR];0;58;12.349996448861093;12.499194499459895;417;600;150;40
NONE;;SEM-SA_-1_-1_-1_[0.1-1]_CAMQ_DR_[RGBI,RGBIR];0;59;12.349996448861093;12.47910963306188;530;600;165;39
NONE;;SEM-SA_-1_-1_-1_[0.1-1]_CAMQ_DR_[RGBI,RGBIR];0;60;12.349996448861093;12.517384121494532;779;600;195;40
NONE;;SEM-SA_-1_-1_-1_[0.1-1]_CAMQ_DR_[RGBI,RGBIR];0;61;12.349996448861093;12.521519920856523;762;600;195;40
NONE;;SEM-SA_-1_-1_-1_[0.1-1]_CAMQ_DR_[RGBI,RGBIR];0;62;12.349996448861093;12.499194499459895;291;600;140;40
NONE;;SEM-SA_-1_-1_-1_[0.1-1]_CAMQ_DR_[RGBI,RGBIR];0;63;12.349996448861093;12.495058700097903;64;600;90;40
NONE;;SEM-SA_-1_-1_-1_[0.1-1]_CAMQ_DR_[RGBI,RGBIR];0;64;12.349996448861093;12.499194499459893;234;600;125;40
NONE;;SEM-SA_-1_-1_-1_[0.1-1]_CAMQ_DR_[RGBI,RGBIR];0;65;12.349996448861093;12.517384121494532;622;600;180;40
NONE;;SEM-SA_-1_-1_-1_[0.1-1]_CAMQ_DR_[RGBI,RGBIR];0;66;12.349996448861093;12.485207148141086;221;600;115;39
NONE;;SEM-SA_-1_-1_-1_[0.1-1]_CAMQ_DR_[RGBI,RGBIR];0;67;12.349996448861093;12.499194499459891;252;600;125;40
NONE;;SEM-SA_-1_-1_-1_[0.1-1]_CAMQ_DR_[RGBI,RGBIR];0;68;12.349996448861093;12.521519920856523;597;600;175;40
NONE;;SEM-SA_-1_-1_-1_[0.1-1]_CAMQ_DR_[RGBI,RGBIR];0;69;12.349996448861093;12.521519920856521;496;600;170;40
NONE;;SEM-SA_-1_-1_-1_[0.1-1]_CAMQ_DR_[RGBI,RGBIR];0;70;12.349996448861093;12.517384121494533;471;600;165;40
NONE;;SEM-SA_-1_-1_-1_[0.1-1]_CAMQ_DR_[RGBI,RGBIR];0;71;12.349996448861093;12.517384121494533;519;600;180;40
NONE;;SEM-SA_-1_-1_-1_[0.1-1]_CAMQ_DR_[RGBI,RGBIR];0;72;12.349996448861093;12.521519920856523;372;600;150;40
NONE;;SEM-SA_-1_-1_-1_[0.1-1]_CAMQ_DR_[RGBI,RGBIR];0;73;12.349996448861093;12.521519920856523;559;600;175;40
NONE;;SEM-SA_-1_-1_-1_[0.1-1]_CAMQ_DR_[RGBI,RGBIR];0;74;12.349996448861093;12.495058700097905;164;600;110;40
NONE;;SEM-SA_-1_-1_-1_[0.1-1]_CAMQ_DR_[RGBI,RGBIR];0;75;12.349996448861093;12.499194499459891;277;600;130;40
NONE;;SEM-SA_-1_-1_-1_[0.1-1]_CAMQ_DR_[RGBI,RGBIR];0;76;12.349996448861093;12.495588069687463;434;600;150;39
NONE;;SEM-SA_-1_-1_-1_[0.1-1]_CAMQ_DR_[RGBI,RGBIR];0;77;12.349996448861093;12.497093203268065;199;600;115;40
NONE;;SEM-SA_-1_-1_-1_[0.1-1]_CAMQ_DR_[RGBI,RGBIR];0;78;12.349996448861093;12.521519920856521;655;600;160;40
NONE;;SEM-SA_-1_-1_-1_[0.1-1]_CAMQ_DR_[RGBI,RGBIR];0;79;12.349996448861093;12.521519920856521;426;600;155;40
NONE;;SEM-SA_-1_-1_-1_[0.1-1]_CAMQ_DR_[RGBI,RGBIR];0;80;12.349996448861093;12.48934294750308;53;600;85;39
NONE;;SEM-SA_-1_-1_-1_[0.1-1]_CAMQ_DR_[RGBI,RGBIR];0;81;12.349996448861093;12.48520714814109;85;600;85;39
NONE;;SEM-SA_-1_-1_-1_[0.1-1]_CAMQ_DR_[RGBI,RGBIR];0;82;12.349996448861093;12.495058700097902;200;600;115;40
NONE;;SEM-SA_-1_-1_-1_[0.1-1]_CAMQ_DR_[RGBI,RGBIR];0;83;12.349996448861093;12.499194499459893;90;600;95;40
NONE;;SEM-SA_-1_-1_-1_[0.1-1]_CAMQ_DR_[RGBI,RGBIR];0;84;12.349996448861093;12.519418624664693;554;600;175;40
NONE;;SEM-SA_-1_-1_-1_[0.1-1]_CAMQ_DR_[RGBI,RGBIR];0;85;12.349996448861093;12.521519920856523;692;600;170;40
NONE;;SEM-SA_-1_-1_-1_[0.1-1]_CAMQ_DR_[RGBI,RGBIR];0;86;12.349996448861093;12.521519920856523;534;600;160;40
NONE;;SEM-SA_-1_-1_-1_[0.1-1]_CAMQ_DR_[RGBI,RGBIR];0;87;12.349996448861093;12.521519920856521;515;600;155;40
NONE;;SEM-SA_-1_-1_-1_[0.1-1]_CAMQ_DR_[RGBI,RGBIR];0;88;12.349996448861093;12.495058700097902;140;600;105;40
NONE;;SEM-SA_-1_-1_-1_[0.1-1]_CAMQ_DR_[RGBI,RGBIR];0;89;12.349996448861093;12.517384121494533;611;600;200;40
NONE;;SEM-SA_-1_-1_-1_[0.1-1]_CAMQ_DR_[RGBI,RGBIR];0;90;12.349996448861093;12.48959914355139;578;600;185;38
NONE;;SEM-SA_-1_-1_-1_[0.1-1]_CAMQ_DR_[RGBI,RGBIR];0;91;12.349996448861093;12.499194499459891;178;600;115;40
NONE;;SEM-SA_-1_-1_-1_[0.1-1]_CAMQ_DR_[RGBI,RGBIR];0;92;12.349996448861093;12.495058700097902;230;600;120;40
NONE;;SEM-SA_-1_-1_-1_[0.1-1]_CAMQ_DR_[RGBI,RGBIR];0;93;12.349996448861093;12.499194499459895;172;600;110;40
NONE;;SEM-SA_-1_-1_-1_[0.1-1]_CAMQ_DR_[RGBI,RGBIR];0;94;12.349996448861093;12.521519920856521;945;600;230;40
NONE;;SEM-SA_-1_-1_-1_[0.1-1]_CAMQ_DR_[RGBI,RGBIR];0;95;12.349996448861093;12.499194499459893;211;600;120;40
NONE;;SEM-SA_-1_-1_-1_[0.1-1]_CAMQ_DR_[RGBI,RGBIR];0;96;12.349996448861093;12.521519920856521;424;600;160;40
NONE;;SEM-SA_-1_-1_-1_[0.1-1]_CAMQ_DR_[RGBI,RGBIR];0;97;12.349996448861093;12.517384121494532;529;600;155;40
NONE;;SEM-SA_-1_-1_-1_[0.1-1]_CAMQ_DR_[RGBI,RGBIR];0;98;12.349996448861093;12.495058700097905;225;600;120;40
NONE;;SEM-SA_-1_-1_-1_[0.1-1]_CAMQ_DR_[RGBI,RGBIR];0;99;12.349996448861093;12.521519920856523;668;600;185;40
