"mtunis";10;1094;274.67;2010;3094;2274.67
"ispell";4;1585;243.65;2004;3585;2243.65
"nanoxml";2;2345;369.54;2002;4345;2369.54
"rcs";5;2506;774.47;2005;4506;2774.47
"apache_zip";10;1244;242.08;2010;3244;2242.08
"bison";38;3477;1116.9;2038;5477;3116.9
"jscatterplot";8;2014;162.3;2008;4014;2162.3
"grappa";2;2265;200.09;2002;4265;2200.09
"junit";1;2007;145.67;2001;4007;2145.67
"tinytim";222;2566;1544.26;2222;4566;3544.26
"gae_plugin_core";9;3030;1577.5;2009;5030;3577.5
"incl";0;2341;518.46;2000;4341;2518.46
"jdendogram";31;5558;883.4;2031;7558;2883.4
"pdf_renderer";15;1964;586.72;2015;3964;2586.72
"jung_visualization";196;5339;2309.36;2196;7339;4309.36
"pfcda_swing";111;3033;690.95;2111;5033;2690.95
"jml-1.0b4";207;7353;3107.91;2207;9353;5107.91
"notelab-full";301;7489;2884.69;2301;9489;4884.69
