NONE;;SEM-SA_-1_-1_-1_[0.1-1]_CAMQ_DR_[RGBI,RGBIR];0;0;2.3281101343958213;2.3281101343958213;0;800;0;8
NONE;;SEM-SA_-1_-1_-1_[0.1-1]_CAMQ_DR_[RGBI,RGBIR];0;1;2.3281101343958213;2.3323147949834606;158;800;5;8
NONE;;SEM-SA_-1_-1_-1_[0.1-1]_CAMQ_DR_[RGBI,RGBIR];0;2;2.3281101343958213;2.3323147949834606;65;800;5;8
NONE;;SEM-SA_-1_-1_-1_[0.1-1]_CAMQ_DR_[RGBI,RGBIR];0;3;2.3281101343958213;2.3323147949834606;20;800;5;8
NONE;;SEM-SA_-1_-1_-1_[0.1-1]_CAMQ_DR_[RGBI,RGBIR];0;4;2.3281101343958213;2.3281101343958213;0;800;5;8
NONE;;SEM-SA_-1_-1_-1_[0.1-1]_CAMQ_DR_[RGBI,RGBIR];0;5;2.3281101343958213;2.3323147949834606;308;800;5;8
NONE;;SEM-SA_-1_-1_-1_[0.1-1]_CAMQ_DR_[RGBI,RGBIR];0;6;2.3281101343958213;2.3323147949834606;143;800;5;8
NONE;;SEM-SA_-1_-1_-1_[0.1-1]_CAMQ_DR_[RGBI,RGBIR];0;7;2.3281101343958213;2.3323147949834606;196;800;5;8
NONE;;SEM-SA_-1_-1_-1_[0.1-1]_CAMQ_DR_[RGBI,RGBIR];0;8;2.3281101343958213;2.3323147949834606;742;800;10;8
NONE;;SEM-SA_-1_-1_-1_[0.1-1]_CAMQ_DR_[RGBI,RGBIR];0;9;2.3281101343958213;2.3323147949834606;34;800;5;8
NONE;;SEM-SA_-1_-1_-1_[0.1-1]_CAMQ_DR_[RGBI,RGBIR];0;10;2.3281101343958213;2.3323147949834606;314;800;5;8
NONE;;SEM-SA_-1_-1_-1_[0.1-1]_CAMQ_DR_[RGBI,RGBIR];0;11;2.3281101343958213;2.3323147949834606;183;800;5;8
NONE;;SEM-SA_-1_-1_-1_[0.1-1]_CAMQ_DR_[RGBI,RGBIR];0;12;2.3281101343958213;2.3323147949834606;169;800;5;8
NONE;;SEM-SA_-1_-1_-1_[0.1-1]_CAMQ_DR_[RGBI,RGBIR];0;13;2.3281101343958213;2.3323147949834606;49;800;5;8
NONE;;SEM-SA_-1_-1_-1_[0.1-1]_CAMQ_DR_[RGBI,RGBIR];0;14;2.3281101343958213;2.3323147949834606;261;800;5;8
NONE;;SEM-SA_-1_-1_-1_[0.1-1]_CAMQ_DR_[RGBI,RGBIR];0;15;2.3281101343958213;2.3323147949834606;184;800;5;8
NONE;;SEM-SA_-1_-1_-1_[0.1-1]_CAMQ_DR_[RGBI,RGBIR];0;16;2.3281101343958213;2.3323147949834606;219;800;5;8
NONE;;SEM-SA_-1_-1_-1_[0.1-1]_CAMQ_DR_[RGBI,RGBIR];0;17;2.3281101343958213;2.3323147949834606;15;800;0;8
NONE;;SEM-SA_-1_-1_-1_[0.1-1]_CAMQ_DR_[RGBI,RGBIR];0;18;2.3281101343958213;2.3323147949834606;342;800;10;8
NONE;;SEM-SA_-1_-1_-1_[0.1-1]_CAMQ_DR_[RGBI,RGBIR];0;19;2.3281101343958213;2.3323147949834606;703;800;5;8
NONE;;SEM-SA_-1_-1_-1_[0.1-1]_CAMQ_DR_[RGBI,RGBIR];0;20;2.3281101343958213;2.3323147949834606;77;800;5;8
NONE;;SEM-SA_-1_-1_-1_[0.1-1]_CAMQ_DR_[RGBI,RGBIR];0;21;2.3281101343958213;2.3281101343958213;0;800;5;8
NONE;;SEM-SA_-1_-1_-1_[0.1-1]_CAMQ_DR_[RGBI,RGBIR];0;22;2.3281101343958213;2.3323147949834606;65;800;5;8
NONE;;SEM-SA_-1_-1_-1_[0.1-1]_CAMQ_DR_[RGBI,RGBIR];0;23;2.3281101343958213;2.3281101343958213;0;800;5;8
NONE;;SEM-SA_-1_-1_-1_[0.1-1]_CAMQ_DR_[RGBI,RGBIR];0;24;2.3281101343958213;2.3323147949834606;361;800;5;8
NONE;;SEM-SA_-1_-1_-1_[0.1-1]_CAMQ_DR_[RGBI,RGBIR];0;25;2.3281101343958213;2.3323147949834606;77;800;5;8
NONE;;SEM-SA_-1_-1_-1_[0.1-1]_CAMQ_DR_[RGBI,RGBIR];0;26;2.3281101343958213;2.3323147949834606;315;800;5;8
NONE;;SEM-SA_-1_-1_-1_[0.1-1]_CAMQ_DR_[RGBI,RGBIR];0;27;2.3281101343958213;2.3323147949834606;167;800;5;8
NONE;;SEM-SA_-1_-1_-1_[0.1-1]_CAMQ_DR_[RGBI,RGBIR];0;28;2.3281101343958213;2.3323147949834606;59;800;5;8
NONE;;SEM-SA_-1_-1_-1_[0.1-1]_CAMQ_DR_[RGBI,RGBIR];0;29;2.3281101343958213;2.3323147949834606;3;800;0;8
NONE;;SEM-SA_-1_-1_-1_[0.1-1]_CAMQ_DR_[RGBI,RGBIR];0;30;2.3281101343958213;2.3323147949834606;639;800;5;8
NONE;;SEM-SA_-1_-1_-1_[0.1-1]_CAMQ_DR_[RGBI,RGBIR];0;31;2.3281101343958213;2.3323147949834606;59;800;5;8
NONE;;SEM-SA_-1_-1_-1_[0.1-1]_CAMQ_DR_[RGBI,RGBIR];0;32;2.3281101343958213;2.3323147949834606;325;800;5;8
NONE;;SEM-SA_-1_-1_-1_[0.1-1]_CAMQ_DR_[RGBI,RGBIR];0;33;2.3281101343958213;2.3323147949834606;515;800;5;8
NONE;;SEM-SA_-1_-1_-1_[0.1-1]_CAMQ_DR_[RGBI,RGBIR];0;34;2.3281101343958213;2.3323147949834606;31;800;5;8
NONE;;SEM-SA_-1_-1_-1_[0.1-1]_CAMQ_DR_[RGBI,RGBIR];0;35;2.3281101343958213;2.3323147949834606;4;800;5;8
NONE;;SEM-SA_-1_-1_-1_[0.1-1]_CAMQ_DR_[RGBI,RGBIR];0;36;2.3281101343958213;2.3323147949834606;153;800;5;8
NONE;;SEM-SA_-1_-1_-1_[0.1-1]_CAMQ_DR_[RGBI,RGBIR];0;37;2.3281101343958213;2.3323147949834606;142;800;5;8
NONE;;SEM-SA_-1_-1_-1_[0.1-1]_CAMQ_DR_[RGBI,RGBIR];0;38;2.3281101343958213;2.3323147949834606;474;800;5;8
NONE;;SEM-SA_-1_-1_-1_[0.1-1]_CAMQ_DR_[RGBI,RGBIR];0;39;2.3281101343958213;2.3323147949834606;125;800;5;8
NONE;;SEM-SA_-1_-1_-1_[0.1-1]_CAMQ_DR_[RGBI,RGBIR];0;40;2.3281101343958213;2.3323147949834606;769;800;10;8
NONE;;SEM-SA_-1_-1_-1_[0.1-1]_CAMQ_DR_[RGBI,RGBIR];0;41;2.3281101343958213;2.3323147949834606;402;800;5;8
NONE;;SEM-SA_-1_-1_-1_[0.1-1]_CAMQ_DR_[RGBI,RGBIR];0;42;2.3281101343958213;2.3323147949834606;15;800;5;8
NONE;;SEM-SA_-1_-1_-1_[0.1-1]_CAMQ_DR_[RGBI,RGBIR];0;43;2.3281101343958213;2.3323147949834606;319;800;5;8
NONE;;SEM-SA_-1_-1_-1_[0.1-1]_CAMQ_DR_[RGBI,RGBIR];0;44;2.3281101343958213;2.3323147949834606;52;800;5;8
NONE;;SEM-SA_-1_-1_-1_[0.1-1]_CAMQ_DR_[RGBI,RGBIR];0;45;2.3281101343958213;2.3323147949834606;111;800;5;8
NONE;;SEM-SA_-1_-1_-1_[0.1-1]_CAMQ_DR_[RGBI,RGBIR];0;46;2.3281101343958213;2.3323147949834606;245;800;5;8
NONE;;SEM-SA_-1_-1_-1_[0.1-1]_CAMQ_DR_[RGBI,RGBIR];0;47;2.3281101343958213;2.3323147949834606;172;800;5;8
NONE;;SEM-SA_-1_-1_-1_[0.1-1]_CAMQ_DR_[RGBI,RGBIR];0;48;2.3281101343958213;2.3323147949834606;216;800;5;8
NONE;;SEM-SA_-1_-1_-1_[0.1-1]_CAMQ_DR_[RGBI,RGBIR];0;49;2.3281101343958213;2.3323147949834606;243;800;5;8
NONE;;SEM-SA_-1_-1_-1_[0.1-1]_CAMQ_DR_[RGBI,RGBIR];0;50;2.3281101343958213;2.3323147949834606;123;800;5;8
NONE;;SEM-SA_-1_-1_-1_[0.1-1]_CAMQ_DR_[RGBI,RGBIR];0;51;2.3281101343958213;2.3323147949834606;83;800;5;8
NONE;;SEM-SA_-1_-1_-1_[0.1-1]_CAMQ_DR_[RGBI,RGBIR];0;52;2.3281101343958213;2.3323147949834606;398;800;5;8
NONE;;SEM-SA_-1_-1_-1_[0.1-1]_CAMQ_DR_[RGBI,RGBIR];0;53;2.3281101343958213;2.3323147949834606;93;800;5;8
NONE;;SEM-SA_-1_-1_-1_[0.1-1]_CAMQ_DR_[RGBI,RGBIR];0;54;2.3281101343958213;2.3323147949834606;60;800;5;8
NONE;;SEM-SA_-1_-1_-1_[0.1-1]_CAMQ_DR_[RGBI,RGBIR];0;55;2.3281101343958213;2.3323147949834606;211;800;5;8
NONE;;SEM-SA_-1_-1_-1_[0.1-1]_CAMQ_DR_[RGBI,RGBIR];0;56;2.3281101343958213;2.3323147949834606;42;800;5;8
NONE;;SEM-SA_-1_-1_-1_[0.1-1]_CAMQ_DR_[RGBI,RGBIR];0;57;2.3281101343958213;2.3323147949834606;168;800;5;8
NONE;;SEM-SA_-1_-1_-1_[0.1-1]_CAMQ_DR_[RGBI,RGBIR];0;58;2.3281101343958213;2.3323147949834606;15;800;5;8
NONE;;SEM-SA_-1_-1_-1_[0.1-1]_CAMQ_DR_[RGBI,RGBIR];0;59;2.3281101343958213;2.3323147949834606;148;800;5;8
NONE;;SEM-SA_-1_-1_-1_[0.1-1]_CAMQ_DR_[RGBI,RGBIR];0;60;2.3281101343958213;2.3323147949834606;74;800;5;8
NONE;;SEM-SA_-1_-1_-1_[0.1-1]_CAMQ_DR_[RGBI,RGBIR];0;61;2.3281101343958213;2.3323147949834606;118;800;5;8
NONE;;SEM-SA_-1_-1_-1_[0.1-1]_CAMQ_DR_[RGBI,RGBIR];0;62;2.3281101343958213;2.3323147949834606;25;800;0;8
NONE;;SEM-SA_-1_-1_-1_[0.1-1]_CAMQ_DR_[RGBI,RGBIR];0;63;2.3281101343958213;2.3323147949834606;491;800;10;8
NONE;;SEM-SA_-1_-1_-1_[0.1-1]_CAMQ_DR_[RGBI,RGBIR];0;64;2.3281101343958213;2.3323147949834606;39;800;5;8
NONE;;SEM-SA_-1_-1_-1_[0.1-1]_CAMQ_DR_[RGBI,RGBIR];0;65;2.3281101343958213;2.3323147949834606;193;800;5;8
NONE;;SEM-SA_-1_-1_-1_[0.1-1]_CAMQ_DR_[RGBI,RGBIR];0;66;2.3281101343958213;2.3323147949834606;84;800;0;8
NONE;;SEM-SA_-1_-1_-1_[0.1-1]_CAMQ_DR_[RGBI,RGBIR];0;67;2.3281101343958213;2.3323147949834606;297;800;10;8
NONE;;SEM-SA_-1_-1_-1_[0.1-1]_CAMQ_DR_[RGBI,RGBIR];0;68;2.3281101343958213;2.3323147949834606;57;800;0;8
NONE;;SEM-SA_-1_-1_-1_[0.1-1]_CAMQ_DR_[RGBI,RGBIR];0;69;2.3281101343958213;2.3323147949834606;355;800;10;8
NONE;;SEM-SA_-1_-1_-1_[0.1-1]_CAMQ_DR_[RGBI,RGBIR];0;70;2.3281101343958213;2.3323147949834606;128;800;5;8
NONE;;SEM-SA_-1_-1_-1_[0.1-1]_CAMQ_DR_[RGBI,RGBIR];0;71;2.3281101343958213;2.3323147949834606;189;800;5;8
NONE;;SEM-SA_-1_-1_-1_[0.1-1]_CAMQ_DR_[RGBI,RGBIR];0;72;2.3281101343958213;2.3323147949834606;355;800;5;8
NONE;;SEM-SA_-1_-1_-1_[0.1-1]_CAMQ_DR_[RGBI,RGBIR];0;73;2.3281101343958213;2.3323147949834606;329;800;5;8
NONE;;SEM-SA_-1_-1_-1_[0.1-1]_CAMQ_DR_[RGBI,RGBIR];0;74;2.3281101343958213;2.3323147949834606;89;800;5;8
NONE;;SEM-SA_-1_-1_-1_[0.1-1]_CAMQ_DR_[RGBI,RGBIR];0;75;2.3281101343958213;2.3323147949834606;386;800;5;8
NONE;;SEM-SA_-1_-1_-1_[0.1-1]_CAMQ_DR_[RGBI,RGBIR];0;76;2.3281101343958213;2.3323147949834606;29;800;5;8
NONE;;SEM-SA_-1_-1_-1_[0.1-1]_CAMQ_DR_[RGBI,RGBIR];0;77;2.3281101343958213;2.3323147949834606;460;800;5;8
NONE;;SEM-SA_-1_-1_-1_[0.1-1]_CAMQ_DR_[RGBI,RGBIR];0;78;2.3281101343958213;2.3323147949834606;50;800;5;8
NONE;;SEM-SA_-1_-1_-1_[0.1-1]_CAMQ_DR_[RGBI,RGBIR];0;79;2.3281101343958213;2.3323147949834606;54;800;5;8
NONE;;SEM-SA_-1_-1_-1_[0.1-1]_CAMQ_DR_[RGBI,RGBIR];0;80;2.3281101343958213;2.3323147949834606;114;800;5;8
NONE;;SEM-SA_-1_-1_-1_[0.1-1]_CAMQ_DR_[RGBI,RGBIR];0;81;2.3281101343958213;2.3323147949834606;78;800;5;8
NONE;;SEM-SA_-1_-1_-1_[0.1-1]_CAMQ_DR_[RGBI,RGBIR];0;82;2.3281101343958213;2.3323147949834606;27;800;0;8
NONE;;SEM-SA_-1_-1_-1_[0.1-1]_CAMQ_DR_[RGBI,RGBIR];0;83;2.3281101343958213;2.3323147949834606;96;800;5;8
NONE;;SEM-SA_-1_-1_-1_[0.1-1]_CAMQ_DR_[RGBI,RGBIR];0;84;2.3281101343958213;2.3323147949834606;529;800;10;8
NONE;;SEM-SA_-1_-1_-1_[0.1-1]_CAMQ_DR_[RGBI,RGBIR];0;85;2.3281101343958213;2.3323147949834606;350;800;5;8
NONE;;SEM-SA_-1_-1_-1_[0.1-1]_CAMQ_DR_[RGBI,RGBIR];0;86;2.3281101343958213;2.3323147949834606;7;800;5;8
NONE;;SEM-SA_-1_-1_-1_[0.1-1]_CAMQ_DR_[RGBI,RGBIR];0;87;2.3281101343958213;2.3323147949834606;29;800;5;8
NONE;;SEM-SA_-1_-1_-1_[0.1-1]_CAMQ_DR_[RGBI,RGBIR];0;88;2.3281101343958213;2.3323147949834606;127;800;5;8
NONE;;SEM-SA_-1_-1_-1_[0.1-1]_CAMQ_DR_[RGBI,RGBIR];0;89;2.3281101343958213;2.3323147949834606;228;800;5;8
NONE;;SEM-SA_-1_-1_-1_[0.1-1]_CAMQ_DR_[RGBI,RGBIR];0;90;2.3281101343958213;2.3323147949834606;1;800;0;8
NONE;;SEM-SA_-1_-1_-1_[0.1-1]_CAMQ_DR_[RGBI,RGBIR];0;91;2.3281101343958213;2.3323147949834606;168;800;5;8
NONE;;SEM-SA_-1_-1_-1_[0.1-1]_CAMQ_DR_[RGBI,RGBIR];0;92;2.3281101343958213;2.3323147949834606;48;800;5;8
NONE;;SEM-SA_-1_-1_-1_[0.1-1]_CAMQ_DR_[RGBI,RGBIR];0;93;2.3281101343958213;2.3323147949834606;113;800;5;8
NONE;;SEM-SA_-1_-1_-1_[0.1-1]_CAMQ_DR_[RGBI,RGBIR];0;94;2.3281101343958213;2.3323147949834606;573;800;10;8
NONE;;SEM-SA_-1_-1_-1_[0.1-1]_CAMQ_DR_[RGBI,RGBIR];0;95;2.3281101343958213;2.3323147949834606;149;800;5;8
NONE;;SEM-SA_-1_-1_-1_[0.1-1]_CAMQ_DR_[RGBI,RGBIR];0;96;2.3281101343958213;2.3323147949834606;33;800;5;8
NONE;;SEM-SA_-1_-1_-1_[0.1-1]_CAMQ_DR_[RGBI,RGBIR];0;97;2.3281101343958213;2.3323147949834606;134;800;0;8
NONE;;SEM-SA_-1_-1_-1_[0.1-1]_CAMQ_DR_[RGBI,RGBIR];0;98;2.3281101343958213;2.3323147949834606;96;800;0;8
NONE;;SEM-SA_-1_-1_-1_[0.1-1]_CAMQ_DR_[RGBI,RGBIR];0;99;2.3281101343958213;2.3323147949834606;71;800;5;8
