"DESTRUCTION_FACTOR";"0.15";14646;439.677638888889
"DESTRUCTION_FACTOR";"0.1";14163;213.527583333333
"DESTRUCTION_FACTOR";"0.2";13470;753.280472222222
"DESTRUCTION_FACTOR";"0.25";11914;1153.66241666667
"DESTRUCTION_FACTOR";"0.3";10772;1625.05036111111
"DESTRUCTION_FACTOR";"0.35";9892;2205.74438888889
"DESTRUCTION_FACTOR";"0.4";8530;2854.15616666667
"DESTRUCTION_FACTOR";"0.45";7449;3498.84925
"DESTRUCTION_FACTOR";"0.5";6297;4169.70316666667
"DESTRUCTION_FACTOR";"0.05";5787;63.8656944444444
