"mtunis";9;1203;273.21;2009;3203;2263.21
"ispell";3;1585;267.49;2003;2924;2247.49
"nanoxml";2;2000;388.69;2002;3000;2158.69
"rcs";11;2506;732.54;2011;3640;2652.54
"apache_zip";10;1244;252.08;2010;3222;2242.08
"bison";13;2904;940.68;2013;3904;2520.68
"jscatterplot";8;2014;147.86;2008;3014;2127.86
"grappa";2;1105;152.77;2002;2607;2142.77
"junit";1;1848;124.94;2001;2965;2084.94
"tinytim";64;2715;1440.93;2064;3715;2570.93
"gae_plugin_core";9;2653;1501.13;2009;3653;2551.13
"incl";0;1902;521.06;2000;3054;2361.06
"jdendogram";17;3475;833.74;2017;4475;2573.74
"pdf_renderer";17;2230;610.12;2017;3643;2510.12
"jung_visualization";120;3800;1526.69;2120;4800;2986.69
"pfcda_swing";97;2543;725.57;2097;3543;2575.57
"jml-1.0b4";361;4896;2538.14;2361;5896;3688.14
"notelab-full";310;5203;2516.8;2310;6203;3786.8
