"mtunis";2.27239939330349;0.0373744582739341;1.2;2.14617347995464
"ispell";2.33053849846273;0.00304009240661456;1.25;2.17597069944622
"nanoxml";3.81427333385342;0.00644452225107927;1.25;2.17597069944622
"rcs";2.22154781697315;0.00405820877642933;1.95;2.45103565000099
"apache_zip";5.75922674299273;0.00896178196828733;2.8;3.64594696792607
"bison";2.67397048502358;0.0129536317758558;4.45;3.16985485440261
"jscatterplot";10.7390896957236;0.0133665877500802;9.1;3.04677342164269
"grappa";12.7032127053331;0.00363538590284073;14.45;3.88567688421012
"junit";11.0899979536955;0.000225579889900653;7.1;2.67611960898914
"tinytim";12.4984032471357;0.0155347967974236;61.4;16.6071665192464
"gae_plugin_core";17.3074634870527;0.0208180420403399;21.85;8.63557944339767
"incl";13.5996549027145;0.00704283965496696;23.05;5.68068675603593
"jdendogram";26.0618286108085;0.0115647809044264;89.2;24.6564270310885
"pdf_renderer";22.3531777249161;0.011222172706803;94.4;29.9180699426101
"jung_visualization";21.8125643527505;0.0297267205551776;337.65;64.0803433514553
"pfcda_swing";29.0434179642607;0.0337062405131739;518.85;120.064912998483
"jml-1.0b4";17.5021651505116;0.032829556469932;1139.75;291.205587934786
"notelab-full";29.5650477242255;0.0405853199159506;1227.75;237.973743352607
