"squid";2000;2000;2000
"small";2000;2000;2000
"compiler";2000;2000;2000
"random";2000;2000;2000
"regexp";2000;2000;2000
"jstl";2000;2000;2000
"lab4";2000;2000;2000
"netkit-ping";2000;2000;2000
"nss_ldap";2000;2000;2000
"nos";2000;2000;2000
"lslayout";2000;2000;2000
"boxer";2000;2000;2000
"netkit-tftpd";2000;2000;2000
"sharutils";2000;2000;2000
"mtunis";2000;2000;2000
"spdb";2000;2000;2000
"xtell";2000;2000;2000
"bunch";2000;2000;2000
"ispell";2000;2000;2000
"netkit-inetd";2000;2000;2000
"nanoxml";2000;2000;2000
"ciald";2000;2000;2000
"joe";2000;2000;2000
"Modulizer";2000;2000;2000
"bootp";2000;2000;2000
"jxlsreader";2000;2000;2000
"sysklogd-1";2000;2000;2000
"telnetd";2000;2000;2000
"crond";2000;2000;2000
"netkit-ftp";2000;2000;2000
"rcs";2000;2000;2000
"seemp";2000;2000;2000
"dhcpd-2";2000;2000;2000
"cyrus-sasl";2000;2000;2000
"tcsh";2000;2000;2000
"micq";2000;2000;2000
"apache_zip";2000;2000;2000
"star";2000;2000;2000
"bison";2000;2000;2000
"cia";2000;2000;2000
"stunnel";2000;2000;2000
"minicom";2000;2000;2000
"mailx";2000;2000;2000
"dot";2000;3000;2010
"screen";2000;2000;2000
"slang";2000;2000;2000
"slrn";2000;2000;2000
"net-tools";2000;2000;2000
"graph10up49";2000;6000;2090
"wu-ftpd-1";2000;2000;2000
"jodamoney";2000;2000;2000
"hw";2000;2000;2000
"imapd-1";2000;2000;2000
"wu-ftpd-3";2000;2000;2000
"udt-java";2000;2000;2000
"javaocr";2000;2000;2000
"dhcpd-1";2000;2000;2000
"icecast";2000;2000;2000
"pfcda_base";2000;2000;2000
"servletapi";2000;2000;2000
"php";2000;2000;2000
"bunch2";2000;3000;2010
"forms";2000;2000;2000
"jscatterplot";2000;2000;2000
"jxlscore";2000;3000;2010
"elm-2";2000;2000;2000
"jfluid";2000;2000;2000
"grappa";2000;2000;2000
"elm-1";2000;2000;2000
"gnupg";2000;2000;2000
"inn";2000;2000;2000
"bash";2000;2000;2000
"jpassword";2000;3000;2010
"bitchx";2000;2000;2000
"junit";2000;2000;2000
"xntp";2000;2000;2000
"acqCIGNA";2000;2000;2000
"bunch_2";2000;3000;2020
"exim";2000;2000;2000
"xmldom";2000;2000;2000
"cia++";2000;2000;2000
"tinytim";2000;2000;2000
"mod_ssl";2000;2000;2000
"jkaryoscope";2000;2000;2000
"ncurses";2000;2000;2000
"gae_plugin_core";2000;2000;2000
"lynx";2000;5000;2110
"javacc";2000;5000;2070
"lucent";2000;2000;2000
"JavaGeom";2000;3000;2020
"incl";2000;2000;2000
"jdendogram";2000;3000;2020
"xmlapi";2000;2000;2000
"jmetal";2000;6000;2140
"graph10up193";2000;7000;2230
"dom4j";2000;3000;2080
"nmh";2000;3000;2020
"pdf_renderer";2000;2000;2000
"Jung_graph_model";2000;4000;2030
"jung_visualization";2000;3000;2020
"jconsole";2000;2000;2000
"pfcda_swing";2000;2000;2000
"jml-1.0b4";2000;4000;2070
"jpassword2";2000;4000;2020
"notelab-full";2000;4000;2050
"Poormans CMS";2000;6000;2300
"log4j";2000;6000;2130
"jtreeview";2000;4000;2030
"bunchall";2000;5000;2140
"JACE";2000;2000;2000
"javaws";2000;3000;2020
"swing";2000;5000;2050
"lwjgl-2.8.4";2000;5000;2110
"res_cobol";2000;4000;2100
"ping_libc";2000;4000;2030
"y_base";2000;7000;2260
"krb5";2000;2000;2000
"apache_ant_taskdef";2000;4000;2020
"itextpdf";2000;3000;2010
"apache_lucene_core";2000;6000;2160
"eclipse_jgit";2000;4000;2020
"linux";2000;4000;2020
"apache_ant";2000;4000;2060
"ylayout";2000;4000;2030
