"mtunis";192;499;364.45
"ispell";251;500;392.71
"nanoxml";247;499;450.55
"rcs";166;499;363.09
"apache_zip";199;500;340.28
"bison";130;485;333.51
"jscatterplot";188;494;398
"grappa";251;500;389.71
"junit";266;499;471.65
"tinytim";163;482;346.12
"gae_plugin_core";248;496;431.48
"incl";233;500;411.74
"jdendogram";151;479;345.55
"pdf_renderer";193;481;334.38
"jung_visualization";58;419;228.29
"pfcda_swing";81;409;213.31
"jml-1.0b4";80;414;193.01
"notelab-full";68;304;147.08
