"mtunis";2.27103509306834;0.0367812516172952;1.8;2.41209075662211
"ispell";2.33181023571294;0.00137323639750764;2.2;2.49443825784929
"nanoxml";3.8155036547777;0.00366509516675729;2.2;2.49443825784929
"rcs";2.222169588653;0.00383374431449559;3.05;2.45103565000099
"apache_zip";5.76438828222076;0.00559635078146987;4;2.01007563051842
"bison";2.67289357971853;0.0117276467052973;5.5;1.94624736040381
"jscatterplot";10.739893291536;0.0103943457659643;16.55;2.53211693284812
"grappa";12.705191846735;0.00116031530454381;32.15;3.1984055371072
"junit";11.0900302962812;0.000186049748709657;19.95;3.51727339301512
"tinytim";12.4956443152976;0.00554822031507455;102.7;6.00588936550675
"gae_plugin_core";17.2929264115157;0;38.2;5.0010099990003
"incl";13.6056740664776;0.00916405633282692;64.65;6.1239305394922
"jdendogram";26.0607529545239;0.0101889352952302;157.31;8.41918804117875
"pdf_renderer";22.3570294417607;0.00193124913520392;174.95;7.22981341531039
"jung_visualization";21.8167410931436;0.0259806175765632;417.8;13.4712563435913
"pfcda_swing";29.0629969091642;0.0251719298334828;644.6;14.2609164282572
"jml-1.0b4";17.5145046334131;0.029283550194687;1353.2;30.2391144117026
"notelab-full";29.571143048899;0.0331493936872477;1252.55;21.4910716721191
