"mtunis";12;1250;245.02;1012;2250;1245.02
"ispell";0;981;199.44;1000;1981;1199.44
"nanoxml";2;1376;170.44;1002;2376;1170.44
"rcs";5;2078;602.68;1005;3078;1602.68
"apache_zip";5;1128;291.41;1005;2128;1291.41
"bison";9;1777;541.24;1009;2777;1541.24
"jscatterplot";5;1878;161.39;1005;2878;1161.39
"grappa";0;1169;208.15;1000;2169;1208.15
"junit";1;622;23.03;1001;1622;1023.03
"tinytim";32;1573;815.24;1032;2573;1815.24
"gae_plugin_core";1;1649;828.44;1001;2649;1828.44
"incl";0;1012;234.47;1000;2012;1234.47
"jdendogram";28;2360;446.4;1028;3360;1446.4
"pdf_renderer";25;1198;341.66;1025;2198;1341.66
"jung_visualization";79;3429;1194.25;1079;4429;2194.25
"pfcda_swing";113;1745;524.89;1113;2745;1524.89
"jml-1.0b4";197;4061;1601.92;1197;5061;2601.92
"notelab-full";282;4806;1599.25;1282;5806;2599.25
