NONE;;SEM-SA_-1_-1_-1_[0.1-1]_CAMQ_DR_[RGBI,RGBIR]_RESTART-ENABLEDRESTART-DISABLED;0;0;5.747194472194472;5.766344439873852;141;2000;16;13;2141
NONE;;SEM-SA_-1_-1_-1_[0.1-1]_CAMQ_DR_[RGBI,RGBIR]_RESTART-ENABLEDRESTART-DISABLED;0;1;5.747194472194472;5.766344439873852;215;2000;15;13;2215
NONE;;SEM-SA_-1_-1_-1_[0.1-1]_CAMQ_DR_[RGBI,RGBIR]_RESTART-ENABLEDRESTART-DISABLED;0;2;5.747194472194472;5.766344439873852;88;2000;16;13;2088
NONE;;SEM-SA_-1_-1_-1_[0.1-1]_CAMQ_DR_[RGBI,RGBIR]_RESTART-ENABLEDRESTART-DISABLED;0;3;5.747194472194472;5.766344439873852;287;2000;16;13;2287
NONE;;SEM-SA_-1_-1_-1_[0.1-1]_CAMQ_DR_[RGBI,RGBIR]_RESTART-ENABLEDRESTART-DISABLED;0;4;5.747194472194472;5.766344439873852;199;2000;15;13;2199
NONE;;SEM-SA_-1_-1_-1_[0.1-1]_CAMQ_DR_[RGBI,RGBIR]_RESTART-ENABLEDRESTART-DISABLED;0;5;5.747194472194472;5.766344439873852;367;2000;16;13;2367
NONE;;SEM-SA_-1_-1_-1_[0.1-1]_CAMQ_DR_[RGBI,RGBIR]_RESTART-ENABLEDRESTART-DISABLED;0;6;5.747194472194472;5.766344439873852;411;2000;15;13;2411
NONE;;SEM-SA_-1_-1_-1_[0.1-1]_CAMQ_DR_[RGBI,RGBIR]_RESTART-ENABLEDRESTART-DISABLED;0;7;5.747194472194472;5.766344439873852;576;2000;16;13;2576
NONE;;SEM-SA_-1_-1_-1_[0.1-1]_CAMQ_DR_[RGBI,RGBIR]_RESTART-ENABLEDRESTART-DISABLED;0;8;5.747194472194472;5.766344439873852;740;2000;15;13;2740
NONE;;SEM-SA_-1_-1_-1_[0.1-1]_CAMQ_DR_[RGBI,RGBIR]_RESTART-ENABLEDRESTART-DISABLED;0;9;5.747194472194472;5.766344439873852;116;2000;16;13;2116
NONE;;SEM-SA_-1_-1_-1_[0.1-1]_CAMQ_DR_[RGBI,RGBIR]_RESTART-ENABLEDRESTART-DISABLED;0;10;5.747194472194472;5.766344439873852;146;2000;15;13;2146
NONE;;SEM-SA_-1_-1_-1_[0.1-1]_CAMQ_DR_[RGBI,RGBIR]_RESTART-ENABLEDRESTART-DISABLED;0;11;5.747194472194472;5.766344439873852;170;2000;16;13;2170
NONE;;SEM-SA_-1_-1_-1_[0.1-1]_CAMQ_DR_[RGBI,RGBIR]_RESTART-ENABLEDRESTART-DISABLED;0;12;5.747194472194472;5.766344439873852;29;2000;16;13;2029
NONE;;SEM-SA_-1_-1_-1_[0.1-1]_CAMQ_DR_[RGBI,RGBIR]_RESTART-ENABLEDRESTART-DISABLED;0;13;5.747194472194472;5.766344439873852;17;2000;15;13;2017
NONE;;SEM-SA_-1_-1_-1_[0.1-1]_CAMQ_DR_[RGBI,RGBIR]_RESTART-ENABLEDRESTART-DISABLED;0;14;5.747194472194472;5.766344439873852;247;2000;16;13;2247
NONE;;SEM-SA_-1_-1_-1_[0.1-1]_CAMQ_DR_[RGBI,RGBIR]_RESTART-ENABLEDRESTART-DISABLED;0;15;5.747194472194472;5.766344439873852;250;2000;15;13;2250
NONE;;SEM-SA_-1_-1_-1_[0.1-1]_CAMQ_DR_[RGBI,RGBIR]_RESTART-ENABLEDRESTART-DISABLED;0;16;5.747194472194472;5.766344439873852;146;2000;16;13;2146
NONE;;SEM-SA_-1_-1_-1_[0.1-1]_CAMQ_DR_[RGBI,RGBIR]_RESTART-ENABLEDRESTART-DISABLED;0;17;5.747194472194472;5.766344439873852;77;2000;16;13;2077
NONE;;SEM-SA_-1_-1_-1_[0.1-1]_CAMQ_DR_[RGBI,RGBIR]_RESTART-ENABLEDRESTART-DISABLED;0;18;5.747194472194472;5.766344439873852;187;2000;15;13;2187
NONE;;SEM-SA_-1_-1_-1_[0.1-1]_CAMQ_DR_[RGBI,RGBIR]_RESTART-ENABLEDRESTART-DISABLED;0;19;5.747194472194472;5.766344439873852;288;2000;16;13;2288
NONE;;SEM-SA_-1_-1_-1_[0.1-1]_CAMQ_DR_[RGBI,RGBIR]_RESTART-ENABLEDRESTART-DISABLED;0;20;5.747194472194472;5.766344439873852;481;2000;15;13;2481
NONE;;SEM-SA_-1_-1_-1_[0.1-1]_CAMQ_DR_[RGBI,RGBIR]_RESTART-ENABLEDRESTART-DISABLED;0;21;5.747194472194472;5.766344439873852;39;2000;16;13;2039
NONE;;SEM-SA_-1_-1_-1_[0.1-1]_CAMQ_DR_[RGBI,RGBIR]_RESTART-ENABLEDRESTART-DISABLED;0;22;5.747194472194472;5.766344439873852;270;2000;16;13;2270
NONE;;SEM-SA_-1_-1_-1_[0.1-1]_CAMQ_DR_[RGBI,RGBIR]_RESTART-ENABLEDRESTART-DISABLED;0;23;5.747194472194472;5.766344439873852;402;2000;15;13;2402
NONE;;SEM-SA_-1_-1_-1_[0.1-1]_CAMQ_DR_[RGBI,RGBIR]_RESTART-ENABLEDRESTART-DISABLED;0;24;5.747194472194472;5.766344439873852;390;2000;16;13;2390
NONE;;SEM-SA_-1_-1_-1_[0.1-1]_CAMQ_DR_[RGBI,RGBIR]_RESTART-ENABLEDRESTART-DISABLED;0;25;5.747194472194472;5.766344439873852;408;2000;15;13;2408
NONE;;SEM-SA_-1_-1_-1_[0.1-1]_CAMQ_DR_[RGBI,RGBIR]_RESTART-ENABLEDRESTART-DISABLED;0;26;5.747194472194472;5.766344439873852;117;2000;16;13;2117
NONE;;SEM-SA_-1_-1_-1_[0.1-1]_CAMQ_DR_[RGBI,RGBIR]_RESTART-ENABLEDRESTART-DISABLED;0;27;5.747194472194472;5.766344439873852;159;2000;16;13;2159
NONE;;SEM-SA_-1_-1_-1_[0.1-1]_CAMQ_DR_[RGBI,RGBIR]_RESTART-ENABLEDRESTART-DISABLED;0;28;5.747194472194472;5.766344439873852;279;2000;15;13;2279
NONE;;SEM-SA_-1_-1_-1_[0.1-1]_CAMQ_DR_[RGBI,RGBIR]_RESTART-ENABLEDRESTART-DISABLED;0;29;5.747194472194472;5.766344439873852;133;2000;16;13;2133
NONE;;SEM-SA_-1_-1_-1_[0.1-1]_CAMQ_DR_[RGBI,RGBIR]_RESTART-ENABLEDRESTART-DISABLED;0;30;5.747194472194472;5.766344439873852;232;2000;15;13;2232
NONE;;SEM-SA_-1_-1_-1_[0.1-1]_CAMQ_DR_[RGBI,RGBIR]_RESTART-ENABLEDRESTART-DISABLED;0;31;5.747194472194472;5.766344439873852;500;2000;16;13;2500
NONE;;SEM-SA_-1_-1_-1_[0.1-1]_CAMQ_DR_[RGBI,RGBIR]_RESTART-ENABLEDRESTART-DISABLED;0;32;5.747194472194472;5.766344439873852;113;2000;16;13;2113
NONE;;SEM-SA_-1_-1_-1_[0.1-1]_CAMQ_DR_[RGBI,RGBIR]_RESTART-ENABLEDRESTART-DISABLED;0;33;5.747194472194472;5.766344439873852;158;2000;15;13;2158
NONE;;SEM-SA_-1_-1_-1_[0.1-1]_CAMQ_DR_[RGBI,RGBIR]_RESTART-ENABLEDRESTART-DISABLED;0;34;5.747194472194472;5.766344439873852;239;2000;16;13;2239
NONE;;SEM-SA_-1_-1_-1_[0.1-1]_CAMQ_DR_[RGBI,RGBIR]_RESTART-ENABLEDRESTART-DISABLED;0;35;5.747194472194472;5.766344439873852;132;2000;15;13;2132
NONE;;SEM-SA_-1_-1_-1_[0.1-1]_CAMQ_DR_[RGBI,RGBIR]_RESTART-ENABLEDRESTART-DISABLED;0;36;5.747194472194472;5.766344439873852;233;2000;16;13;2233
NONE;;SEM-SA_-1_-1_-1_[0.1-1]_CAMQ_DR_[RGBI,RGBIR]_RESTART-ENABLEDRESTART-DISABLED;0;37;5.747194472194472;5.766344439873852;540;2000;16;13;2540
NONE;;SEM-SA_-1_-1_-1_[0.1-1]_CAMQ_DR_[RGBI,RGBIR]_RESTART-ENABLEDRESTART-DISABLED;0;38;5.747194472194472;5.766344439873852;180;2000;15;13;2180
NONE;;SEM-SA_-1_-1_-1_[0.1-1]_CAMQ_DR_[RGBI,RGBIR]_RESTART-ENABLEDRESTART-DISABLED;0;39;5.747194472194472;5.766344439873852;85;2000;16;13;2085
NONE;;SEM-SA_-1_-1_-1_[0.1-1]_CAMQ_DR_[RGBI,RGBIR]_RESTART-ENABLEDRESTART-DISABLED;0;40;5.747194472194472;5.766344439873852;213;2000;15;13;2213
NONE;;SEM-SA_-1_-1_-1_[0.1-1]_CAMQ_DR_[RGBI,RGBIR]_RESTART-ENABLEDRESTART-DISABLED;0;41;5.747194472194472;5.766344439873852;319;2000;16;13;2319
NONE;;SEM-SA_-1_-1_-1_[0.1-1]_CAMQ_DR_[RGBI,RGBIR]_RESTART-ENABLEDRESTART-DISABLED;0;42;5.747194472194472;5.766344439873852;67;2000;0;13;2067
NONE;;SEM-SA_-1_-1_-1_[0.1-1]_CAMQ_DR_[RGBI,RGBIR]_RESTART-ENABLEDRESTART-DISABLED;0;43;5.747194472194472;5.766344439873852;332;2000;16;13;2332
NONE;;SEM-SA_-1_-1_-1_[0.1-1]_CAMQ_DR_[RGBI,RGBIR]_RESTART-ENABLEDRESTART-DISABLED;0;44;5.747194472194472;5.766344439873852;147;2000;15;13;2147
NONE;;SEM-SA_-1_-1_-1_[0.1-1]_CAMQ_DR_[RGBI,RGBIR]_RESTART-ENABLEDRESTART-DISABLED;0;45;5.747194472194472;5.766344439873852;636;2000;16;13;2636
NONE;;SEM-SA_-1_-1_-1_[0.1-1]_CAMQ_DR_[RGBI,RGBIR]_RESTART-ENABLEDRESTART-DISABLED;0;46;5.747194472194472;5.766344439873852;38;2000;16;13;2038
NONE;;SEM-SA_-1_-1_-1_[0.1-1]_CAMQ_DR_[RGBI,RGBIR]_RESTART-ENABLEDRESTART-DISABLED;0;47;5.747194472194472;5.766344439873852;110;2000;15;13;2110
NONE;;SEM-SA_-1_-1_-1_[0.1-1]_CAMQ_DR_[RGBI,RGBIR]_RESTART-ENABLEDRESTART-DISABLED;0;48;5.747194472194472;5.766344439873852;76;2000;16;13;2076
NONE;;SEM-SA_-1_-1_-1_[0.1-1]_CAMQ_DR_[RGBI,RGBIR]_RESTART-ENABLEDRESTART-DISABLED;0;49;5.747194472194472;5.766344439873852;26;2000;15;13;2026
NONE;;SEM-SA_-1_-1_-1_[0.1-1]_CAMQ_DR_[RGBI,RGBIR]_RESTART-ENABLEDRESTART-DISABLED;0;50;5.747194472194472;5.766344439873852;10;2000;16;13;2010
NONE;;SEM-SA_-1_-1_-1_[0.1-1]_CAMQ_DR_[RGBI,RGBIR]_RESTART-ENABLEDRESTART-DISABLED;0;51;5.747194472194472;5.766344439873852;29;2000;0;13;2029
NONE;;SEM-SA_-1_-1_-1_[0.1-1]_CAMQ_DR_[RGBI,RGBIR]_RESTART-ENABLEDRESTART-DISABLED;0;52;5.747194472194472;5.766344439873852;140;2000;16;13;2140
NONE;;SEM-SA_-1_-1_-1_[0.1-1]_CAMQ_DR_[RGBI,RGBIR]_RESTART-ENABLEDRESTART-DISABLED;0;53;5.747194472194472;5.766344439873852;1244;2000;31;13;3244
NONE;;SEM-SA_-1_-1_-1_[0.1-1]_CAMQ_DR_[RGBI,RGBIR]_RESTART-ENABLEDRESTART-DISABLED;0;54;5.747194472194472;5.766344439873852;68;2000;15;13;2068
NONE;;SEM-SA_-1_-1_-1_[0.1-1]_CAMQ_DR_[RGBI,RGBIR]_RESTART-ENABLEDRESTART-DISABLED;0;55;5.747194472194472;5.766344439873852;295;2000;16;13;2295
NONE;;SEM-SA_-1_-1_-1_[0.1-1]_CAMQ_DR_[RGBI,RGBIR]_RESTART-ENABLEDRESTART-DISABLED;0;56;5.747194472194472;5.766344439873852;179;2000;16;13;2179
NONE;;SEM-SA_-1_-1_-1_[0.1-1]_CAMQ_DR_[RGBI,RGBIR]_RESTART-ENABLEDRESTART-DISABLED;0;57;5.747194472194472;5.766344439873852;453;2000;15;13;2453
NONE;;SEM-SA_-1_-1_-1_[0.1-1]_CAMQ_DR_[RGBI,RGBIR]_RESTART-ENABLEDRESTART-DISABLED;0;58;5.747194472194472;5.766344439873852;122;2000;16;13;2122
NONE;;SEM-SA_-1_-1_-1_[0.1-1]_CAMQ_DR_[RGBI,RGBIR]_RESTART-ENABLEDRESTART-DISABLED;0;59;5.747194472194472;5.766344439873852;271;2000;15;13;2271
NONE;;SEM-SA_-1_-1_-1_[0.1-1]_CAMQ_DR_[RGBI,RGBIR]_RESTART-ENABLEDRESTART-DISABLED;0;60;5.747194472194472;5.766344439873852;321;2000;16;13;2321
NONE;;SEM-SA_-1_-1_-1_[0.1-1]_CAMQ_DR_[RGBI,RGBIR]_RESTART-ENABLEDRESTART-DISABLED;0;61;5.747194472194472;5.766344439873852;267;2000;16;13;2267
NONE;;SEM-SA_-1_-1_-1_[0.1-1]_CAMQ_DR_[RGBI,RGBIR]_RESTART-ENABLEDRESTART-DISABLED;0;62;5.747194472194472;5.766344439873852;318;2000;31;13;2318
NONE;;SEM-SA_-1_-1_-1_[0.1-1]_CAMQ_DR_[RGBI,RGBIR]_RESTART-ENABLEDRESTART-DISABLED;0;63;5.747194472194472;5.766344439873852;271;2000;15;13;2271
NONE;;SEM-SA_-1_-1_-1_[0.1-1]_CAMQ_DR_[RGBI,RGBIR]_RESTART-ENABLEDRESTART-DISABLED;0;64;5.747194472194472;5.766344439873852;92;2000;16;13;2092
NONE;;SEM-SA_-1_-1_-1_[0.1-1]_CAMQ_DR_[RGBI,RGBIR]_RESTART-ENABLEDRESTART-DISABLED;0;65;5.747194472194472;5.766344439873852;339;2000;16;13;2339
NONE;;SEM-SA_-1_-1_-1_[0.1-1]_CAMQ_DR_[RGBI,RGBIR]_RESTART-ENABLEDRESTART-DISABLED;0;66;5.747194472194472;5.766344439873852;264;2000;15;13;2264
NONE;;SEM-SA_-1_-1_-1_[0.1-1]_CAMQ_DR_[RGBI,RGBIR]_RESTART-ENABLEDRESTART-DISABLED;0;67;5.747194472194472;5.766344439873852;168;2000;16;13;2168
NONE;;SEM-SA_-1_-1_-1_[0.1-1]_CAMQ_DR_[RGBI,RGBIR]_RESTART-ENABLEDRESTART-DISABLED;0;68;5.747194472194472;5.766344439873852;254;2000;15;13;2254
NONE;;SEM-SA_-1_-1_-1_[0.1-1]_CAMQ_DR_[RGBI,RGBIR]_RESTART-ENABLEDRESTART-DISABLED;0;69;5.747194472194472;5.766344439873852;95;2000;16;13;2095
NONE;;SEM-SA_-1_-1_-1_[0.1-1]_CAMQ_DR_[RGBI,RGBIR]_RESTART-ENABLEDRESTART-DISABLED;0;70;5.747194472194472;5.766344439873852;435;2000;16;13;2435
NONE;;SEM-SA_-1_-1_-1_[0.1-1]_CAMQ_DR_[RGBI,RGBIR]_RESTART-ENABLEDRESTART-DISABLED;0;71;5.747194472194472;5.766344439873852;170;2000;15;13;2170
NONE;;SEM-SA_-1_-1_-1_[0.1-1]_CAMQ_DR_[RGBI,RGBIR]_RESTART-ENABLEDRESTART-DISABLED;0;72;5.747194472194472;5.766344439873852;74;2000;16;13;2074
NONE;;SEM-SA_-1_-1_-1_[0.1-1]_CAMQ_DR_[RGBI,RGBIR]_RESTART-ENABLEDRESTART-DISABLED;0;73;5.747194472194472;5.766344439873852;36;2000;15;13;2036
NONE;;SEM-SA_-1_-1_-1_[0.1-1]_CAMQ_DR_[RGBI,RGBIR]_RESTART-ENABLEDRESTART-DISABLED;0;74;5.747194472194472;5.766344439873852;213;2000;16;13;2213
NONE;;SEM-SA_-1_-1_-1_[0.1-1]_CAMQ_DR_[RGBI,RGBIR]_RESTART-ENABLEDRESTART-DISABLED;0;75;5.747194472194472;5.766344439873852;530;2000;16;13;2530
NONE;;SEM-SA_-1_-1_-1_[0.1-1]_CAMQ_DR_[RGBI,RGBIR]_RESTART-ENABLEDRESTART-DISABLED;0;76;5.747194472194472;5.766344439873852;402;2000;15;13;2402
NONE;;SEM-SA_-1_-1_-1_[0.1-1]_CAMQ_DR_[RGBI,RGBIR]_RESTART-ENABLEDRESTART-DISABLED;0;77;5.747194472194472;5.766344439873852;210;2000;16;13;2210
NONE;;SEM-SA_-1_-1_-1_[0.1-1]_CAMQ_DR_[RGBI,RGBIR]_RESTART-ENABLEDRESTART-DISABLED;0;78;5.747194472194472;5.766344439873852;256;2000;15;13;2256
NONE;;SEM-SA_-1_-1_-1_[0.1-1]_CAMQ_DR_[RGBI,RGBIR]_RESTART-ENABLEDRESTART-DISABLED;0;79;5.747194472194472;5.766344439873852;226;2000;16;13;2226
NONE;;SEM-SA_-1_-1_-1_[0.1-1]_CAMQ_DR_[RGBI,RGBIR]_RESTART-ENABLEDRESTART-DISABLED;0;80;5.747194472194472;5.766344439873852;392;2000;16;13;2392
NONE;;SEM-SA_-1_-1_-1_[0.1-1]_CAMQ_DR_[RGBI,RGBIR]_RESTART-ENABLEDRESTART-DISABLED;0;81;5.747194472194472;5.766344439873852;288;2000;15;13;2288
NONE;;SEM-SA_-1_-1_-1_[0.1-1]_CAMQ_DR_[RGBI,RGBIR]_RESTART-ENABLEDRESTART-DISABLED;0;82;5.747194472194472;5.766344439873852;84;2000;16;13;2084
NONE;;SEM-SA_-1_-1_-1_[0.1-1]_CAMQ_DR_[RGBI,RGBIR]_RESTART-ENABLEDRESTART-DISABLED;0;83;5.747194472194472;5.766344439873852;329;2000;15;13;2329
NONE;;SEM-SA_-1_-1_-1_[0.1-1]_CAMQ_DR_[RGBI,RGBIR]_RESTART-ENABLEDRESTART-DISABLED;0;84;5.747194472194472;5.766344439873852;68;2000;16;13;2068
NONE;;SEM-SA_-1_-1_-1_[0.1-1]_CAMQ_DR_[RGBI,RGBIR]_RESTART-ENABLEDRESTART-DISABLED;0;85;5.747194472194472;5.766344439873852;700;2000;31;13;2700
NONE;;SEM-SA_-1_-1_-1_[0.1-1]_CAMQ_DR_[RGBI,RGBIR]_RESTART-ENABLEDRESTART-DISABLED;0;86;5.747194472194472;5.766344439873852;161;2000;16;13;2161
NONE;;SEM-SA_-1_-1_-1_[0.1-1]_CAMQ_DR_[RGBI,RGBIR]_RESTART-ENABLEDRESTART-DISABLED;0;87;5.747194472194472;5.766344439873852;171;2000;15;13;2171
NONE;;SEM-SA_-1_-1_-1_[0.1-1]_CAMQ_DR_[RGBI,RGBIR]_RESTART-ENABLEDRESTART-DISABLED;0;88;5.747194472194472;5.766344439873852;106;2000;16;13;2106
NONE;;SEM-SA_-1_-1_-1_[0.1-1]_CAMQ_DR_[RGBI,RGBIR]_RESTART-ENABLEDRESTART-DISABLED;0;89;5.747194472194472;5.766344439873852;275;2000;16;13;2275
NONE;;SEM-SA_-1_-1_-1_[0.1-1]_CAMQ_DR_[RGBI,RGBIR]_RESTART-ENABLEDRESTART-DISABLED;0;90;5.747194472194472;5.766344439873852;551;2000;15;13;2551
NONE;;SEM-SA_-1_-1_-1_[0.1-1]_CAMQ_DR_[RGBI,RGBIR]_RESTART-ENABLEDRESTART-DISABLED;0;91;5.747194472194472;5.766344439873852;391;2000;16;13;2391
NONE;;SEM-SA_-1_-1_-1_[0.1-1]_CAMQ_DR_[RGBI,RGBIR]_RESTART-ENABLEDRESTART-DISABLED;0;92;5.747194472194472;5.766344439873852;28;2000;15;13;2028
NONE;;SEM-SA_-1_-1_-1_[0.1-1]_CAMQ_DR_[RGBI,RGBIR]_RESTART-ENABLEDRESTART-DISABLED;0;93;5.747194472194472;5.766344439873852;51;2000;16;13;2051
NONE;;SEM-SA_-1_-1_-1_[0.1-1]_CAMQ_DR_[RGBI,RGBIR]_RESTART-ENABLEDRESTART-DISABLED;0;94;5.747194472194472;5.766344439873852;283;2000;16;13;2283
NONE;;SEM-SA_-1_-1_-1_[0.1-1]_CAMQ_DR_[RGBI,RGBIR]_RESTART-ENABLEDRESTART-DISABLED;0;95;5.747194472194472;5.766344439873852;135;2000;15;13;2135
NONE;;SEM-SA_-1_-1_-1_[0.1-1]_CAMQ_DR_[RGBI,RGBIR]_RESTART-ENABLEDRESTART-DISABLED;0;96;5.747194472194472;5.766344439873852;86;2000;16;13;2086
NONE;;SEM-SA_-1_-1_-1_[0.1-1]_CAMQ_DR_[RGBI,RGBIR]_RESTART-ENABLEDRESTART-DISABLED;0;97;5.747194472194472;5.766344439873852;352;2000;15;13;2352
NONE;;SEM-SA_-1_-1_-1_[0.1-1]_CAMQ_DR_[RGBI,RGBIR]_RESTART-ENABLEDRESTART-DISABLED;0;98;5.747194472194472;5.766344439873852;129;2000;16;13;2129
NONE;;SEM-SA_-1_-1_-1_[0.1-1]_CAMQ_DR_[RGBI,RGBIR]_RESTART-ENABLEDRESTART-DISABLED;0;99;5.747194472194472;5.766344439873852;125;2000;16;13;2125
