NONE;;SEM-SA_-1_-1_-1_[0.1-1]_CAMQ_DR_[RGBI,RGBIR]_RESTART-ENABLEDRESTART-DISABLED;0;0;13.996566271876928;14.10344236504222;240;2000;1342;56;2240
NONE;;SEM-SA_-1_-1_-1_[0.1-1]_CAMQ_DR_[RGBI,RGBIR]_RESTART-ENABLEDRESTART-DISABLED;0;1;13.996566271876928;14.097013820391219;293;2000;1389;56;2293
NONE;;SEM-SA_-1_-1_-1_[0.1-1]_CAMQ_DR_[RGBI,RGBIR]_RESTART-ENABLEDRESTART-DISABLED;0;2;13.996566271876928;14.10430262273735;1474;2000;2324;54;3474
NONE;;SEM-SA_-1_-1_-1_[0.1-1]_CAMQ_DR_[RGBI,RGBIR]_RESTART-ENABLEDRESTART-DISABLED;0;3;13.996566271876928;14.09705918062216;1995;2000;2340;56;3995
NONE;;SEM-SA_-1_-1_-1_[0.1-1]_CAMQ_DR_[RGBI,RGBIR]_RESTART-ENABLEDRESTART-DISABLED;0;4;13.996566271876928;14.08462678551218;237;2000;1248;53;2237
NONE;;SEM-SA_-1_-1_-1_[0.1-1]_CAMQ_DR_[RGBI,RGBIR]_RESTART-ENABLEDRESTART-DISABLED;0;5;13.996566271876928;14.08740400180738;4539;3000;4773;53;7539
NONE;;SEM-SA_-1_-1_-1_[0.1-1]_CAMQ_DR_[RGBI,RGBIR]_RESTART-ENABLEDRESTART-DISABLED;0;6;13.996566271876928;14.10719964180968;1863;2000;2480;55;3863
NONE;;SEM-SA_-1_-1_-1_[0.1-1]_CAMQ_DR_[RGBI,RGBIR]_RESTART-ENABLEDRESTART-DISABLED;0;7;13.996566271876928;14.100374265385577;147;2000;1217;55;2147
NONE;;SEM-SA_-1_-1_-1_[0.1-1]_CAMQ_DR_[RGBI,RGBIR]_RESTART-ENABLEDRESTART-DISABLED;0;8;13.996566271876928;14.110510840366942;3414;2000;2808;54;5414
NONE;;SEM-SA_-1_-1_-1_[0.1-1]_CAMQ_DR_[RGBI,RGBIR]_RESTART-ENABLEDRESTART-DISABLED;0;9;13.996566271876928;14.08878623668386;382;2000;1388;53;2382
NONE;;SEM-SA_-1_-1_-1_[0.1-1]_CAMQ_DR_[RGBI,RGBIR]_RESTART-ENABLEDRESTART-DISABLED;0;10;13.996566271876928;14.091615514992913;816;2000;1841;55;2816
NONE;;SEM-SA_-1_-1_-1_[0.1-1]_CAMQ_DR_[RGBI,RGBIR]_RESTART-ENABLEDRESTART-DISABLED;0;11;13.996566271876928;14.099207890277807;322;2000;1358;54;2322
NONE;;SEM-SA_-1_-1_-1_[0.1-1]_CAMQ_DR_[RGBI,RGBIR]_RESTART-ENABLEDRESTART-DISABLED;0;12;13.996566271876928;14.095818521159648;334;2000;1404;55;2334
NONE;;SEM-SA_-1_-1_-1_[0.1-1]_CAMQ_DR_[RGBI,RGBIR]_RESTART-ENABLEDRESTART-DISABLED;0;13;13.996566271876928;14.101539041703145;2454;2000;2481;54;4454
NONE;;SEM-SA_-1_-1_-1_[0.1-1]_CAMQ_DR_[RGBI,RGBIR]_RESTART-ENABLEDRESTART-DISABLED;0;14;13.996566271876928;14.1074048568012;2641;2000;2527;55;4641
NONE;;SEM-SA_-1_-1_-1_[0.1-1]_CAMQ_DR_[RGBI,RGBIR]_RESTART-ENABLEDRESTART-DISABLED;0;15;13.996566271876928;14.097748650393905;971;2000;1966;54;2971
NONE;;SEM-SA_-1_-1_-1_[0.1-1]_CAMQ_DR_[RGBI,RGBIR]_RESTART-ENABLEDRESTART-DISABLED;0;16;13.996566271876928;14.114808576028476;2076;2000;2434;54;4076
NONE;;SEM-SA_-1_-1_-1_[0.1-1]_CAMQ_DR_[RGBI,RGBIR]_RESTART-ENABLEDRESTART-DISABLED;0;17;13.996566271876928;14.100637709239715;2040;2000;2933;55;4040
NONE;;SEM-SA_-1_-1_-1_[0.1-1]_CAMQ_DR_[RGBI,RGBIR]_RESTART-ENABLEDRESTART-DISABLED;0;18;13.996566271876928;14.091615514992913;1941;2000;2294;55;3941
NONE;;SEM-SA_-1_-1_-1_[0.1-1]_CAMQ_DR_[RGBI,RGBIR]_RESTART-ENABLEDRESTART-DISABLED;0;19;13.996566271876928;14.10344236504222;234;2000;1310;56;2234
NONE;;SEM-SA_-1_-1_-1_[0.1-1]_CAMQ_DR_[RGBI,RGBIR]_RESTART-ENABLEDRESTART-DISABLED;0;20;13.996566271876928;14.113833401452203;3741;2000;3260;55;5741
NONE;;SEM-SA_-1_-1_-1_[0.1-1]_CAMQ_DR_[RGBI,RGBIR]_RESTART-ENABLEDRESTART-DISABLED;0;21;13.996566271876928;14.091615514992913;872;2000;1903;55;2872
NONE;;SEM-SA_-1_-1_-1_[0.1-1]_CAMQ_DR_[RGBI,RGBIR]_RESTART-ENABLEDRESTART-DISABLED;0;22;13.996566271876928;14.089023590311816;631;2000;1638;53;2631
NONE;;SEM-SA_-1_-1_-1_[0.1-1]_CAMQ_DR_[RGBI,RGBIR]_RESTART-ENABLEDRESTART-DISABLED;0;23;13.996566271876928;14.095818521159648;368;2000;1420;55;2368
NONE;;SEM-SA_-1_-1_-1_[0.1-1]_CAMQ_DR_[RGBI,RGBIR]_RESTART-ENABLEDRESTART-DISABLED;0;24;13.996566271876928;14.096589672431294;1593;2000;2434;53;3593
NONE;;SEM-SA_-1_-1_-1_[0.1-1]_CAMQ_DR_[RGBI,RGBIR]_RESTART-ENABLEDRESTART-DISABLED;0;25;13.996566271876928;14.094630162415417;326;2000;1388;54;2326
NONE;;SEM-SA_-1_-1_-1_[0.1-1]_CAMQ_DR_[RGBI,RGBIR]_RESTART-ENABLEDRESTART-DISABLED;0;26;13.996566271876928;14.094964173936061;228;2000;1326;55;2228
NONE;;SEM-SA_-1_-1_-1_[0.1-1]_CAMQ_DR_[RGBI,RGBIR]_RESTART-ENABLEDRESTART-DISABLED;0;27;13.996566271876928;14.100374265385577;435;2000;1513;55;2435
NONE;;SEM-SA_-1_-1_-1_[0.1-1]_CAMQ_DR_[RGBI,RGBIR]_RESTART-ENABLEDRESTART-DISABLED;0;28;13.996566271876928;14.100058906395603;579;2000;1638;55;2579
NONE;;SEM-SA_-1_-1_-1_[0.1-1]_CAMQ_DR_[RGBI,RGBIR]_RESTART-ENABLEDRESTART-DISABLED;0;29;13.996566271876928;14.107686081383967;1879;2000;2590;55;3879
NONE;;SEM-SA_-1_-1_-1_[0.1-1]_CAMQ_DR_[RGBI,RGBIR]_RESTART-ENABLEDRESTART-DISABLED;0;30;13.996566271876928;14.107534690681021;1217;2000;2199;55;3217
NONE;;SEM-SA_-1_-1_-1_[0.1-1]_CAMQ_DR_[RGBI,RGBIR]_RESTART-ENABLEDRESTART-DISABLED;0;31;13.996566271876928;14.10344236504222;302;2000;1372;56;2302
NONE;;SEM-SA_-1_-1_-1_[0.1-1]_CAMQ_DR_[RGBI,RGBIR]_RESTART-ENABLEDRESTART-DISABLED;0;32;13.996566271876928;14.102535580448873;3319;2000;2683;54;5319
NONE;;SEM-SA_-1_-1_-1_[0.1-1]_CAMQ_DR_[RGBI,RGBIR]_RESTART-ENABLEDRESTART-DISABLED;0;33;13.996566271876928;14.097013820391219;169;2000;1248;56;2169
NONE;;SEM-SA_-1_-1_-1_[0.1-1]_CAMQ_DR_[RGBI,RGBIR]_RESTART-ENABLEDRESTART-DISABLED;0;34;13.996566271876928;14.111444283334874;2935;2000;2574;54;4935
NONE;;SEM-SA_-1_-1_-1_[0.1-1]_CAMQ_DR_[RGBI,RGBIR]_RESTART-ENABLEDRESTART-DISABLED;0;35;13.996566271876928;14.09422538672114;283;2000;1310;54;2283
NONE;;SEM-SA_-1_-1_-1_[0.1-1]_CAMQ_DR_[RGBI,RGBIR]_RESTART-ENABLEDRESTART-DISABLED;0;36;13.996566271876928;14.093317190106413;1286;2000;2138;55;3286
NONE;;SEM-SA_-1_-1_-1_[0.1-1]_CAMQ_DR_[RGBI,RGBIR]_RESTART-ENABLEDRESTART-DISABLED;0;37;13.996566271876928;14.100374265385577;379;2000;1435;55;2379
NONE;;SEM-SA_-1_-1_-1_[0.1-1]_CAMQ_DR_[RGBI,RGBIR]_RESTART-ENABLEDRESTART-DISABLED;0;38;13.996566271876928;14.111921458130565;2934;2000;2761;54;4934
NONE;;SEM-SA_-1_-1_-1_[0.1-1]_CAMQ_DR_[RGBI,RGBIR]_RESTART-ENABLEDRESTART-DISABLED;0;39;13.996566271876928;14.107686081383967;839;2000;1872;55;2839
NONE;;SEM-SA_-1_-1_-1_[0.1-1]_CAMQ_DR_[RGBI,RGBIR]_RESTART-ENABLEDRESTART-DISABLED;0;40;13.996566271876928;14.084810104769296;925;2000;1919;54;2925
NONE;;SEM-SA_-1_-1_-1_[0.1-1]_CAMQ_DR_[RGBI,RGBIR]_RESTART-ENABLEDRESTART-DISABLED;0;41;13.996566271876928;14.08911858087475;276;2000;1311;54;2276
NONE;;SEM-SA_-1_-1_-1_[0.1-1]_CAMQ_DR_[RGBI,RGBIR]_RESTART-ENABLEDRESTART-DISABLED;0;42;13.996566271876928;14.097013820391219;282;2000;1357;56;2282
NONE;;SEM-SA_-1_-1_-1_[0.1-1]_CAMQ_DR_[RGBI,RGBIR]_RESTART-ENABLEDRESTART-DISABLED;0;43;13.996566271876928;14.100772022342126;270;2000;1342;55;2270
NONE;;SEM-SA_-1_-1_-1_[0.1-1]_CAMQ_DR_[RGBI,RGBIR]_RESTART-ENABLEDRESTART-DISABLED;0;44;13.996566271876928;14.087623475458098;425;2000;1436;53;2425
NONE;;SEM-SA_-1_-1_-1_[0.1-1]_CAMQ_DR_[RGBI,RGBIR]_RESTART-ENABLEDRESTART-DISABLED;0;45;13.996566271876928;14.09352156550621;899;2000;1872;53;2899
NONE;;SEM-SA_-1_-1_-1_[0.1-1]_CAMQ_DR_[RGBI,RGBIR]_RESTART-ENABLEDRESTART-DISABLED;0;46;13.996566271876928;14.107686081383967;2808;2000;3323;55;4808
NONE;;SEM-SA_-1_-1_-1_[0.1-1]_CAMQ_DR_[RGBI,RGBIR]_RESTART-ENABLEDRESTART-DISABLED;0;47;13.996566271876928;14.107245927224072;3013;2000;2418;55;5013
NONE;;SEM-SA_-1_-1_-1_[0.1-1]_CAMQ_DR_[RGBI,RGBIR]_RESTART-ENABLEDRESTART-DISABLED;0;48;13.996566271876928;14.101539041703145;497;2000;1545;54;2497
NONE;;SEM-SA_-1_-1_-1_[0.1-1]_CAMQ_DR_[RGBI,RGBIR]_RESTART-ENABLEDRESTART-DISABLED;0;49;13.996566271876928;14.107686081383967;1664;2000;2200;55;3664
NONE;;SEM-SA_-1_-1_-1_[0.1-1]_CAMQ_DR_[RGBI,RGBIR]_RESTART-ENABLEDRESTART-DISABLED;0;50;13.996566271876928;14.10081738257307;2005;2000;2980;55;4005
NONE;;SEM-SA_-1_-1_-1_[0.1-1]_CAMQ_DR_[RGBI,RGBIR]_RESTART-ENABLEDRESTART-DISABLED;0;51;13.996566271876928;14.092434156940946;1021;2000;1996;54;3021
NONE;;SEM-SA_-1_-1_-1_[0.1-1]_CAMQ_DR_[RGBI,RGBIR]_RESTART-ENABLEDRESTART-DISABLED;0;52;13.996566271876928;14.108060824688259;1894;2000;2792;53;3894
NONE;;SEM-SA_-1_-1_-1_[0.1-1]_CAMQ_DR_[RGBI,RGBIR]_RESTART-ENABLEDRESTART-DISABLED;0;53;13.996566271876928;14.097013820391219;195;2000;1279;56;2195
NONE;;SEM-SA_-1_-1_-1_[0.1-1]_CAMQ_DR_[RGBI,RGBIR]_RESTART-ENABLEDRESTART-DISABLED;0;54;13.996566271876928;14.091615514992913;365;2000;1420;55;2365
NONE;;SEM-SA_-1_-1_-1_[0.1-1]_CAMQ_DR_[RGBI,RGBIR]_RESTART-ENABLEDRESTART-DISABLED;0;55;13.996566271876928;14.100460622684313;569;2000;1575;54;2569
NONE;;SEM-SA_-1_-1_-1_[0.1-1]_CAMQ_DR_[RGBI,RGBIR]_RESTART-ENABLEDRESTART-DISABLED;0;56;13.996566271876928;14.093317190106413;254;2000;1294;55;2254
NONE;;SEM-SA_-1_-1_-1_[0.1-1]_CAMQ_DR_[RGBI,RGBIR]_RESTART-ENABLEDRESTART-DISABLED;0;57;13.996566271876928;14.108060824688259;2201;2000;3120;53;4201
NONE;;SEM-SA_-1_-1_-1_[0.1-1]_CAMQ_DR_[RGBI,RGBIR]_RESTART-ENABLEDRESTART-DISABLED;0;58;13.996566271876928;14.09422538672114;105;2000;1155;54;2105
NONE;;SEM-SA_-1_-1_-1_[0.1-1]_CAMQ_DR_[RGBI,RGBIR]_RESTART-ENABLEDRESTART-DISABLED;0;59;13.996566271876928;14.089023590311816;435;2000;1435;53;2435
NONE;;SEM-SA_-1_-1_-1_[0.1-1]_CAMQ_DR_[RGBI,RGBIR]_RESTART-ENABLEDRESTART-DISABLED;0;60;13.996566271876928;14.10344236504222;629;2000;1684;56;2629
NONE;;SEM-SA_-1_-1_-1_[0.1-1]_CAMQ_DR_[RGBI,RGBIR]_RESTART-ENABLEDRESTART-DISABLED;0;61;13.996566271876928;14.097013820391219;538;2000;1606;56;2538
NONE;;SEM-SA_-1_-1_-1_[0.1-1]_CAMQ_DR_[RGBI,RGBIR]_RESTART-ENABLEDRESTART-DISABLED;0;62;13.996566271876928;14.091615514992913;1661;2000;2324;55;3661
NONE;;SEM-SA_-1_-1_-1_[0.1-1]_CAMQ_DR_[RGBI,RGBIR]_RESTART-ENABLEDRESTART-DISABLED;0;63;13.996566271876928;14.097035885552001;2134;2000;3042;54;4134
NONE;;SEM-SA_-1_-1_-1_[0.1-1]_CAMQ_DR_[RGBI,RGBIR]_RESTART-ENABLEDRESTART-DISABLED;0;64;13.996566271876928;14.111444283334876;1671;2000;2480;54;3671
NONE;;SEM-SA_-1_-1_-1_[0.1-1]_CAMQ_DR_[RGBI,RGBIR]_RESTART-ENABLEDRESTART-DISABLED;0;65;13.996566271876928;14.097013820391217;155;2000;1217;56;2155
NONE;;SEM-SA_-1_-1_-1_[0.1-1]_CAMQ_DR_[RGBI,RGBIR]_RESTART-ENABLEDRESTART-DISABLED;0;66;13.996566271876928;14.097519226315343;1987;2000;2574;55;3987
NONE;;SEM-SA_-1_-1_-1_[0.1-1]_CAMQ_DR_[RGBI,RGBIR]_RESTART-ENABLEDRESTART-DISABLED;0;67;13.996566271876928;14.10440299399656;1643;2000;2574;54;3643
NONE;;SEM-SA_-1_-1_-1_[0.1-1]_CAMQ_DR_[RGBI,RGBIR]_RESTART-ENABLEDRESTART-DISABLED;0;68;13.996566271876928;14.091660875223855;2333;2000;2730;55;4333
NONE;;SEM-SA_-1_-1_-1_[0.1-1]_CAMQ_DR_[RGBI,RGBIR]_RESTART-ENABLEDRESTART-DISABLED;0;69;13.996566271876928;14.099207890277807;544;2000;1576;54;2544
NONE;;SEM-SA_-1_-1_-1_[0.1-1]_CAMQ_DR_[RGBI,RGBIR]_RESTART-ENABLEDRESTART-DISABLED;0;70;13.996566271876928;14.100044016592921;2266;2000;2433;55;4266
NONE;;SEM-SA_-1_-1_-1_[0.1-1]_CAMQ_DR_[RGBI,RGBIR]_RESTART-ENABLEDRESTART-DISABLED;0;71;13.996566271876928;14.103487725273164;3279;2000;3010;56;5279
NONE;;SEM-SA_-1_-1_-1_[0.1-1]_CAMQ_DR_[RGBI,RGBIR]_RESTART-ENABLEDRESTART-DISABLED;0;72;13.996566271876928;14.100419625616519;3493;2000;3541;55;5493
NONE;;SEM-SA_-1_-1_-1_[0.1-1]_CAMQ_DR_[RGBI,RGBIR]_RESTART-ENABLEDRESTART-DISABLED;0;73;13.996566271876928;14.094365191747288;810;2000;1794;53;2810
NONE;;SEM-SA_-1_-1_-1_[0.1-1]_CAMQ_DR_[RGBI,RGBIR]_RESTART-ENABLEDRESTART-DISABLED;0;74;13.996566271876928;14.09699080673896;482;2000;1513;54;2482
NONE;;SEM-SA_-1_-1_-1_[0.1-1]_CAMQ_DR_[RGBI,RGBIR]_RESTART-ENABLEDRESTART-DISABLED;0;75;13.996566271876928;14.102535580448873;3127;2000;3135;54;5127
NONE;;SEM-SA_-1_-1_-1_[0.1-1]_CAMQ_DR_[RGBI,RGBIR]_RESTART-ENABLEDRESTART-DISABLED;0;76;13.996566271876928;14.09747371648275;2930;2000;2683;54;4930
NONE;;SEM-SA_-1_-1_-1_[0.1-1]_CAMQ_DR_[RGBI,RGBIR]_RESTART-ENABLEDRESTART-DISABLED;0;77;13.996566271876928;14.107534690681023;3431;2000;2901;55;5431
NONE;;SEM-SA_-1_-1_-1_[0.1-1]_CAMQ_DR_[RGBI,RGBIR]_RESTART-ENABLEDRESTART-DISABLED;0;78;13.996566271876928;14.101539041703145;2239;2000;2309;54;4239
NONE;;SEM-SA_-1_-1_-1_[0.1-1]_CAMQ_DR_[RGBI,RGBIR]_RESTART-ENABLEDRESTART-DISABLED;0;79;13.996566271876928;14.103487725273164;1620;2000;2652;56;3620
NONE;;SEM-SA_-1_-1_-1_[0.1-1]_CAMQ_DR_[RGBI,RGBIR]_RESTART-ENABLEDRESTART-DISABLED;0;80;13.996566271876928;14.087076389401156;441;2000;1482;55;2441
NONE;;SEM-SA_-1_-1_-1_[0.1-1]_CAMQ_DR_[RGBI,RGBIR]_RESTART-ENABLEDRESTART-DISABLED;0;81;13.996566271876928;14.097013820391219;292;2000;1357;56;2292
NONE;;SEM-SA_-1_-1_-1_[0.1-1]_CAMQ_DR_[RGBI,RGBIR]_RESTART-ENABLEDRESTART-DISABLED;0;82;13.996566271876928;14.100058906395603;391;2000;1451;55;2391
NONE;;SEM-SA_-1_-1_-1_[0.1-1]_CAMQ_DR_[RGBI,RGBIR]_RESTART-ENABLEDRESTART-DISABLED;0;83;13.996566271876928;14.097013820391219;235;2000;1311;56;2235
NONE;;SEM-SA_-1_-1_-1_[0.1-1]_CAMQ_DR_[RGBI,RGBIR]_RESTART-ENABLEDRESTART-DISABLED;0;84;13.996566271876928;14.113833401452203;6232;3000;6380;55;9232
NONE;;SEM-SA_-1_-1_-1_[0.1-1]_CAMQ_DR_[RGBI,RGBIR]_RESTART-ENABLEDRESTART-DISABLED;0;85;13.996566271876928;14.100374265385577;219;2000;1279;55;2219
NONE;;SEM-SA_-1_-1_-1_[0.1-1]_CAMQ_DR_[RGBI,RGBIR]_RESTART-ENABLEDRESTART-DISABLED;0;86;13.996566271876928;14.100772022342126;624;2000;1669;55;2624
NONE;;SEM-SA_-1_-1_-1_[0.1-1]_CAMQ_DR_[RGBI,RGBIR]_RESTART-ENABLEDRESTART-DISABLED;0;87;13.996566271876928;14.099098126446917;1033;2000;2012;53;3033
NONE;;SEM-SA_-1_-1_-1_[0.1-1]_CAMQ_DR_[RGBI,RGBIR]_RESTART-ENABLEDRESTART-DISABLED;0;88;13.996566271876928;14.100419625616519;2863;2000;2528;55;4863
NONE;;SEM-SA_-1_-1_-1_[0.1-1]_CAMQ_DR_[RGBI,RGBIR]_RESTART-ENABLEDRESTART-DISABLED;0;89;13.996566271876928;14.091615514992913;366;2000;1419;55;2366
NONE;;SEM-SA_-1_-1_-1_[0.1-1]_CAMQ_DR_[RGBI,RGBIR]_RESTART-ENABLEDRESTART-DISABLED;0;90;13.996566271876928;14.093630361744601;139;2000;1185;55;2139
NONE;;SEM-SA_-1_-1_-1_[0.1-1]_CAMQ_DR_[RGBI,RGBIR]_RESTART-ENABLEDRESTART-DISABLED;0;91;13.996566271876928;14.097013820391219;186;2000;1264;56;2186
NONE;;SEM-SA_-1_-1_-1_[0.1-1]_CAMQ_DR_[RGBI,RGBIR]_RESTART-ENABLEDRESTART-DISABLED;0;92;13.996566271876928;14.107534690681021;5068;2000;2715;55;7068
NONE;;SEM-SA_-1_-1_-1_[0.1-1]_CAMQ_DR_[RGBI,RGBIR]_RESTART-ENABLEDRESTART-DISABLED;0;93;13.996566271876928;14.083505186808793;1490;2000;2137;54;3490
NONE;;SEM-SA_-1_-1_-1_[0.1-1]_CAMQ_DR_[RGBI,RGBIR]_RESTART-ENABLEDRESTART-DISABLED;0;94;13.996566271876928;14.096683183718746;498;2000;1529;55;2498
NONE;;SEM-SA_-1_-1_-1_[0.1-1]_CAMQ_DR_[RGBI,RGBIR]_RESTART-ENABLEDRESTART-DISABLED;0;95;13.996566271876928;14.091615514992913;1097;2000;2122;55;3097
NONE;;SEM-SA_-1_-1_-1_[0.1-1]_CAMQ_DR_[RGBI,RGBIR]_RESTART-ENABLEDRESTART-DISABLED;0;96;13.996566271876928;14.114808576028476;2402;2000;3073;54;4402
NONE;;SEM-SA_-1_-1_-1_[0.1-1]_CAMQ_DR_[RGBI,RGBIR]_RESTART-ENABLEDRESTART-DISABLED;0;97;13.996566271876928;14.112591253872962;2961;2000;3074;53;4961
NONE;;SEM-SA_-1_-1_-1_[0.1-1]_CAMQ_DR_[RGBI,RGBIR]_RESTART-ENABLEDRESTART-DISABLED;0;98;13.996566271876928;14.114808576028478;4149;2000;3510;54;6149
NONE;;SEM-SA_-1_-1_-1_[0.1-1]_CAMQ_DR_[RGBI,RGBIR]_RESTART-ENABLEDRESTART-DISABLED;0;99;13.996566271876928;14.10081738257307;1885;2000;2356;55;3885
