NONE;;SEM-SA_-1_-1_-1_[0.1-1]_CAMQ_DR_[RGBI,RGBIR];0;0;21.550073428519084;21.818302469196944;2908;1000;1980;71
NONE;;SEM-SA_-1_-1_-1_[0.1-1]_CAMQ_DR_[RGBI,RGBIR];0;1;21.550073428519084;21.80062154961154;448;1000;850;71
NONE;;SEM-SA_-1_-1_-1_[0.1-1]_CAMQ_DR_[RGBI,RGBIR];0;2;21.550073428519084;21.856727234405366;453;1000;855;72
NONE;;SEM-SA_-1_-1_-1_[0.1-1]_CAMQ_DR_[RGBI,RGBIR];0;3;21.550073428519084;21.848367272880335;329;1000;740;71
NONE;;SEM-SA_-1_-1_-1_[0.1-1]_CAMQ_DR_[RGBI,RGBIR];0;4;21.550073428519084;21.81830246919694;2870;1000;2015;71
NONE;;SEM-SA_-1_-1_-1_[0.1-1]_CAMQ_DR_[RGBI,RGBIR];0;5;21.550073428519084;21.83051642151782;278;1000;685;70
NONE;;SEM-SA_-1_-1_-1_[0.1-1]_CAMQ_DR_[RGBI,RGBIR];0;6;21.550073428519084;21.824607993771476;480;1000;865;72
NONE;;SEM-SA_-1_-1_-1_[0.1-1]_CAMQ_DR_[RGBI,RGBIR];0;7;21.550073428519084;21.81830246919694;2493;1000;1910;71
NONE;;SEM-SA_-1_-1_-1_[0.1-1]_CAMQ_DR_[RGBI,RGBIR];0;8;21.550073428519084;21.829345355849583;2570;1000;2090;72
NONE;;SEM-SA_-1_-1_-1_[0.1-1]_CAMQ_DR_[RGBI,RGBIR];0;9;21.550073428519084;21.832279975738665;1573;1000;1400;72
NONE;;SEM-SA_-1_-1_-1_[0.1-1]_CAMQ_DR_[RGBI,RGBIR];0;10;21.550073428519084;21.860122213410104;761;1000;1030;72
NONE;;SEM-SA_-1_-1_-1_[0.1-1]_CAMQ_DR_[RGBI,RGBIR];0;11;21.550073428519084;21.86100198412359;1464;1000;1645;72
NONE;;SEM-SA_-1_-1_-1_[0.1-1]_CAMQ_DR_[RGBI,RGBIR];0;12;21.550073428519084;21.842271362047587;1523;1000;1350;71
NONE;;SEM-SA_-1_-1_-1_[0.1-1]_CAMQ_DR_[RGBI,RGBIR];0;13;21.550073428519084;21.81830246919694;338;1000;755;71
NONE;;SEM-SA_-1_-1_-1_[0.1-1]_CAMQ_DR_[RGBI,RGBIR];0;14;21.550073428519084;21.837525715069898;938;1000;1105;71
NONE;;SEM-SA_-1_-1_-1_[0.1-1]_CAMQ_DR_[RGBI,RGBIR];0;15;21.550073428519084;21.785903937218446;628;1000;975;69
NONE;;SEM-SA_-1_-1_-1_[0.1-1]_CAMQ_DR_[RGBI,RGBIR];0;16;21.550073428519084;21.843498836786726;1561;1000;1255;71
NONE;;SEM-SA_-1_-1_-1_[0.1-1]_CAMQ_DR_[RGBI,RGBIR];0;17;21.550073428519084;21.85956032319304;853;1000;1105;72
NONE;;SEM-SA_-1_-1_-1_[0.1-1]_CAMQ_DR_[RGBI,RGBIR];0;18;21.550073428519084;21.861001984123586;237;1000;715;72
NONE;;SEM-SA_-1_-1_-1_[0.1-1]_CAMQ_DR_[RGBI,RGBIR];0;19;21.550073428519084;21.8351961339269;206;1000;670;71
NONE;;SEM-SA_-1_-1_-1_[0.1-1]_CAMQ_DR_[RGBI,RGBIR];0;20;21.550073428519084;21.860818812410244;2124;1000;1540;73
NONE;;SEM-SA_-1_-1_-1_[0.1-1]_CAMQ_DR_[RGBI,RGBIR];0;21;21.550073428519084;21.85956032319304;1491;1000;1200;72
NONE;;SEM-SA_-1_-1_-1_[0.1-1]_CAMQ_DR_[RGBI,RGBIR];0;22;21.550073428519084;21.794287772454613;457;1000;835;69
NONE;;SEM-SA_-1_-1_-1_[0.1-1]_CAMQ_DR_[RGBI,RGBIR];0;23;21.550073428519084;21.832146476297762;2596;1000;2120;72
NONE;;SEM-SA_-1_-1_-1_[0.1-1]_CAMQ_DR_[RGBI,RGBIR];0;24;21.550073428519084;21.790156495364066;79;1000;535;71
NONE;;SEM-SA_-1_-1_-1_[0.1-1]_CAMQ_DR_[RGBI,RGBIR];0;25;21.550073428519084;21.859560323193037;2100;1000;1215;72
NONE;;SEM-SA_-1_-1_-1_[0.1-1]_CAMQ_DR_[RGBI,RGBIR];0;26;21.550073428519084;21.787698347527833;381;1000;790;71
NONE;;SEM-SA_-1_-1_-1_[0.1-1]_CAMQ_DR_[RGBI,RGBIR];0;27;21.550073428519084;21.83406926901535;1544;1000;1735;70
NONE;;SEM-SA_-1_-1_-1_[0.1-1]_CAMQ_DR_[RGBI,RGBIR];0;28;21.550073428519084;21.80045161783443;1842;1000;1375;70
NONE;;SEM-SA_-1_-1_-1_[0.1-1]_CAMQ_DR_[RGBI,RGBIR];0;29;21.550073428519084;21.825098291536055;1608;1000;1325;71
NONE;;SEM-SA_-1_-1_-1_[0.1-1]_CAMQ_DR_[RGBI,RGBIR];0;30;21.550073428519084;21.813639020374154;379;1000;780;71
NONE;;SEM-SA_-1_-1_-1_[0.1-1]_CAMQ_DR_[RGBI,RGBIR];0;31;21.550073428519084;21.818302469196933;1779;1000;1445;71
NONE;;SEM-SA_-1_-1_-1_[0.1-1]_CAMQ_DR_[RGBI,RGBIR];0;32;21.550073428519084;21.815820768130642;1022;1000;1340;71
NONE;;SEM-SA_-1_-1_-1_[0.1-1]_CAMQ_DR_[RGBI,RGBIR];0;33;21.550073428519084;21.792815660273153;702;1000;1040;70
NONE;;SEM-SA_-1_-1_-1_[0.1-1]_CAMQ_DR_[RGBI,RGBIR];0;34;21.550073428519084;21.841965269412942;1189;1000;1055;71
NONE;;SEM-SA_-1_-1_-1_[0.1-1]_CAMQ_DR_[RGBI,RGBIR];0;35;21.550073428519084;21.78677754251072;1184;1000;1190;70
NONE;;SEM-SA_-1_-1_-1_[0.1-1]_CAMQ_DR_[RGBI,RGBIR];0;36;21.550073428519084;21.841709471830526;662;1000;995;71
NONE;;SEM-SA_-1_-1_-1_[0.1-1]_CAMQ_DR_[RGBI,RGBIR];0;37;21.550073428519084;21.81956095841414;1145;1000;1295;72
NONE;;SEM-SA_-1_-1_-1_[0.1-1]_CAMQ_DR_[RGBI,RGBIR];0;38;21.550073428519084;21.798029857935678;1903;1000;1745;71
NONE;;SEM-SA_-1_-1_-1_[0.1-1]_CAMQ_DR_[RGBI,RGBIR];0;39;21.550073428519084;21.855600369493807;894;1000;1210;71
NONE;;SEM-SA_-1_-1_-1_[0.1-1]_CAMQ_DR_[RGBI,RGBIR];0;40;21.550073428519084;21.826082001150493;622;1000;995;72
NONE;;SEM-SA_-1_-1_-1_[0.1-1]_CAMQ_DR_[RGBI,RGBIR];0;41;21.550073428519084;21.818302469196936;332;1000;755;71
NONE;;SEM-SA_-1_-1_-1_[0.1-1]_CAMQ_DR_[RGBI,RGBIR];0;42;21.550073428519084;21.796771368718463;1955;1000;1460;70
NONE;;SEM-SA_-1_-1_-1_[0.1-1]_CAMQ_DR_[RGBI,RGBIR];0;43;21.550073428519084;21.828388886948417;2004;1000;1575;73
NONE;;SEM-SA_-1_-1_-1_[0.1-1]_CAMQ_DR_[RGBI,RGBIR];0;44;21.550073428519084;21.859560323193044;1892;1000;1315;72
NONE;;SEM-SA_-1_-1_-1_[0.1-1]_CAMQ_DR_[RGBI,RGBIR];0;45;21.550073428519084;21.835727411501068;1334;1000;1100;71
NONE;;SEM-SA_-1_-1_-1_[0.1-1]_CAMQ_DR_[RGBI,RGBIR];0;46;21.550073428519084;21.859560323193044;1681;1000;1470;72
NONE;;SEM-SA_-1_-1_-1_[0.1-1]_CAMQ_DR_[RGBI,RGBIR];0;47;21.550073428519084;21.84680162852799;940;1000;1190;74
NONE;;SEM-SA_-1_-1_-1_[0.1-1]_CAMQ_DR_[RGBI,RGBIR];0;48;21.550073428519084;21.83947088364512;886;1000;1210;71
NONE;;SEM-SA_-1_-1_-1_[0.1-1]_CAMQ_DR_[RGBI,RGBIR];0;49;21.550073428519084;21.856727234405366;405;1000;825;72
NONE;;SEM-SA_-1_-1_-1_[0.1-1]_CAMQ_DR_[RGBI,RGBIR];0;50;21.550073428519084;21.861001984123586;365;1000;790;72
NONE;;SEM-SA_-1_-1_-1_[0.1-1]_CAMQ_DR_[RGBI,RGBIR];0;51;21.550073428519084;21.786777542510723;548;1000;910;70
NONE;;SEM-SA_-1_-1_-1_[0.1-1]_CAMQ_DR_[RGBI,RGBIR];0;52;21.550073428519084;21.818302469196936;454;1000;845;71
NONE;;SEM-SA_-1_-1_-1_[0.1-1]_CAMQ_DR_[RGBI,RGBIR];0;53;21.550073428519084;21.83004195484973;1769;1000;1400;73
NONE;;SEM-SA_-1_-1_-1_[0.1-1]_CAMQ_DR_[RGBI,RGBIR];0;54;21.550073428519084;21.783037352227215;342;1000;730;69
NONE;;SEM-SA_-1_-1_-1_[0.1-1]_CAMQ_DR_[RGBI,RGBIR];0;55;21.550073428519084;21.818302469196933;268;1000;685;71
NONE;;SEM-SA_-1_-1_-1_[0.1-1]_CAMQ_DR_[RGBI,RGBIR];0;56;21.550073428519084;21.861001984123586;549;1000;920;72
NONE;;SEM-SA_-1_-1_-1_[0.1-1]_CAMQ_DR_[RGBI,RGBIR];0;57;21.550073428519084;21.842271362047587;3429;1000;1995;71
NONE;;SEM-SA_-1_-1_-1_[0.1-1]_CAMQ_DR_[RGBI,RGBIR];0;58;21.550073428519084;21.84836727288033;459;1000;845;71
NONE;;SEM-SA_-1_-1_-1_[0.1-1]_CAMQ_DR_[RGBI,RGBIR];0;59;21.550073428519084;21.828279957987846;1869;1000;1670;72
NONE;;SEM-SA_-1_-1_-1_[0.1-1]_CAMQ_DR_[RGBI,RGBIR];0;60;21.550073428519084;21.861001984123593;3063;1000;2165;72
NONE;;SEM-SA_-1_-1_-1_[0.1-1]_CAMQ_DR_[RGBI,RGBIR];0;61;21.550073428519084;21.81456227891344;1197;1000;1460;70
NONE;;SEM-SA_-1_-1_-1_[0.1-1]_CAMQ_DR_[RGBI,RGBIR];0;62;21.550073428519084;21.860122213410108;1523;1000;1375;72
NONE;;SEM-SA_-1_-1_-1_[0.1-1]_CAMQ_DR_[RGBI,RGBIR];0;63;21.550073428519084;21.855600369493807;424;1000;820;71
NONE;;SEM-SA_-1_-1_-1_[0.1-1]_CAMQ_DR_[RGBI,RGBIR];0;64;21.550073428519084;21.818302469196933;1556;1000;1085;71
NONE;;SEM-SA_-1_-1_-1_[0.1-1]_CAMQ_DR_[RGBI,RGBIR];0;65;21.550073428519084;21.818302469196936;2313;1000;1540;71
NONE;;SEM-SA_-1_-1_-1_[0.1-1]_CAMQ_DR_[RGBI,RGBIR];0;66;21.550073428519084;21.81759041531981;519;1000;890;71
NONE;;SEM-SA_-1_-1_-1_[0.1-1]_CAMQ_DR_[RGBI,RGBIR];0;67;21.550073428519084;21.818302469196936;1235;1000;1395;71
NONE;;SEM-SA_-1_-1_-1_[0.1-1]_CAMQ_DR_[RGBI,RGBIR];0;68;21.550073428519084;21.826539952466607;131;1000;590;71
NONE;;SEM-SA_-1_-1_-1_[0.1-1]_CAMQ_DR_[RGBI,RGBIR];0;69;21.550073428519084;21.828783465632515;712;1000;1045;72
NONE;;SEM-SA_-1_-1_-1_[0.1-1]_CAMQ_DR_[RGBI,RGBIR];0;70;21.550073428519084;21.860122213410104;1523;1000;1370;72
NONE;;SEM-SA_-1_-1_-1_[0.1-1]_CAMQ_DR_[RGBI,RGBIR];0;71;21.550073428519084;21.855600369493814;331;1000;745;71
NONE;;SEM-SA_-1_-1_-1_[0.1-1]_CAMQ_DR_[RGBI,RGBIR];0;72;21.550073428519084;21.79677136871847;1548;1000;1155;70
NONE;;SEM-SA_-1_-1_-1_[0.1-1]_CAMQ_DR_[RGBI,RGBIR];0;73;21.550073428519084;21.78222368810249;1857;1000;1575;69
NONE;;SEM-SA_-1_-1_-1_[0.1-1]_CAMQ_DR_[RGBI,RGBIR];0;74;21.550073428519084;21.803754788580957;1148;1000;1185;70
NONE;;SEM-SA_-1_-1_-1_[0.1-1]_CAMQ_DR_[RGBI,RGBIR];0;75;21.550073428519084;21.797969916768132;1785;1000;1690;70
NONE;;SEM-SA_-1_-1_-1_[0.1-1]_CAMQ_DR_[RGBI,RGBIR];0;76;21.550073428519084;21.842271362047587;1154;1000;1135;71
NONE;;SEM-SA_-1_-1_-1_[0.1-1]_CAMQ_DR_[RGBI,RGBIR];0;77;21.550073428519084;21.828783465632515;1610;1000;1500;72
NONE;;SEM-SA_-1_-1_-1_[0.1-1]_CAMQ_DR_[RGBI,RGBIR];0;78;21.550073428519084;21.828783465632526;2260;1000;1470;72
NONE;;SEM-SA_-1_-1_-1_[0.1-1]_CAMQ_DR_[RGBI,RGBIR];0;79;21.550073428519084;21.832146476297762;1697;1000;1395;72
NONE;;SEM-SA_-1_-1_-1_[0.1-1]_CAMQ_DR_[RGBI,RGBIR];0;80;21.550073428519084;21.820178371352057;1265;1000;1285;70
NONE;;SEM-SA_-1_-1_-1_[0.1-1]_CAMQ_DR_[RGBI,RGBIR];0;81;21.550073428519084;21.844981249093724;901;1000;1165;73
NONE;;SEM-SA_-1_-1_-1_[0.1-1]_CAMQ_DR_[RGBI,RGBIR];0;82;21.550073428519084;21.818302469196936;172;1000;610;71
NONE;;SEM-SA_-1_-1_-1_[0.1-1]_CAMQ_DR_[RGBI,RGBIR];0;83;21.550073428519084;21.838029222714574;1825;1000;1500;71
NONE;;SEM-SA_-1_-1_-1_[0.1-1]_CAMQ_DR_[RGBI,RGBIR];0;84;21.550073428519084;21.803754788580957;663;1000;1015;70
NONE;;SEM-SA_-1_-1_-1_[0.1-1]_CAMQ_DR_[RGBI,RGBIR];0;85;21.550073428519084;21.818302469196933;1690;1000;1270;71
NONE;;SEM-SA_-1_-1_-1_[0.1-1]_CAMQ_DR_[RGBI,RGBIR];0;86;21.550073428519084;21.830041954849722;1180;1000;1330;73
NONE;;SEM-SA_-1_-1_-1_[0.1-1]_CAMQ_DR_[RGBI,RGBIR];0;87;21.550073428519084;21.832279975738658;1084;1000;1055;72
NONE;;SEM-SA_-1_-1_-1_[0.1-1]_CAMQ_DR_[RGBI,RGBIR];0;88;21.550073428519084;21.785903937218443;850;1000;1155;69
NONE;;SEM-SA_-1_-1_-1_[0.1-1]_CAMQ_DR_[RGBI,RGBIR];0;89;21.550073428519084;21.8328430752979;1193;1000;1165;73
NONE;;SEM-SA_-1_-1_-1_[0.1-1]_CAMQ_DR_[RGBI,RGBIR];0;90;21.550073428519084;21.819560958414137;1488;1000;1340;72
NONE;;SEM-SA_-1_-1_-1_[0.1-1]_CAMQ_DR_[RGBI,RGBIR];0;91;21.550073428519084;21.855600369493814;492;1000;890;71
NONE;;SEM-SA_-1_-1_-1_[0.1-1]_CAMQ_DR_[RGBI,RGBIR];0;92;21.550073428519084;21.83859111293163;703;1000;1060;71
NONE;;SEM-SA_-1_-1_-1_[0.1-1]_CAMQ_DR_[RGBI,RGBIR];0;93;21.550073428519084;21.861001984123597;1631;1000;1865;72
NONE;;SEM-SA_-1_-1_-1_[0.1-1]_CAMQ_DR_[RGBI,RGBIR];0;94;21.550073428519084;21.818302469196936;1687;1000;1475;71
NONE;;SEM-SA_-1_-1_-1_[0.1-1]_CAMQ_DR_[RGBI,RGBIR];0;95;21.550073428519084;21.81697880230264;418;1000;810;71
NONE;;SEM-SA_-1_-1_-1_[0.1-1]_CAMQ_DR_[RGBI,RGBIR];0;96;21.550073428519084;21.818302469196936;1951;1000;1290;71
NONE;;SEM-SA_-1_-1_-1_[0.1-1]_CAMQ_DR_[RGBI,RGBIR];0;97;21.550073428519084;21.81956095841414;701;1000;1065;72
NONE;;SEM-SA_-1_-1_-1_[0.1-1]_CAMQ_DR_[RGBI,RGBIR];0;98;21.550073428519084;21.8328430752979;154;1000;630;73
NONE;;SEM-SA_-1_-1_-1_[0.1-1]_CAMQ_DR_[RGBI,RGBIR];0;99;21.550073428519084;21.81061537581929;1696;1000;1365;71
