NONE;;SEM-SA_-1_-1_-1_[0.1-1]_CAMQ_DR_[RGBI,RGBIR];0;0;29.13917984437418;29.645422654349606;1762;1000;4490;96
NONE;;SEM-SA_-1_-1_-1_[0.1-1]_CAMQ_DR_[RGBI,RGBIR];0;1;29.13917984437418;29.676525135799423;1675;1000;3730;100
NONE;;SEM-SA_-1_-1_-1_[0.1-1]_CAMQ_DR_[RGBI,RGBIR];0;2;29.13917984437418;29.705195955062006;3010;1000;6110;97
NONE;;SEM-SA_-1_-1_-1_[0.1-1]_CAMQ_DR_[RGBI,RGBIR];0;3;29.13917984437418;29.641228745116162;3274;1000;6930;98
NONE;;SEM-SA_-1_-1_-1_[0.1-1]_CAMQ_DR_[RGBI,RGBIR];0;4;29.13917984437418;29.63456470969981;725;1000;3095;96
NONE;;SEM-SA_-1_-1_-1_[0.1-1]_CAMQ_DR_[RGBI,RGBIR];0;5;29.13917984437418;29.535730791594336;1160;1000;4130;97
NONE;;SEM-SA_-1_-1_-1_[0.1-1]_CAMQ_DR_[RGBI,RGBIR];0;6;29.13917984437418;29.656782874738948;1719;1000;3890;99
NONE;;SEM-SA_-1_-1_-1_[0.1-1]_CAMQ_DR_[RGBI,RGBIR];0;7;29.13917984437418;29.634919942786517;1233;1000;3845;97
NONE;;SEM-SA_-1_-1_-1_[0.1-1]_CAMQ_DR_[RGBI,RGBIR];0;8;29.13917984437418;29.582413233767472;476;1000;2510;98
NONE;;SEM-SA_-1_-1_-1_[0.1-1]_CAMQ_DR_[RGBI,RGBIR];0;9;29.13917984437418;29.579864257454965;1278;1000;4535;99
NONE;;SEM-SA_-1_-1_-1_[0.1-1]_CAMQ_DR_[RGBI,RGBIR];0;10;29.13917984437418;29.605873908396358;483;1000;2530;99
NONE;;SEM-SA_-1_-1_-1_[0.1-1]_CAMQ_DR_[RGBI,RGBIR];0;11;29.13917984437418;29.650134559776696;2722;1000;7450;97
NONE;;SEM-SA_-1_-1_-1_[0.1-1]_CAMQ_DR_[RGBI,RGBIR];0;12;29.13917984437418;29.6167547981241;1847;1000;4075;99
NONE;;SEM-SA_-1_-1_-1_[0.1-1]_CAMQ_DR_[RGBI,RGBIR];0;13;29.13917984437418;29.63844430723778;2868;1000;6865;97
NONE;;SEM-SA_-1_-1_-1_[0.1-1]_CAMQ_DR_[RGBI,RGBIR];0;14;29.13917984437418;29.60618182086749;372;1000;2260;99
NONE;;SEM-SA_-1_-1_-1_[0.1-1]_CAMQ_DR_[RGBI,RGBIR];0;15;29.13917984437418;29.625816236551852;2134;1000;5275;99
NONE;;SEM-SA_-1_-1_-1_[0.1-1]_CAMQ_DR_[RGBI,RGBIR];0;16;29.13917984437418;29.624915011891257;2286;1000;4260;98
NONE;;SEM-SA_-1_-1_-1_[0.1-1]_CAMQ_DR_[RGBI,RGBIR];0;17;29.13917984437418;29.624334610091626;1116;1000;3970;96
NONE;;SEM-SA_-1_-1_-1_[0.1-1]_CAMQ_DR_[RGBI,RGBIR];0;18;29.13917984437418;29.645289538955268;2420;1000;5080;100
NONE;;SEM-SA_-1_-1_-1_[0.1-1]_CAMQ_DR_[RGBI,RGBIR];0;19;29.13917984437418;29.575782730061743;1585;1000;4475;99
NONE;;SEM-SA_-1_-1_-1_[0.1-1]_CAMQ_DR_[RGBI,RGBIR];0;20;29.13917984437418;29.615794921465287;1344;1000;4015;99
NONE;;SEM-SA_-1_-1_-1_[0.1-1]_CAMQ_DR_[RGBI,RGBIR];0;21;29.13917984437418;29.69920236664708;1599;1000;3905;96
NONE;;SEM-SA_-1_-1_-1_[0.1-1]_CAMQ_DR_[RGBI,RGBIR];0;22;29.13917984437418;29.571411912573296;1479;1000;4290;97
NONE;;SEM-SA_-1_-1_-1_[0.1-1]_CAMQ_DR_[RGBI,RGBIR];0;23;29.13917984437418;29.609341603440445;1196;1000;4210;97
NONE;;SEM-SA_-1_-1_-1_[0.1-1]_CAMQ_DR_[RGBI,RGBIR];0;24;29.13917984437418;29.6501345597767;2582;1000;6015;97
NONE;;SEM-SA_-1_-1_-1_[0.1-1]_CAMQ_DR_[RGBI,RGBIR];0;25;29.13917984437418;29.515331094500553;950;1000;3815;102
NONE;;SEM-SA_-1_-1_-1_[0.1-1]_CAMQ_DR_[RGBI,RGBIR];0;26;29.13917984437418;29.59453116957074;667;1000;3025;98
NONE;;SEM-SA_-1_-1_-1_[0.1-1]_CAMQ_DR_[RGBI,RGBIR];0;27;29.13917984437418;29.657700337233763;1807;1000;5450;99
NONE;;SEM-SA_-1_-1_-1_[0.1-1]_CAMQ_DR_[RGBI,RGBIR];0;28;29.13917984437418;29.571548662374664;524;1000;2620;97
NONE;;SEM-SA_-1_-1_-1_[0.1-1]_CAMQ_DR_[RGBI,RGBIR];0;29;29.13917984437418;29.617477159722455;886;1000;3560;98
NONE;;SEM-SA_-1_-1_-1_[0.1-1]_CAMQ_DR_[RGBI,RGBIR];0;30;29.13917984437418;29.6501345597767;1615;1000;5285;97
NONE;;SEM-SA_-1_-1_-1_[0.1-1]_CAMQ_DR_[RGBI,RGBIR];0;31;29.13917984437418;29.65450543294538;2397;1000;4575;98
NONE;;SEM-SA_-1_-1_-1_[0.1-1]_CAMQ_DR_[RGBI,RGBIR];0;32;29.13917984437418;29.615687270010028;1127;1000;4115;97
NONE;;SEM-SA_-1_-1_-1_[0.1-1]_CAMQ_DR_[RGBI,RGBIR];0;33;29.13917984437418;29.56751659442266;824;1000;3290;97
NONE;;SEM-SA_-1_-1_-1_[0.1-1]_CAMQ_DR_[RGBI,RGBIR];0;34;29.13917984437418;29.710100600271087;4806;1000;8125;99
NONE;;SEM-SA_-1_-1_-1_[0.1-1]_CAMQ_DR_[RGBI,RGBIR];0;35;29.13917984437418;29.62293906153339;1424;1000;3755;99
NONE;;SEM-SA_-1_-1_-1_[0.1-1]_CAMQ_DR_[RGBI,RGBIR];0;36;29.13917984437418;29.69347350126591;3707;1000;6730;99
NONE;;SEM-SA_-1_-1_-1_[0.1-1]_CAMQ_DR_[RGBI,RGBIR];0;37;29.13917984437418;29.65046078483228;2397;1000;3915;98
NONE;;SEM-SA_-1_-1_-1_[0.1-1]_CAMQ_DR_[RGBI,RGBIR];0;38;29.13917984437418;29.54670816899084;574;1000;2790;99
NONE;;SEM-SA_-1_-1_-1_[0.1-1]_CAMQ_DR_[RGBI,RGBIR];0;39;29.13917984437418;29.658004872314383;2429;1000;4925;99
NONE;;SEM-SA_-1_-1_-1_[0.1-1]_CAMQ_DR_[RGBI,RGBIR];0;40;29.13917984437418;29.57001330248251;1595;1000;3410;97
NONE;;SEM-SA_-1_-1_-1_[0.1-1]_CAMQ_DR_[RGBI,RGBIR];0;41;29.13917984437418;29.594543067374843;781;1000;3165;96
NONE;;SEM-SA_-1_-1_-1_[0.1-1]_CAMQ_DR_[RGBI,RGBIR];0;42;29.13917984437418;29.680151482182435;1350;1000;3570;99
NONE;;SEM-SA_-1_-1_-1_[0.1-1]_CAMQ_DR_[RGBI,RGBIR];0;43;29.13917984437418;29.584669053767897;1395;1000;3865;98
NONE;;SEM-SA_-1_-1_-1_[0.1-1]_CAMQ_DR_[RGBI,RGBIR];0;44;29.13917984437418;29.586640280023936;907;1000;3375;98
NONE;;SEM-SA_-1_-1_-1_[0.1-1]_CAMQ_DR_[RGBI,RGBIR];0;45;29.13917984437418;29.61253650772883;358;1000;2230;98
NONE;;SEM-SA_-1_-1_-1_[0.1-1]_CAMQ_DR_[RGBI,RGBIR];0;46;29.13917984437418;29.6386890946727;2177;1000;3945;97
NONE;;SEM-SA_-1_-1_-1_[0.1-1]_CAMQ_DR_[RGBI,RGBIR];0;47;29.13917984437418;29.61481226906549;1168;1000;4205;98
NONE;;SEM-SA_-1_-1_-1_[0.1-1]_CAMQ_DR_[RGBI,RGBIR];0;48;29.13917984437418;29.648409294628784;2133;1000;3935;98
NONE;;SEM-SA_-1_-1_-1_[0.1-1]_CAMQ_DR_[RGBI,RGBIR];0;49;29.13917984437418;29.59135218545103;463;1000;2470;99
NONE;;SEM-SA_-1_-1_-1_[0.1-1]_CAMQ_DR_[RGBI,RGBIR];0;50;29.13917984437418;29.702659812301945;2378;1000;5455;97
NONE;;SEM-SA_-1_-1_-1_[0.1-1]_CAMQ_DR_[RGBI,RGBIR];0;51;29.13917984437418;29.643130165053005;1359;1000;4680;98
NONE;;SEM-SA_-1_-1_-1_[0.1-1]_CAMQ_DR_[RGBI,RGBIR];0;52;29.13917984437418;29.570622498451275;3278;1000;6165;95
NONE;;SEM-SA_-1_-1_-1_[0.1-1]_CAMQ_DR_[RGBI,RGBIR];0;53;29.13917984437418;29.54995161789138;387;1000;2210;96
NONE;;SEM-SA_-1_-1_-1_[0.1-1]_CAMQ_DR_[RGBI,RGBIR];0;54;29.13917984437418;29.63049164480115;1233;1000;4440;100
NONE;;SEM-SA_-1_-1_-1_[0.1-1]_CAMQ_DR_[RGBI,RGBIR];0;55;29.13917984437418;29.611312829696487;731;1000;3135;97
NONE;;SEM-SA_-1_-1_-1_[0.1-1]_CAMQ_DR_[RGBI,RGBIR];0;56;29.13917984437418;29.6708274294424;2239;1000;5270;99
NONE;;SEM-SA_-1_-1_-1_[0.1-1]_CAMQ_DR_[RGBI,RGBIR];0;57;29.13917984437418;29.645422654349606;1654;1000;4450;96
NONE;;SEM-SA_-1_-1_-1_[0.1-1]_CAMQ_DR_[RGBI,RGBIR];0;58;29.13917984437418;29.592010946979357;604;1000;2875;100
NONE;;SEM-SA_-1_-1_-1_[0.1-1]_CAMQ_DR_[RGBI,RGBIR];0;59;29.13917984437418;29.69123977271511;3683;1000;6555;97
NONE;;SEM-SA_-1_-1_-1_[0.1-1]_CAMQ_DR_[RGBI,RGBIR];0;60;29.13917984437418;29.57356263497574;853;1000;3440;97
NONE;;SEM-SA_-1_-1_-1_[0.1-1]_CAMQ_DR_[RGBI,RGBIR];0;61;29.13917984437418;29.722328675689752;2332;1000;4655;98
NONE;;SEM-SA_-1_-1_-1_[0.1-1]_CAMQ_DR_[RGBI,RGBIR];0;62;29.13917984437418;29.613715517602937;1975;1000;5135;99
NONE;;SEM-SA_-1_-1_-1_[0.1-1]_CAMQ_DR_[RGBI,RGBIR];0;63;29.13917984437418;29.568452580390417;927;1000;3640;97
NONE;;SEM-SA_-1_-1_-1_[0.1-1]_CAMQ_DR_[RGBI,RGBIR];0;64;29.13917984437418;29.619439622164386;1353;1000;3855;98
NONE;;SEM-SA_-1_-1_-1_[0.1-1]_CAMQ_DR_[RGBI,RGBIR];0;65;29.13917984437418;29.60450543294538;2236;1000;5240;97
NONE;;SEM-SA_-1_-1_-1_[0.1-1]_CAMQ_DR_[RGBI,RGBIR];0;66;29.13917984437418;29.62492160498275;1730;1000;3510;99
NONE;;SEM-SA_-1_-1_-1_[0.1-1]_CAMQ_DR_[RGBI,RGBIR];0;67;29.13917984437418;29.706467449423528;1231;1000;4295;99
NONE;;SEM-SA_-1_-1_-1_[0.1-1]_CAMQ_DR_[RGBI,RGBIR];0;68;29.13917984437418;29.61830217691715;1281;1000;4510;99
NONE;;SEM-SA_-1_-1_-1_[0.1-1]_CAMQ_DR_[RGBI,RGBIR];0;69;29.13917984437418;29.642581976508925;1802;1000;5760;96
NONE;;SEM-SA_-1_-1_-1_[0.1-1]_CAMQ_DR_[RGBI,RGBIR];0;70;29.13917984437418;29.596070831302963;362;1000;2260;99
NONE;;SEM-SA_-1_-1_-1_[0.1-1]_CAMQ_DR_[RGBI,RGBIR];0;71;29.13917984437418;29.59135218545103;933;1000;3650;99
NONE;;SEM-SA_-1_-1_-1_[0.1-1]_CAMQ_DR_[RGBI,RGBIR];0;72;29.13917984437418;29.69931183190779;1284;1000;3820;98
NONE;;SEM-SA_-1_-1_-1_[0.1-1]_CAMQ_DR_[RGBI,RGBIR];0;73;29.13917984437418;29.644268025637324;929;1000;3680;98
NONE;;SEM-SA_-1_-1_-1_[0.1-1]_CAMQ_DR_[RGBI,RGBIR];0;74;29.13917984437418;29.679517457957406;2010;1000;4165;99
NONE;;SEM-SA_-1_-1_-1_[0.1-1]_CAMQ_DR_[RGBI,RGBIR];0;75;29.13917984437418;29.590577777148596;634;1000;2840;97
NONE;;SEM-SA_-1_-1_-1_[0.1-1]_CAMQ_DR_[RGBI,RGBIR];0;76;29.13917984437418;29.588968158774787;282;1000;2035;99
NONE;;SEM-SA_-1_-1_-1_[0.1-1]_CAMQ_DR_[RGBI,RGBIR];0;77;29.13917984437418;29.70550049014262;2994;1000;5070;97
NONE;;SEM-SA_-1_-1_-1_[0.1-1]_CAMQ_DR_[RGBI,RGBIR];0;78;29.13917984437418;29.67139066548951;2148;1000;4655;98
NONE;;SEM-SA_-1_-1_-1_[0.1-1]_CAMQ_DR_[RGBI,RGBIR];0;79;29.13917984437418;29.66060140816097;2556;1000;5520;99
NONE;;SEM-SA_-1_-1_-1_[0.1-1]_CAMQ_DR_[RGBI,RGBIR];0;80;29.13917984437418;29.61609603659577;1746;1000;4890;98
NONE;;SEM-SA_-1_-1_-1_[0.1-1]_CAMQ_DR_[RGBI,RGBIR];0;81;29.13917984437418;29.643981381214278;862;1000;3440;97
NONE;;SEM-SA_-1_-1_-1_[0.1-1]_CAMQ_DR_[RGBI,RGBIR];0;82;29.13917984437418;29.611911799346515;1468;1000;3550;98
NONE;;SEM-SA_-1_-1_-1_[0.1-1]_CAMQ_DR_[RGBI,RGBIR];0;83;29.13917984437418;29.65041466987305;1008;1000;3780;97
NONE;;SEM-SA_-1_-1_-1_[0.1-1]_CAMQ_DR_[RGBI,RGBIR];0;84;29.13917984437418;29.60951733011345;1389;1000;4215;97
NONE;;SEM-SA_-1_-1_-1_[0.1-1]_CAMQ_DR_[RGBI,RGBIR];0;85;29.13917984437418;29.6536339991457;2725;1000;4985;98
NONE;;SEM-SA_-1_-1_-1_[0.1-1]_CAMQ_DR_[RGBI,RGBIR];0;86;29.13917984437418;29.587894739796155;444;1000;2405;98
NONE;;SEM-SA_-1_-1_-1_[0.1-1]_CAMQ_DR_[RGBI,RGBIR];0;87;29.13917984437418;29.601059528459206;433;1000;2410;97
NONE;;SEM-SA_-1_-1_-1_[0.1-1]_CAMQ_DR_[RGBI,RGBIR];0;88;29.13917984437418;29.572184373614526;807;1000;3290;97
NONE;;SEM-SA_-1_-1_-1_[0.1-1]_CAMQ_DR_[RGBI,RGBIR];0;89;29.13917984437418;29.626220125718323;2485;1000;6080;99
NONE;;SEM-SA_-1_-1_-1_[0.1-1]_CAMQ_DR_[RGBI,RGBIR];0;90;29.13917984437418;29.598240463114145;312;1000;2070;96
NONE;;SEM-SA_-1_-1_-1_[0.1-1]_CAMQ_DR_[RGBI,RGBIR];0;91;29.13917984437418;29.64477725688621;3259;1000;6580;96
NONE;;SEM-SA_-1_-1_-1_[0.1-1]_CAMQ_DR_[RGBI,RGBIR];0;92;29.13917984437418;29.625157475023528;1350;1000;3810;98
NONE;;SEM-SA_-1_-1_-1_[0.1-1]_CAMQ_DR_[RGBI,RGBIR];0;93;29.13917984437418;29.65704157570544;1701;1000;3835;98
NONE;;SEM-SA_-1_-1_-1_[0.1-1]_CAMQ_DR_[RGBI,RGBIR];0;94;29.13917984437418;29.60584192321404;885;1000;3490;98
NONE;;SEM-SA_-1_-1_-1_[0.1-1]_CAMQ_DR_[RGBI,RGBIR];0;95;29.13917984437418;29.618613533722037;841;1000;3420;99
NONE;;SEM-SA_-1_-1_-1_[0.1-1]_CAMQ_DR_[RGBI,RGBIR];0;96;29.13917984437418;29.604566193665036;629;1000;2880;97
NONE;;SEM-SA_-1_-1_-1_[0.1-1]_CAMQ_DR_[RGBI,RGBIR];0;97;29.13917984437418;29.617644916803187;4027;1000;7050;97
NONE;;SEM-SA_-1_-1_-1_[0.1-1]_CAMQ_DR_[RGBI,RGBIR];0;98;29.13917984437418;29.69510722903418;3375;1000;6120;96
NONE;;SEM-SA_-1_-1_-1_[0.1-1]_CAMQ_DR_[RGBI,RGBIR];0;99;29.13917984437418;29.69613451663425;1975;1000;4255;97
