0	org.joda.money.BigMoney
1	org.joda.money.BigMoneyProvider
2	org.joda.money.CurrencyUnit
3	org.joda.money.Money
4	org.joda.money.CurrencyMismatchException
5	org.joda.money.Ser
6	org.joda.money.MoneyUtils
7	org.joda.money.IllegalCurrencyException
8	org.joda.money.CurrencyUnitDataProvider
9	org.joda.money.DefaultCurrencyUnitDataProvider
10	org.joda.money.format.AmountPrinterParser
11	org.joda.money.format.MoneyPrinter
12	org.joda.money.format.MoneyParser
13	org.joda.money.format.MoneyAmountStyle
14	org.joda.money.format.MoneyPrintContext
15	org.joda.money.format.MoneyParseContext
16	org.joda.money.format.LiteralPrinterParser
17	org.joda.money.format.MoneyFormatter
18	org.joda.money.format.MoneyFormatterBuilder
19	org.joda.money.format.MoneyFormatException
20	org.joda.money.format.MoneyFormatterBuilder$1
21	org.joda.money.format.MoneyFormatterBuilder$SingletonPrinters
22	org.joda.money.format.MoneyFormatterBuilder$Singletons$1
23	org.joda.money.format.MoneyFormatterBuilder$Singletons
24	org.joda.money.format.MoneyFormatterBuilder$Singletons$2
25	org.joda.money.format.MoneyFormatterBuilder$Singletons$3
