NONE;;SEM-SA_500_-1_-1_[0.1-8/0.15-2]_CAMQ_DR_[RGBI,RGBIR];0;0;2.215651354295422;2.217442451728166;44;400;5;9
NONE;;SEM-SA_500_-1_-1_[0.1-8/0.15-2]_CAMQ_DR_[RGBI,RGBIR];0;1;2.215651354295422;2.2262160811590723;243;257;0;9
NONE;;SEM-SA_500_-1_-1_[0.1-8/0.15-2]_CAMQ_DR_[RGBI,RGBIR];0;2;2.215651354295422;2.2262160811590723;279;221;0;9
NONE;;SEM-SA_500_-1_-1_[0.1-8/0.15-2]_CAMQ_DR_[RGBI,RGBIR];0;3;2.215651354295422;2.2262160811590723;288;212;5;9
NONE;;SEM-SA_500_-1_-1_[0.1-8/0.15-2]_CAMQ_DR_[RGBI,RGBIR];0;4;2.215651354295422;2.2262160811590723;82;400;5;9
NONE;;SEM-SA_500_-1_-1_[0.1-8/0.15-2]_CAMQ_DR_[RGBI,RGBIR];0;5;2.215651354295422;2.2262160811590723;168;332;5;9
NONE;;SEM-SA_500_-1_-1_[0.1-8/0.15-2]_CAMQ_DR_[RGBI,RGBIR];0;6;2.215651354295422;2.2262160811590723;80;400;0;9
NONE;;SEM-SA_500_-1_-1_[0.1-8/0.15-2]_CAMQ_DR_[RGBI,RGBIR];0;7;2.215651354295422;2.2262160811590723;139;361;0;9
NONE;;SEM-SA_500_-1_-1_[0.1-8/0.15-2]_CAMQ_DR_[RGBI,RGBIR];0;8;2.215651354295422;2.2262160811590723;121;379;5;9
NONE;;SEM-SA_500_-1_-1_[0.1-8/0.15-2]_CAMQ_DR_[RGBI,RGBIR];0;9;2.215651354295422;2.2262160811590723;168;332;5;9
NONE;;SEM-SA_500_-1_-1_[0.1-8/0.15-2]_CAMQ_DR_[RGBI,RGBIR];0;10;2.215651354295422;2.2262160811590723;280;220;5;9
NONE;;SEM-SA_500_-1_-1_[0.1-8/0.15-2]_CAMQ_DR_[RGBI,RGBIR];0;11;2.215651354295422;2.2213813844342223;334;327;0;9
NONE;;SEM-SA_500_-1_-1_[0.1-8/0.15-2]_CAMQ_DR_[RGBI,RGBIR];0;12;2.215651354295422;2.2262160811590723;222;278;5;9
NONE;;SEM-SA_500_-1_-1_[0.1-8/0.15-2]_CAMQ_DR_[RGBI,RGBIR];0;13;2.215651354295422;2.22148285576857;258;242;5;9
NONE;;SEM-SA_500_-1_-1_[0.1-8/0.15-2]_CAMQ_DR_[RGBI,RGBIR];0;14;2.215651354295422;2.2262160811590723;202;298;5;9
NONE;;SEM-SA_500_-1_-1_[0.1-8/0.15-2]_CAMQ_DR_[RGBI,RGBIR];0;15;2.215651354295422;2.217442451728166;3;400;0;9
NONE;;SEM-SA_500_-1_-1_[0.1-8/0.15-2]_CAMQ_DR_[RGBI,RGBIR];0;16;2.215651354295422;2.2262160811590723;348;309;5;9
NONE;;SEM-SA_500_-1_-1_[0.1-8/0.15-2]_CAMQ_DR_[RGBI,RGBIR];0;17;2.215651354295422;2.217442451728166;29;400;5;9
NONE;;SEM-SA_500_-1_-1_[0.1-8/0.15-2]_CAMQ_DR_[RGBI,RGBIR];0;18;2.215651354295422;2.2262160811590723;167;333;5;9
NONE;;SEM-SA_500_-1_-1_[0.1-8/0.15-2]_CAMQ_DR_[RGBI,RGBIR];0;19;2.215651354295422;2.2213813844342223;75;400;0;9
NONE;;SEM-SA_500_-1_-1_[0.1-8/0.15-2]_CAMQ_DR_[RGBI,RGBIR];0;20;2.215651354295422;2.2262160811590723;187;313;5;9
NONE;;SEM-SA_500_-1_-1_[0.1-8/0.15-2]_CAMQ_DR_[RGBI,RGBIR];0;21;2.215651354295422;2.2262160811590723;111;389;5;9
NONE;;SEM-SA_500_-1_-1_[0.1-8/0.15-2]_CAMQ_DR_[RGBI,RGBIR];0;22;2.215651354295422;2.22148285576857;479;397;5;9
NONE;;SEM-SA_500_-1_-1_[0.1-8/0.15-2]_CAMQ_DR_[RGBI,RGBIR];0;23;2.215651354295422;2.2262160811590723;417;149;0;9
NONE;;SEM-SA_500_-1_-1_[0.1-8/0.15-2]_CAMQ_DR_[RGBI,RGBIR];0;24;2.215651354295422;2.2262160811590723;240;260;5;9
NONE;;SEM-SA_500_-1_-1_[0.1-8/0.15-2]_CAMQ_DR_[RGBI,RGBIR];0;25;2.215651354295422;2.2262160811590723;223;277;5;9
NONE;;SEM-SA_500_-1_-1_[0.1-8/0.15-2]_CAMQ_DR_[RGBI,RGBIR];0;26;2.215651354295422;2.217442451728166;68;400;5;9
NONE;;SEM-SA_500_-1_-1_[0.1-8/0.15-2]_CAMQ_DR_[RGBI,RGBIR];0;27;2.215651354295422;2.2262160811590723;181;319;0;9
NONE;;SEM-SA_500_-1_-1_[0.1-8/0.15-2]_CAMQ_DR_[RGBI,RGBIR];0;28;2.215651354295422;2.2262160811590723;358;305;0;9
NONE;;SEM-SA_500_-1_-1_[0.1-8/0.15-2]_CAMQ_DR_[RGBI,RGBIR];0;29;2.215651354295422;2.2262160811590723;146;354;5;9
NONE;;SEM-SA_500_-1_-1_[0.1-8/0.15-2]_CAMQ_DR_[RGBI,RGBIR];0;30;2.215651354295422;2.2262160811590723;223;277;5;9
NONE;;SEM-SA_500_-1_-1_[0.1-8/0.15-2]_CAMQ_DR_[RGBI,RGBIR];0;31;2.215651354295422;2.2262160811590723;248;252;0;9
NONE;;SEM-SA_500_-1_-1_[0.1-8/0.15-2]_CAMQ_DR_[RGBI,RGBIR];0;32;2.215651354295422;2.2262160811590723;188;312;0;9
NONE;;SEM-SA_500_-1_-1_[0.1-8/0.15-2]_CAMQ_DR_[RGBI,RGBIR];0;33;2.215651354295422;2.2262160811590723;422;211;5;9
NONE;;SEM-SA_500_-1_-1_[0.1-8/0.15-2]_CAMQ_DR_[RGBI,RGBIR];0;34;2.215651354295422;2.2262160811590723;100;400;5;9
NONE;;SEM-SA_500_-1_-1_[0.1-8/0.15-2]_CAMQ_DR_[RGBI,RGBIR];0;35;2.215651354295422;2.2262160811590723;422;325;5;9
NONE;;SEM-SA_500_-1_-1_[0.1-8/0.15-2]_CAMQ_DR_[RGBI,RGBIR];0;36;2.215651354295422;2.2262160811590723;493;235;5;9
NONE;;SEM-SA_500_-1_-1_[0.1-8/0.15-2]_CAMQ_DR_[RGBI,RGBIR];0;37;2.215651354295422;2.2262160811590723;31;400;0;9
NONE;;SEM-SA_500_-1_-1_[0.1-8/0.15-2]_CAMQ_DR_[RGBI,RGBIR];0;38;2.215651354295422;2.2262160811590723;168;332;5;9
NONE;;SEM-SA_500_-1_-1_[0.1-8/0.15-2]_CAMQ_DR_[RGBI,RGBIR];0;39;2.215651354295422;2.2262160811590723;86;400;5;9
NONE;;SEM-SA_500_-1_-1_[0.1-8/0.15-2]_CAMQ_DR_[RGBI,RGBIR];0;40;2.215651354295422;2.2262160811590723;411;306;5;9
NONE;;SEM-SA_500_-1_-1_[0.1-8/0.15-2]_CAMQ_DR_[RGBI,RGBIR];0;41;2.215651354295422;2.217442451728166;5;400;0;9
NONE;;SEM-SA_500_-1_-1_[0.1-8/0.15-2]_CAMQ_DR_[RGBI,RGBIR];0;42;2.215651354295422;2.217442451728166;6;400;5;9
NONE;;SEM-SA_500_-1_-1_[0.1-8/0.15-2]_CAMQ_DR_[RGBI,RGBIR];0;43;2.215651354295422;2.2262160811590723;294;206;5;9
NONE;;SEM-SA_500_-1_-1_[0.1-8/0.15-2]_CAMQ_DR_[RGBI,RGBIR];0;44;2.215651354295422;2.217442451728166;19;400;0;9
NONE;;SEM-SA_500_-1_-1_[0.1-8/0.15-2]_CAMQ_DR_[RGBI,RGBIR];0;45;2.215651354295422;2.2262160811590723;304;196;5;9
NONE;;SEM-SA_500_-1_-1_[0.1-8/0.15-2]_CAMQ_DR_[RGBI,RGBIR];0;46;2.215651354295422;2.2262160811590723;424;302;5;9
NONE;;SEM-SA_500_-1_-1_[0.1-8/0.15-2]_CAMQ_DR_[RGBI,RGBIR];0;47;2.215651354295422;2.217442451728166;8;400;0;9
NONE;;SEM-SA_500_-1_-1_[0.1-8/0.15-2]_CAMQ_DR_[RGBI,RGBIR];0;48;2.215651354295422;2.2262160811590723;48;400;5;9
NONE;;SEM-SA_500_-1_-1_[0.1-8/0.15-2]_CAMQ_DR_[RGBI,RGBIR];0;49;2.215651354295422;2.2262160811590723;276;224;5;9
NONE;;SEM-SA_500_-1_-1_[0.1-8/0.15-2]_CAMQ_DR_[RGBI,RGBIR];0;50;2.215651354295422;2.2262160811590723;202;298;5;9
NONE;;SEM-SA_500_-1_-1_[0.1-8/0.15-2]_CAMQ_DR_[RGBI,RGBIR];0;51;2.215651354295422;2.2213813844342223;241;259;5;9
NONE;;SEM-SA_500_-1_-1_[0.1-8/0.15-2]_CAMQ_DR_[RGBI,RGBIR];0;52;2.215651354295422;2.2262160811590723;221;279;0;9
NONE;;SEM-SA_500_-1_-1_[0.1-8/0.15-2]_CAMQ_DR_[RGBI,RGBIR];0;53;2.215651354295422;2.2262160811590723;242;258;5;9
NONE;;SEM-SA_500_-1_-1_[0.1-8/0.15-2]_CAMQ_DR_[RGBI,RGBIR];0;54;2.215651354295422;2.2262160811590723;91;400;5;9
NONE;;SEM-SA_500_-1_-1_[0.1-8/0.15-2]_CAMQ_DR_[RGBI,RGBIR];0;55;2.215651354295422;2.2262160811590723;301;199;5;9
NONE;;SEM-SA_500_-1_-1_[0.1-8/0.15-2]_CAMQ_DR_[RGBI,RGBIR];0;56;2.215651354295422;2.2262160811590723;371;177;0;9
NONE;;SEM-SA_500_-1_-1_[0.1-8/0.15-2]_CAMQ_DR_[RGBI,RGBIR];0;57;2.215651354295422;2.217442451728166;1;400;5;9
NONE;;SEM-SA_500_-1_-1_[0.1-8/0.15-2]_CAMQ_DR_[RGBI,RGBIR];0;58;2.215651354295422;2.217442451728166;28;400;5;9
NONE;;SEM-SA_500_-1_-1_[0.1-8/0.15-2]_CAMQ_DR_[RGBI,RGBIR];0;59;2.215651354295422;2.2262160811590723;330;170;0;9
NONE;;SEM-SA_500_-1_-1_[0.1-8/0.15-2]_CAMQ_DR_[RGBI,RGBIR];0;60;2.215651354295422;2.2262160811590723;103;397;0;9
NONE;;SEM-SA_500_-1_-1_[0.1-8/0.15-2]_CAMQ_DR_[RGBI,RGBIR];0;61;2.215651354295422;2.2262160811590723;327;173;5;9
NONE;;SEM-SA_500_-1_-1_[0.1-8/0.15-2]_CAMQ_DR_[RGBI,RGBIR];0;62;2.215651354295422;2.2262160811590723;350;306;5;9
NONE;;SEM-SA_500_-1_-1_[0.1-8/0.15-2]_CAMQ_DR_[RGBI,RGBIR];0;63;2.215651354295422;2.2262160811590723;75;400;0;9
NONE;;SEM-SA_500_-1_-1_[0.1-8/0.15-2]_CAMQ_DR_[RGBI,RGBIR];0;64;2.215651354295422;2.2262160811590723;378;329;0;9
NONE;;SEM-SA_500_-1_-1_[0.1-8/0.15-2]_CAMQ_DR_[RGBI,RGBIR];0;65;2.215651354295422;2.2262160811590723;286;214;5;9
NONE;;SEM-SA_500_-1_-1_[0.1-8/0.15-2]_CAMQ_DR_[RGBI,RGBIR];0;66;2.215651354295422;2.2262160811590723;409;212;5;9
NONE;;SEM-SA_500_-1_-1_[0.1-8/0.15-2]_CAMQ_DR_[RGBI,RGBIR];0;67;2.215651354295422;2.217442451728166;23;400;5;9
NONE;;SEM-SA_500_-1_-1_[0.1-8/0.15-2]_CAMQ_DR_[RGBI,RGBIR];0;68;2.215651354295422;2.2262160811590723;202;298;0;9
NONE;;SEM-SA_500_-1_-1_[0.1-8/0.15-2]_CAMQ_DR_[RGBI,RGBIR];0;69;2.215651354295422;2.2262160811590723;114;386;0;9
NONE;;SEM-SA_500_-1_-1_[0.1-8/0.15-2]_CAMQ_DR_[RGBI,RGBIR];0;70;2.215651354295422;2.2262160811590723;161;339;5;9
NONE;;SEM-SA_500_-1_-1_[0.1-8/0.15-2]_CAMQ_DR_[RGBI,RGBIR];0;71;2.215651354295422;2.2262160811590723;289;211;5;9
NONE;;SEM-SA_500_-1_-1_[0.1-8/0.15-2]_CAMQ_DR_[RGBI,RGBIR];0;72;2.215651354295422;2.217442451728166;10;400;0;9
NONE;;SEM-SA_500_-1_-1_[0.1-8/0.15-2]_CAMQ_DR_[RGBI,RGBIR];0;73;2.215651354295422;2.2262160811590723;148;352;5;9
NONE;;SEM-SA_500_-1_-1_[0.1-8/0.15-2]_CAMQ_DR_[RGBI,RGBIR];0;74;2.215651354295422;2.2262160811590723;105;395;5;9
NONE;;SEM-SA_500_-1_-1_[0.1-8/0.15-2]_CAMQ_DR_[RGBI,RGBIR];0;75;2.215651354295422;2.217442451728166;16;400;5;9
NONE;;SEM-SA_500_-1_-1_[0.1-8/0.15-2]_CAMQ_DR_[RGBI,RGBIR];0;76;2.215651354295422;2.2262160811590723;285;215;0;9
NONE;;SEM-SA_500_-1_-1_[0.1-8/0.15-2]_CAMQ_DR_[RGBI,RGBIR];0;77;2.215651354295422;2.217442451728166;29;400;5;9
NONE;;SEM-SA_500_-1_-1_[0.1-8/0.15-2]_CAMQ_DR_[RGBI,RGBIR];0;78;2.215651354295422;2.2262160811590723;151;349;5;9
NONE;;SEM-SA_500_-1_-1_[0.1-8/0.15-2]_CAMQ_DR_[RGBI,RGBIR];0;79;2.215651354295422;2.2262160811590723;111;389;5;9
NONE;;SEM-SA_500_-1_-1_[0.1-8/0.15-2]_CAMQ_DR_[RGBI,RGBIR];0;80;2.215651354295422;2.217442451728166;14;400;0;9
NONE;;SEM-SA_500_-1_-1_[0.1-8/0.15-2]_CAMQ_DR_[RGBI,RGBIR];0;81;2.215651354295422;2.217442451728166;6;400;5;9
NONE;;SEM-SA_500_-1_-1_[0.1-8/0.15-2]_CAMQ_DR_[RGBI,RGBIR];0;82;2.215651354295422;2.2262160811590723;291;241;5;9
NONE;;SEM-SA_500_-1_-1_[0.1-8/0.15-2]_CAMQ_DR_[RGBI,RGBIR];0;83;2.215651354295422;2.2262160811590723;415;265;5;9
NONE;;SEM-SA_500_-1_-1_[0.1-8/0.15-2]_CAMQ_DR_[RGBI,RGBIR];0;84;2.215651354295422;2.2262160811590723;324;226;0;9
NONE;;SEM-SA_500_-1_-1_[0.1-8/0.15-2]_CAMQ_DR_[RGBI,RGBIR];0;85;2.215651354295422;2.2262160811590723;400;215;5;9
NONE;;SEM-SA_500_-1_-1_[0.1-8/0.15-2]_CAMQ_DR_[RGBI,RGBIR];0;86;2.215651354295422;2.2262160811590723;244;256;5;9
NONE;;SEM-SA_500_-1_-1_[0.1-8/0.15-2]_CAMQ_DR_[RGBI,RGBIR];0;87;2.215651354295422;2.217442451728166;7;400;0;9
NONE;;SEM-SA_500_-1_-1_[0.1-8/0.15-2]_CAMQ_DR_[RGBI,RGBIR];0;88;2.215651354295422;2.2262160811590723;169;331;5;9
NONE;;SEM-SA_500_-1_-1_[0.1-8/0.15-2]_CAMQ_DR_[RGBI,RGBIR];0;89;2.215651354295422;2.2262160811590723;437;304;5;9
NONE;;SEM-SA_500_-1_-1_[0.1-8/0.15-2]_CAMQ_DR_[RGBI,RGBIR];0;90;2.215651354295422;2.2262160811590723;257;243;5;9
NONE;;SEM-SA_500_-1_-1_[0.1-8/0.15-2]_CAMQ_DR_[RGBI,RGBIR];0;91;2.215651354295422;2.22148285576857;165;335;5;9
NONE;;SEM-SA_500_-1_-1_[0.1-8/0.15-2]_CAMQ_DR_[RGBI,RGBIR];0;92;2.215651354295422;2.2213813844342223;372;337;0;9
NONE;;SEM-SA_500_-1_-1_[0.1-8/0.15-2]_CAMQ_DR_[RGBI,RGBIR];0;93;2.215651354295422;2.2262160811590723;403;320;5;9
NONE;;SEM-SA_500_-1_-1_[0.1-8/0.15-2]_CAMQ_DR_[RGBI,RGBIR];0;94;2.215651354295422;2.2262160811590723;76;400;5;9
NONE;;SEM-SA_500_-1_-1_[0.1-8/0.15-2]_CAMQ_DR_[RGBI,RGBIR];0;95;2.215651354295422;2.2262160811590723;76;400;5;9
NONE;;SEM-SA_500_-1_-1_[0.1-8/0.15-2]_CAMQ_DR_[RGBI,RGBIR];0;96;2.215651354295422;2.22148285576857;304;249;0;9
NONE;;SEM-SA_500_-1_-1_[0.1-8/0.15-2]_CAMQ_DR_[RGBI,RGBIR];0;97;2.215651354295422;2.217442451728166;20;400;5;9
NONE;;SEM-SA_500_-1_-1_[0.1-8/0.15-2]_CAMQ_DR_[RGBI,RGBIR];0;98;2.215651354295422;2.2262160811590723;182;318;5;9
NONE;;SEM-SA_500_-1_-1_[0.1-8/0.15-2]_CAMQ_DR_[RGBI,RGBIR];0;99;2.215651354295422;2.217442451728166;22;400;5;9
