"mtunis";2.26683161254773;0.0362991657700467;2.25;2.5
"ispell";2.3311795366248;0.0018761029177859;2.7;2.50454132981017
"nanoxml";3.81606149779675;0.00381924784333701;3;2.56235371595269
"rcs";2.22013965210367;0.0033983342829633;3.45;2.32411599355866
"apache_zip";5.76019319342209;0.0084281202569553;4.15;2.75745087962331
"bison";2.67620139505336;0.0137314975597915;5.2;0.984731927834662
"jscatterplot";10.7406968459342;0.00832196806271456;9.15;1.88762584034318
"grappa";12.7046970613845;0.00224846893711045;13.15;2.62611207804706
"junit";11.0900432333155;0.000165873737804701;9.8;1.21439181269781
"tinytim";12.5121768813085;0.0132312272048326;26.15;2.82976602523526
"gae_plugin_core";17.3267474776433;0.0185845203132813;16.5;2.51259453814803
"incl";13.6002020994203;0.0074666847453165;21.46;2.77587005197551
"jdendogram";26.061398644394;0.00949080235915885;33.5;3.44509606087942
"pdf_renderer";22.3547559183637;0.00863576470141223;36.05;2.77934299336147
"jung_visualization";21.8151278849698;0.0277467596168052;58.5;3.51763235340724
"pfcda_swing";29.029029459047;0.0321873949711317;74.85;4.29087592009093
"jml-1.0b4";17.5044754180817;0.0315708619287751;116.35;4.65230474001214
"notelab-full";29.5523355763132;0.052266648117767;110.25;4.73409084847515
