ALGORITHM;INSTANCE;READ_FILE_VALUE;CALCULATED_VALE;DIFERRENCE_SMALL_THAN_0.0001
ILS;regexp;2.3015873015873023;1.439011372973637;false
ILS;nss_ldap;1.288888888888889;0.8972076576027314;false
ILS;netkit-tftpd;1.4250000000000003;0.9524291497975709;false
ILS;sharutils;2.4408730158730165;1.8525557011795544;false
ILS;xtell;1.3997893997894;1.1831802408654828;false
ILS;netkit-inetd;1.5016611295681064;1.2601067887109076;false
ILS;bootp;2.457550087483675;1.770138384175624;false
ILS;sysklogd-1;1.8621118012422364;1.0628551011620626;false
ILS;telnetd;1.7586552588367474;1.6176799305070884;false
ILS;crond;1.9726399526399532;1.7212103466855029;false
ILS;netkit-ftp;1.7622095799121766;0.7795238756338954;false
ILS;dhcpd-2;3.1408826428111154;2.5567040944326154;false
ILS;cyrus-sasl;3.0124553473791655;2.5167170888954424;false
ILS;tcsh;1.5709728867623607;0.6474045462762699;false
ILS;micq;2.4210505868400625;1.1085488443214047;false
ILS;stunnel;2.7324410482305233;1.9960082891277657;false
ILS;minicom;2.2988694744458846;1.604192372491667;false
ILS;mailx;2.359308308977191;2.2785119937057243;false
ILS;screen;2.135449191169094;1.318541267907976;false
ILS;slang;3.7602955329120826;3.3360952387858975;false
ILS;slrn;2.644404754703533;1.7072131760214264;false
ILS;net-tools;4.112178251386155;3.2533440840525976;false
ILS;wu-ftpd-1;2.6923223006072594;1.4782509550832321;false
ILS;joe;2.4653543452650273;1.8110022034056679;false
ILS;imapd-1;3.499684068333555;3.1697781416547;false
ILS;wu-ftpd-3;3.1771170585422883;1.9679010781359982;false
ILS;dhcpd-1;2.9757634635357184;2.7776508475977075;false
ILS;icecast;2.3197986326419766;2.0094199725056976;false
ILS;php;4.625936676761708;2.915564935152922;false
ILS;elm-2;4.250590861167199;2.4226096351599553;false
ILS;elm-1;3.9057781623643173;2.8740216202296907;false
ILS;gnupg;5.93393404173254;5.347090402508779;false
ILS;inn;7.645581179248699;6.612484445348369;false
ILS;bash;5.097987361212648;4.272438828304872;false
ILS;bitchx;3.293682957247883;2.794511556421756;false
ILS;xntp;8.379156167656147;6.833195365621861;false
ILS;exim;6.110497031483693;5.515255932533489;false
ILS;mod_ssl;8.420951751577954;7.461865531926417;false
ILS;ncurses;11.424054307906275;9.981219190379766;false
ILS;lynx;4.221441348732795;3.632886058733928;false
ILS;nmh;7.787990696425159;7.56263972018858;false
ILS;ping_libc;46.669327598487875;46.206677754441294;false
ILS;krb5;49.62208361688551;46.37521185990458;false
