INSTANCE;SOLUTION;MQ
small;0,1,0,1,2,2;1.833333333333333
compiler;2,2,0,2,0,3,1,3,3,2,3,1,1;1.5064935064935066
jstl;0,0,0,0,1,1,2,2,2,3,3,3,4,4,4;5.0
lab4;0,0,1,1,2,2,3,2,2,3,3,4,4,1,4;3.4000000000000004
nos;0,0,1,1,1,1,2,2,2,2,1,3,3,0,2,1;1.6743321718931474
lslayout;0,2,1,2,2,3,4,5,5,1,3,4,2,2,0,5,5;1.8612956810631227
boxer;0,1,2,1,0,3,0,4,3,2,1,5,6,2,4,6,6,5;3.1010989010989007
mtunis;0,1,0,3,1,3,1,0,2,1,2,2,2,3,3,3,4,4,4,4;2.314461753080679
bunch;0,0,1,1,1,2,2,2,2,3,3,4,4,1,1,5,0,2,1,4,5,5,1;2.406019419177314
ispell;0,2,1,6,6,0,4,5,0,2,4,3,0,2,5,1,3,1,3,3,7,6,7,7;2.363927607919466
nanoxml;0,1,2,4,2,2,4,3,4,5,0,1,1,3,6,7,1,8,8,8,4,5,7,3,6;3.8173270166010638
ciald;0,0,2,2,3,5,0,0,0,0,4,5,6,6,3,3,1,4,7,5,1,5,5,7,7,7;2.851262939958592
jodamoney;0,0,1,0,1,1,0,2,3,3,4,5,6,4,5,7,6,7,8,7,8,5,8,8,8,2;2.7488786149911473
modulizer;0,0,1,2,0,3,1,1,4,1,4,2,4,5,0,0,6,5,5,3,3,0,6,0,6,3;2.757901274926446
jxlsreader;0,0,1,2,3,4,5,5,6,6,2,7,7,8,8,3,0,2,8,9,1,0,2,4,1,1,9;3.602458843838154
rcs;4,0,2,2,3,3,6,2,4,4,2,2,4,5,4,0,4,4,0,1,7,6,6,8,1,7,7,8,5;2.2720482865688343
seemp;0,0,0,0,2,3,3,4,1,2,4,1,4,2,5,6,5,1,7,2,2,7,6,7,7,7,7,6,7,7;4.653588516746412
apache_zip;0,0,0,1,1,1,2,3,2,12,4,4,5,6,6,7,5,8,8,3,9,9,10,10,2,2,7,9,5,11,11,11,11,11,12,12;5.766344439873852
star;4,0,0,0,4,1,2,3,4,1,2,2,2,2,4,2,4,4,5,0,1,0,6,5,5,7,3,8,2,8,8,8,3,3,6,7;3.8320754635495886
bison;0,0,4,1,2,3,0,3,1,5,2,2,6,5,3,7,1,8,2,4,11,0,4,8,9,9,11,9,7,10,6,10,10,6,0,3,4;2.7039006554674847
dot;7,0,3,7,1,3,2,3,9,1,3,5,2,2,6,6,3,7,4,4,4,8,4,7,9,9,1,8,3,10,10,11,0,6,11,1,12,5,13,7,12,13;2.8469779250267884
udt-java;0,0,12,1,2,1,3,4,12,6,4,6,12,2,7,8,1,3,9,10,11,11,5,13,9,10,6,13,14,14,13,15,7,0,13,2,8,3,16,8,5,17,14,18,18,5,19,19,11,16,15,17,14,13,13,14;5.282936857988581
javaocr;0,0,0,2,1,3,4,5,6,7,0,5,7,5,8,9,9,6,10,2,10,10,11,12,13,14,3,12,12,12,11,11,8,4,15,4,1,13,13,13,14,16,14,15,16,16,5,5,5,5,17,18,18,17,7,7,19,19;9.024170570832975
pfcda_base;0,0,1,2,1,7,7,4,4,5,5,6,17,6,5,8,9,2,8,10,9,3,12,8,5,13,13,13,14,11,14,15,14,16,15,16,11,17,18,15,10,19,19,19,10,4,20,18,4,0,1,3,21,20,12,22,21,22,22,3;7.337590227524061
servletapi;0,0,1,16,2,2,3,3,3,3,1,4,5,4,5,6,1,8,9,2,16,7,16,8,7,10,7,9,10,11,11,12,12,12,11,6,8,13,13,14,3,14,18,18,17,17,17,15,17,15,15,19,20,19,19,20,20,20,21,21,21;9.882321163408715
bunch2;0,0,14,14,2,3,0,0,0,0,0,0,0,0,0,0,0,0,0,4,5,4,6,17,1,7,4,8,4,2,8,9,5,5,10,10,6,6,6,6,11,14,9,12,12,7,13,1,1,15,16,15,1,16,16,17,17,17,17,11,17,3,3,13,7;7.725063630326787
forms;0,1,2,3,4,4,5,2,6,5,5,7,8,9,0,4,10,11,10,4,6,12,12,13,14,14,14,9,9,15,16,16,16,2,13,17,17,13,13,18,13,15,11,11,2,3,19,7,7,20,20,20,20,20,20,1,10,11,19,19,21,15,22,22,21,8,8,18;8.325785405671267
jscatterplot;0,1,11,11,2,3,1,1,1,4,1,1,4,4,5,6,4,4,5,8,6,8,0,0,9,10,10,2,7,7,12,12,12,13,13,13,5,13,5,9,9,9,14,15,16,16,17,17,18,18,19,19,19,19,19,14,2,20,20,3,3,21,21,3,22,22,22,3,15,23,23,24,23,24;10.74191620351233
jxlscore;0,0,0,2,6,3,4,5,6,6,5,7,4,5,2,8,3,9,10,9,1,1,26,4,7,26,11,11,10,4,5,12,12,12,12,12,12,21,7,8,14,15,21,16,16,15,17,27,19,19,13,20,21,18,22,20,22,15,23,23,14,13,0,24,24,25,25,17,18,17,8,18,8,8,2,21,7,27,27;9.804994580327422
jfluid;0,0,1,2,3,4,0,11,1,5,6,5,7,8,2,9,9,9,10,10,23,9,8,0,6,4,4,12,11,4,13,13,14,15,16,17,17,7,7,16,7,18,14,15,15,15,15,16,15,19,19,20,19,12,20,20,20,18,8,8,8,21,21,8,15,15,15,15,15,15,16,16,16,15,3,3,22,22,6,23,23;6.579604015082304
grappa;0,1,2,24,0,0,0,3,4,2,2,5,6,7,6,8,9,10,11,11,10,12,13,14,12,15,15,16,16,17,17,5,18,19,20,20,21,18,22,22,24,5,23,16,4,18,11,13,25,25,25,23,9,26,26,27,27,28,28,29,29,12,14,8,8,30,30,11,19,9,9,31,31,3,9,1,4,32,30,32,21,18,15,7,33,33;12.705356775185152
jpassword;0,0,0,0,1,2,2,4,4,5,5,6,6,6,21,21,7,7,7,8,8,8,9,10,11,12,12,13,13,13,8,22,22,22,14,15,16,4,3,17,17,17,4,18,19,18,18,21,1,19,23,23,20,20,20,24,24,9,25,26,16,11,11,27,2,26,28,30,17,30,29,29,28,24,30,21,3,27,3,26,28,28,26,14,14,10,29,15,31,31,32,32,32,10,25,25;10.689952831397548
junit;0,0,0,1,2,1,3,3,4,5,5,6,4,3,3,3,3,3,7,3,3,3,8,9,10,10,7,11,12,12,13,14,13,6,11,15,14,7,16,8,17,17,15,9,16,17,18,18,19,19,19,20,21,22,22,23,23,23,24,24,24,25,26,26,26,27,27,22,21,21,21,21,21,21,1,28,28,28,25,21,21,21,21,21,21,21,21,20,20,20,20,20,20,20,20,27,27,6,2;11.090088512935608
bunch_2;0,1,2,2,29,3,4,5,3,6,7,7,8,7,10,9,7,11,12,13,14,7,0,15,0,16,16,17,17,6,11,14,14,4,9,18,35,19,20,21,22,26,15,23,1,24,15,11,13,25,13,15,15,5,17,5,14,5,1,11,27,27,1,21,24,28,20,21,24,27,29,12,23,30,23,20,31,31,32,33,33,8,34,8,10,34,34,35,35,25,25,36,36,30,28,22,22,19,18,37,37,29,38,38,11,26,32,38,6,6,19,9,9,38,12,38;13.620386063884519
xmldom;0,5,0,2,3,3,4,4,5,6,7,5,5,5,8,6,5,5,2,9,9,10,10,11,11,9,12,12,10,13,14,13,13,13,2,15,9,14,16,16,7,10,0,17,1,1,18,18,18,19,19,1,20,20,20,20,20,20,20,20,20,21,21,22,20,20,20,8,21,20,20,20,20,20,20,20,20,20,21,21,21,21,20,20,22,20,20,20,21,20,20,21,20,20,20,20,20,22,20,23,20,20,23,23,22,21,20,20,24,24,24,16,15,25,25,25,25,17;10.91971154733303
cia++;2,1,2,1,3,28,28,3,3,5,6,6,1,7,7,8,8,9,9,10,10,17,17,12,12,4,4,1,13,13,14,14,15,15,24,24,28,16,16,11,11,18,18,19,19,20,20,28,21,21,7,22,22,23,23,0,0,25,25,26,26,27,27,28,28,29,29,30,30,31,31,3,22,22,32,32,33,33,2,34,34,34,34,34,34,34,34,34,34,34,34,34,34,34,34,34,34,26,12,8,35,8,36,28,37,38,39,40,37,4,4,35,35,24,24,39,40,36,38,26,5,39,26,5;15.464245369682441
tinytim;0,0,0,1,2,3,27,4,5,6,5,20,5,7,8,9,6,9,27,17,27,11,12,12,12,9,9,12,12,12,9,12,9,12,13,15,2,2,2,14,22,16,15,19,16,1,17,17,14,7,16,6,18,19,20,21,22,3,3,27,11,11,11,4,13,23,24,10,10,10,10,10,10,24,24,24,24,24,23,8,23,23,9,23,8,23,22,18,25,25,25,26,26,26,16,20,25,28,28,29,30,31,32,32,28,31,29,30,33,33,31,28,34,34,35,35,28,30,28,22,36,36,21,37,38,38,37,39,39;12.544430434785344
jkaryoscope;0,1,2,3,3,4,5,5,5,5,6,6,7,7,7,8,8,9,8,8,8,8,10,9,11,11,12,11,11,13,14,14,14,15,17,16,14,14,17,18,16,18,19,19,19,20,20,20,20,20,21,21,21,10,22,22,4,2,2,23,23,24,24,24,25,25,25,17,25,17,26,27,26,28,28,29,28,30,30,28,29,29,12,12,12,12,15,31,31,31,12,1,32,32,32,32,32,2,2,33,33,33,0,1,4,34,4,35,36,36,35,35,35,34,34,37,37,38,37,37,38,39,39,39,39,40,40,41,41,41,42,42,42,13,13,27;18.98708914075383
gae_plugin_core;0,0,2,1,29,3,4,4,5,5,6,6,7,8,5,9,9,10,11,11,12,12,13,13,13,13,14,14,14,14,15,16,13,12,17,17,18,18,19,20,19,8,20,15,15,21,21,21,22,22,22,0,0,23,24,25,25,25,26,26,26,27,27,29,2,29,29,28,30,30,15,16,16,16,7,7,7,31,31,31,32,32,32,32,4,4,33,4,4,4,34,4,4,1,4,4,4,4,4,4,4,4,4,4,4,4,16,34,34,34,34,33,33,33,33,33,33,33,33,10,10,10,10,35,35,28,2,2,2,3,28,28,24,24,36,36,37,37,23;17.318828005064304
javacc;42,42,0,0,1,1,3,3,5,3,8,3,3,5,2,2,2,2,5,6,4,10,9,8,9,7,8,8,4,19,12,13,14,15,15,16,17,13,18,5,18,18,19,11,20,21,21,16,11,23,23,24,25,26,27,28,29,27,27,25,25,25,25,25,26,26,26,29,29,26,22,27,26,26,30,31,30,30,31,23,24,29,22,30,31,26,26,26,26,26,26,26,26,26,26,26,26,26,26,26,26,26,26,32,28,32,32,33,34,24,34,33,35,35,35,24,35,36,38,18,37,38,39,20,39,20,40,41,41,19,6,41,38,17,17,13,10,10,10,8,40,11,7,36,36,36,7,14,8,12,9,8,37;10.717676251959531
lucent;0,1,2,2,2,2,2,3,3,3,4,4,0,0,1,1,1,2,5,5,6,6,7,7,8,8,9,9,10,10,11,11,12,12,13,13,14,14,15,15,16,16,17,17,18,18,19,19,20,20,21,21,22,22,23,23,24,24,25,25,26,26,26,27,27,27,28,28,28,28,28,29,29,29,30,30,31,31,32,32,33,33,34,34,35,35,36,36,37,37,38,38,39,39,39,40,40,41,41,41,41,42,42,42,43,43,44,44,45,45,46,46,46,20,47,47,48,48,49,49,11,14,14,50,50,51,51,52,52,53,53,54,54,55,55,56,56,57,57,58,58,59,59,60,60,61,61,21,21,21,57,57,12;59.93766233766234
javageom;1,1,1,2,0,3,1,2,1,0,0,4,4,2,3,5,5,3,6,2,6,6,6,7,8,13,10,11,7,11,8,8,12,10,16,7,14,15,13,16,15,18,14,14,16,20,15,15,21,22,23,24,24,24,23,24,22,25,23,26,26,27,28,28,31,25,31,30,28,31,9,19,30,19,28,19,32,14,28,30,9,35,35,24,9,32,34,22,25,38,18,34,29,29,36,33,37,36,37,33,29,17,13,33,11,36,38,39,38,39,20,31,20,40,40,12,27,32,17,27,27,12,17,7,41,21,26,26,15,42,42,23,10,20,13,43,43,43,43,44,24,44,24,45,46,46,45,32,41,19,47,47,47,49,48,49,49,48,50,50,50,51,50,51,52,52,52,53,53,54,54;14.106269152567679
incl;0,0,1,1,2,3,4,20,5,6,7,7,8,8,9,6,8,3,10,10,11,6,12,6,9,9,9,6,6,9,13,13,14,13,15,15,15,15,16,16,17,18,18,18,17,19,18,20,34,21,21,21,21,21,21,21,21,21,21,21,21,21,21,21,21,21,21,21,21,22,23,24,25,22,5,26,5,26,27,27,27,27,25,28,28,29,29,29,29,5,11,11,11,30,30,23,23,12,12,31,31,31,12,12,12,12,31,31,12,12,24,2,17,32,32,32,4,32,4,3,33,33,34,34,5,9,6,6,6,9,6,9,6,9,9,6,9,6,8,6,6,9,9,6,9,6,9,6,8,8,9,6,9,6,9,6,9,9,9,6,9,6,9,9,8,8,31,31,19,35,35,36,36,14;13.614611612671256
jdendogram;0,4,2,2,3,3,4,5,6,5,7,7,8,7,9,9,10,11,12,12,8,12,1,14,15,15,16,3,6,17,0,3,18,14,19,19,20,20,20,21,21,21,22,22,21,11,10,11,24,24,25,25,26,26,27,27,27,28,28,16,28,16,28,16,29,29,29,30,30,30,17,17,17,17,17,17,31,4,32,33,17,6,34,35,35,36,36,17,10,37,10,4,5,4,18,17,33,38,38,39,39,40,41,39,40,40,42,42,40,41,41,1,43,44,45,45,45,45,46,46,47,47,48,49,49,50,48,51,48,51,44,44,50,50,50,34,34,34,23,23,52,52,13,13,2,53,10,0,54,54,8,44,55,55,32,32,56,56,56,16,57,57,32,58,58,58,59,59,59,59,37,36,31,31,31,43,53;26.084332261536485
xmlapi;0,1,0,0,2,3,4,5,6,5,5,6,7,2,4,9,8,7,7,9,10,4,7,11,11,1,13,13,14,14,15,15,16,16,17,15,17,15,21,21,19,19,20,20,17,10,17,8,13,22,22,23,24,24,25,25,26,1,1,1,27,26,1,1,23,28,28,29,29,30,30,28,31,31,29,32,33,32,32,32,23,34,28,33,35,35,3,29,22,36,12,12,37,37,37,18,18,12,38,38,38,38,38,38,38,38,38,39,39,40,38,38,38,27,39,38,38,38,38,38,38,38,38,38,39,39,39,39,38,38,40,38,38,38,39,38,38,39,38,38,38,38,38,40,38,41,38,38,41,41,40,39,38,38,42,42,42,35,34,43,43,43,43,36,44,45,46,2,4,46,45,44,47,47,45,9,48,48,8,49,49,48;19.087923903921364
jmetal;35,1,35,1,1,3,2,5,23,4,5,2,6,7,8,8,57,2,10,10,2,61,12,13,13,14,15,16,2,27,27,27,27,18,18,23,20,19,20,21,3,22,20,23,4,18,18,3,24,25,25,26,26,5,25,28,28,19,19,24,29,3,24,30,31,6,32,32,31,33,33,33,31,34,7,34,56,28,21,3,36,36,36,5,41,38,39,41,41,37,41,35,38,38,38,43,42,43,42,9,39,9,44,37,45,45,44,46,46,16,47,47,47,0,0,29,29,48,48,49,49,9,40,51,51,52,40,53,11,61,14,14,16,7,7,7,52,52,54,54,8,15,33,12,12,12,30,68,1,35,56,57,58,57,58,59,59,60,58,58,60,50,50,53,22,22,11,55,55,21,62,63,63,62,17,17,64,64,65,66,65,66,67,67,67,34,23,68,68,21;12.525713069042379
dom4j;0,14,1,2,9,14,9,4,5,6,31,8,1,1,9,7,10,11,12,13,13,15,16,17,18,19,20,21,22,24,3,3,25,26,27,27,61,28,2,8,29,8,30,17,30,23,30,23,32,33,34,34,33,34,16,33,0,36,35,36,36,5,6,37,37,15,6,37,29,37,35,35,38,39,39,14,40,40,41,41,32,10,42,42,50,27,44,44,45,38,27,46,40,40,40,40,47,47,38,38,43,43,43,25,42,10,48,48,48,45,26,49,49,50,50,50,51,52,53,53,52,52,51,54,54,54,54,55,55,55,54,56,57,57,57,56,58,58,58,57,13,59,59,60,59,60,11,11,11,61,61,61,62,62,4,9,8,46,28,28,62,46,63,63,63,64,63,64,65,65,66,66,17,18,19,21,22,20,67,67,67,67,68,68,31,69,69,7,70,70,70,3,2,12,24;19.19577183872326
pdf_renderer;0,1,2,3,4,2,2,2,5,3,6,7,8,8,13,13,8,10,11,10,12,12,9,9,4,14,15,16,14,6,5,5,6,3,3,1,0,0,6,1,17,4,18,15,11,19,20,20,21,22,9,22,22,14,20,7,24,24,25,25,40,40,26,25,26,25,27,28,25,25,29,29,30,31,30,28,24,32,32,31,27,24,31,18,33,34,33,34,34,35,36,36,36,37,37,33,38,38,35,18,33,18,17,19,11,11,0,11,39,11,14,23,23,21,21,21,41,21,41,42,42,42,43,43,43,43,44,44,44,44,44,44,44,44,44,39,39,44,44,44,44,44,44,44,44,44,45,45,44,44,45,44,44,44,44,44,44,44,44,44,44,44,44,44,44,44,44,44,44,44,44,44,9,46,46,16,47,47,48,48,16,9,16,49,49,50,50,50,51,51,51,51,50,50,50,50,50,52,52;22.357323645132656
jung_graph_model;0,1,4,1,0,34,34,5,6,5,39,7,34,7,8,9,9,10,39,8,11,11,11,12,12,13,14,1,14,15,15,16,16,13,17,18,17,19,20,20,19,4,21,22,22,23,23,23,23,24,24,25,26,28,26,27,27,26,27,26,28,28,5,28,5,28,24,29,29,30,30,18,31,32,31,33,33,41,35,41,33,36,36,37,38,38,38,36,51,51,40,40,2,10,40,18,2,42,10,43,43,43,43,44,44,45,45,48,46,48,48,47,47,6,49,49,60,50,50,52,52,53,54,55,55,55,68,56,68,57,57,57,58,59,59,60,61,61,61,60,58,62,63,64,50,53,56,56,68,49,54,65,65,66,48,66,1,1,6,67,67,69,69,67,62,62,32,32,32,32,70,62,67,71,46,72,72,72,73,74,74,35,73,73,69,64,63,71,71,71,75,75,3,4,37,37,3,18,21,30,70,70,76,76,25,42,42;32.02015198760708
jung_visualization;0,1,0,1,2,3,4,5,6,4,7,3,8,8,9,9,8,8,8,10,11,12,13,14,15,16,17,18,19,20,20,20,20,4,20,3,3,22,36,5,24,70,24,24,24,26,26,27,26,26,51,42,28,29,23,31,32,33,33,34,25,33,28,24,35,35,35,35,22,71,35,37,37,38,39,40,23,23,41,38,39,59,41,41,6,22,7,7,43,43,15,10,10,10,10,18,2,12,44,44,45,45,45,40,46,46,46,46,9,46,2,47,47,47,27,47,47,19,5,13,48,48,49,50,49,14,16,17,11,50,51,51,19,2,52,52,52,41,53,41,59,41,53,53,41,52,71,33,37,54,54,54,25,7,55,55,56,56,32,57,57,5,31,31,1,58,60,60,29,30,42,61,62,63,58,64,64,63,63,63,64,70,60,27,61,30,62,65,65,42,66,66,67,67,67,68,21,68,36,69,34,21,70,69,21,69,1,1;21.859560323193044
jconsole;0,0,1,0,0,2,2,3,4,3,5,5,5,5,5,6,7,7,8,9,7,10,11,7,12,13,14,11,16,17,18,19,19,20,21,20,19,19,21,21,21,19,22,22,22,22,23,12,2,24,1,25,25,26,26,1,20,24,23,1,27,28,28,28,28,29,29,73,31,29,29,32,33,34,30,35,35,36,36,36,36,17,37,37,13,37,27,27,14,38,38,18,18,39,40,40,40,41,41,11,39,10,10,42,34,42,42,8,43,44,44,45,44,44,44,45,46,46,46,46,16,47,6,47,48,48,6,49,49,50,49,50,51,6,51,4,9,40,9,52,52,9,23,9,9,9,9,16,53,54,54,54,55,56,55,31,31,31,53,33,57,58,59,15,56,56,56,61,61,62,56,63,63,63,64,65,66,66,66,66,65,67,67,68,68,68,69,69,70,71,70,72,59,58,58,72,58,59,59,62,15,15,60,60,32,57,32,71,32,32,70,64,73,73,74,74,70,30,43,43;26.519521602092922
pfcda_swing;0,0,1,2,0,4,3,4,5,6,4,7,7,8,1,9,10,10,11,11,11,12,13,14,15,16,17,83,19,19,17,15,12,20,17,14,21,14,22,23,22,13,24,25,26,24,26,27,28,29,30,27,25,23,31,32,28,32,33,33,34,34,34,35,36,36,36,37,37,38,39,38,39,40,8,40,8,8,8,8,39,42,34,43,44,44,40,45,46,45,46,46,46,47,48,49,47,46,44,50,50,51,51,52,52,53,53,54,26,55,56,56,57,57,58,59,49,59,60,60,61,61,62,62,63,63,37,64,65,65,68,66,67,68,59,59,59,69,48,48,70,64,20,71,71,58,20,71,58,72,72,70,58,73,73,73,68,69,74,74,75,75,76,75,41,76,41,2,1,1,1,1,1,1,1,78,9,79,5,80,15,80,80,80,19,81,82,82,82,83,83,83,84,84,19,19,30,29,31,30,67,66,67,85,85,35,43,86,86,78,87,87,81,81,16,21,21,18,77,88,79,31,89,77,77,89,6,90,89,88,55,91,91,42,91,90,90,18,18,3,54,54,16,3,3,3,3,3;29.06863515764127
jml-1.0b4;0,0,12,2,3,4,1,5,5,6,4,7,8,7,9,10,11,12,13,14,14,15,16,17,18,19,20,10,21,22,23,24,25,39,27,28,29,30,28,67,32,33,34,18,18,20,35,36,36,23,67,10,23,22,20,19,21,39,39,37,38,39,40,41,41,42,13,18,43,44,45,45,46,46,47,48,45,49,50,51,52,53,5,54,55,48,56,57,57,58,58,58,59,60,55,61,62,61,63,63,64,64,54,29,42,30,54,54,60,32,64,53,27,64,64,8,8,8,30,65,47,66,66,36,33,67,38,36,68,68,34,31,69,70,67,71,71,72,73,73,71,31,31,74,69,71,72,75,76,75,70,70,77,76,78,62,76,24,24,24,2,62,62,78,25,25,21,25,61,62,79,11,77,77,78,35,48,48,80,80,48,80,40,14,15,49,81,82,29,16,16,32,32,55,83,40,51,3,59,3,84,85,40,83,7,6,55,55,7,74,44,44,74,12,12,40,37,83,7,40,40,9,40,9,40,40,86,65,87,40,84,88,52,26,59,86,86,85,81,87,26,26,82,89,89,89,89,89,90,90,91,91,91,15,50,38,17,17,27,65,56,88,56,88,79,43,43;17.550110669409147
jpassword2;0,0,0,0,12,3,2,2,3,4,4,5,5,6,7,6,9,11,9,10,29,12,11,13,14,14,14,16,20,18,17,18,3,19,19,21,21,21,16,20,22,20,23,12,24,5,3,25,26,26,5,25,27,28,29,30,31,32,32,1,32,10,35,36,37,36,38,38,25,39,40,29,33,4,41,31,30,30,42,43,44,26,91,31,45,27,46,3,47,48,47,7,7,49,50,47,49,50,51,47,72,52,39,53,46,52,32,54,55,34,33,34,34,8,56,56,56,58,58,58,42,42,42,42,59,45,60,29,28,43,61,61,60,90,62,63,62,62,64,65,18,66,66,67,4,63,63,68,61,68,41,44,37,37,71,69,35,40,40,72,70,69,69,40,71,71,15,15,73,73,74,73,13,55,19,21,10,1,75,33,1,13,74,76,76,76,28,64,64,77,77,77,8,8,75,22,75,75,22,54,54,74,78,78,74,79,79,79,53,79,79,79,80,80,80,59,46,51,51,70,70,70,45,81,48,81,48,48,67,67,65,65,82,83,82,82,90,83,84,84,85,85,85,86,86,17,87,57,24,88,88,57,89,91,89,90,26,86,91,66,91,57,89,89,23,23,43,87,87;28.577323746255058
notelab-full;0,0,0,1,1,2,3,4,3,5,6,6,7,8,8,8,9,8,4,10,11,12,13,13,14,15,15,16,17,15,18,19,19,19,19,20,20,64,13,21,22,22,22,22,23,24,21,24,23,66,79,79,21,23,24,25,26,25,27,17,28,28,28,28,29,29,31,30,31,31,43,30,30,31,32,27,27,27,43,32,33,7,33,33,33,34,11,34,34,35,35,41,36,37,37,37,38,39,38,40,40,38,41,5,40,41,16,16,39,39,42,42,42,45,45,44,45,46,10,47,48,49,11,82,51,52,50,51,85,70,54,54,53,55,52,56,38,57,57,58,59,60,57,61,61,50,2,59,62,63,61,58,61,59,56,58,62,62,62,62,62,26,63,64,64,65,60,66,60,66,47,50,67,67,68,69,49,49,48,70,71,72,70,18,18,9,45,73,45,74,74,75,73,75,73,76,36,36,77,77,77,78,78,78,46,72,50,82,80,54,80,46,80,82,46,88,76,83,83,12,83,83,84,84,84,12,85,86,81,87,85,3,88,44,81,81,89,89,14,65,69,87,55,55,90,99,91,86,86,88,86,88,87,53,99,90,87,92,92,65,93,94,94,94,95,94,94,94,75,96,94,94,63,93,96,95,68,71,80,97,98,97,98,98,72,71,54,48,48,99,91,91,99;29.613134422770784
poormans cms;25,25,1,2,2,3,4,22,6,7,8,9,0,0,10,9,11,12,4,4,11,11,6,13,14,15,15,15,16,16,17,17,17,17,18,19,14,19,20,21,21,22,23,24,25,26,27,28,29,30,31,27,1,32,33,34,34,28,37,35,37,39,36,37,38,36,37,39,36,39,40,5,40,40,33,41,30,42,42,43,44,45,44,42,46,45,47,47,47,8,48,49,49,49,48,48,24,51,52,35,53,54,54,26,26,52,55,56,57,51,51,51,51,51,57,51,58,58,58,58,51,51,51,59,53,24,24,13,60,54,61,62,1,59,35,35,63,63,63,64,10,65,29,28,66,66,66,66,67,67,66,66,61,64,68,69,70,71,72,60,60,64,13,65,73,73,74,46,75,75,75,76,76,50,50,56,78,76,78,50,79,79,78,80,80,43,80,80,80,27,53,81,18,82,82,81,74,74,83,74,83,84,85,84,86,86,87,87,88,89,88,89,86,77,90,77,90,22,27,91,91,91,91,7,2,41,23,12,12,23,92,8,5,92,12,5,62,93,94,94,93,94,94,38,38,38,95,95,73,32,32,73,96,97,97,20,20,20,20,73,98,52,52,84,84,31,85,73,73,24,85,99,99,96,98,100,100,55,55,101,101,101,98,100,3,101,102,102,68,69,103,104,104,103,70,102,102,72,105,71,105;34.23548188669262
log4j;0,1,2,0,3,4,5,6,0,7,6,8,9,10,8,8,11,11,12,13,14,15,9,9,17,10,10,14,14,18,19,18,19,20,20,21,22,23,23,24,26,26,27,24,28,21,29,3,30,31,22,31,32,17,17,33,33,34,34,35,16,28,33,36,36,37,37,38,39,38,41,38,38,40,18,29,6,42,43,44,44,45,44,45,45,45,45,45,46,47,47,48,48,49,49,46,46,50,50,51,51,6,41,52,43,43,43,43,54,53,9,26,54,54,54,26,26,26,26,29,55,15,56,57,57,5,5,5,56,58,59,39,58,60,61,62,61,63,64,64,58,65,66,66,67,68,65,69,69,70,71,71,71,59,63,72,63,70,72,72,72,59,59,59,59,62,73,74,59,59,59,59,59,59,59,70,64,73,73,75,72,59,63,62,59,70,70,70,70,59,60,59,72,76,77,68,67,77,77,77,76,62,76,75,78,74,75,79,79,25,80,25,81,81,81,80,78,80,78,80,80,25,82,82,4,10,83,84,84,84,85,85,86,86,86,52,52,16,55,87,87,42,31,32,32,32,88,27,27,89,90,90,91,91,91,92,92,12,12,92,6,12,3,90,88,12,88,93,93,93,93,94,94,89,53,95,95,88,88,61,35,7,96,96,1,97,97,0,97,28,1,4,39,13,1,98,98,98,83,83,83,40,7,7,30;32.4934207288782
jtreeview;0,0,1,1,1,1,2,2,2,3,3,3,3,4,4,5,14,5,7,7,7,7,7,8,9,9,9,10,9,11,11,11,12,12,13,37,15,15,15,16,16,17,18,18,19,20,16,21,21,14,19,22,22,23,23,22,22,24,24,22,25,25,25,26,26,27,27,28,29,29,30,31,27,27,27,32,32,32,32,31,31,34,35,35,35,6,10,37,38,39,40,40,41,8,33,42,33,43,44,44,45,45,45,46,46,46,46,47,47,48,48,49,49,23,50,50,50,50,51,51,51,51,52,53,53,54,55,55,56,56,57,52,58,58,59,60,60,30,37,61,62,62,62,62,62,30,63,10,10,64,52,52,54,54,17,20,10,65,65,65,66,66,67,6,68,6,68,69,69,70,68,68,68,30,71,72,17,19,73,73,74,75,75,75,76,76,77,77,77,53,78,77,78,13,72,72,79,79,79,80,80,80,81,81,81,71,81,82,83,83,84,84,81,82,28,28,28,28,28,85,57,57,0,39,86,86,87,87,87,87,88,34,67,67,89,89,89,90,89,89,89,90,64,54,91,91,92,92,88,93,93,93,93,93,59,63,74,74,29,34,30,94,94,95,38,20,96,96,96,96,96,73,97,97,98,99,98,98,100,100,99,101,38,102,102,85,85,85,85,85,101,70,95,95,41,39,95,41,95,103,104,104,104,105,105,105,61,61,103,61,36,36,33,43,42,33,42,33,42,43;48.133078618574885
bunchall;0,1,0,0,2,0,8,22,4,22,22,22,7,12,3,12,7,5,5,10,7,11,7,7,12,13,14,19,12,14,15,15,15,15,15,15,15,15,16,9,1,17,15,18,13,19,15,15,15,15,15,15,13,19,1,20,21,24,4,20,47,37,25,26,27,28,29,30,33,25,31,59,27,33,23,34,35,27,30,28,24,24,64,36,37,28,26,38,74,48,59,37,36,64,24,39,39,40,24,41,42,43,44,44,45,46,21,21,47,51,21,23,34,76,49,48,2,50,6,21,52,41,12,38,42,42,42,42,42,42,42,42,42,42,42,42,42,42,42,42,42,42,53,3,3,3,3,8,3,8,3,8,3,3,42,42,8,42,42,42,42,8,42,3,45,54,55,53,42,56,57,38,42,52,58,77,18,60,63,42,56,61,62,61,63,42,58,36,32,6,64,64,41,14,57,43,43,26,46,1,65,17,65,66,67,68,67,50,67,68,69,68,67,70,70,69,70,69,70,25,16,16,16,16,16,46,10,52,52,68,45,45,69,6,54,54,29,10,71,72,72,73,73,51,56,56,56,56,56,22,11,56,56,56,52,59,32,32,40,57,19,74,75,74,31,75,75,48,35,76,76,77,77,13,8,62,60,60,61,61,61,61,61,61,61,61,61,60,63,60,17,60,60,60,60,60,58,49,55,35,8,5,9,9,9,71,17,17,73,33,33,66,66,66,40,73,47,47,50,32,32,73,23,23;16.941461616595777
jace;0,0,1,1,1,10,2,3,4,5,6,7,8,8,9,15,7,11,11,11,11,11,7,12,13,13,14,3,15,16,15,17,18,19,20,21,22,23,24,24,25,26,26,9,27,28,9,28,27,27,27,27,27,27,27,27,27,27,27,27,27,27,27,12,27,9,27,27,12,27,12,27,27,27,27,27,27,27,12,27,27,9,27,27,27,27,27,27,27,27,9,12,27,27,12,28,27,27,27,9,27,27,12,28,27,12,12,12,27,9,12,12,27,28,9,27,27,27,28,27,9,9,26,26,26,26,26,26,28,28,26,28,26,28,28,26,28,9,29,29,30,30,20,20,31,32,31,6,33,33,33,34,19,14,35,14,14,14,35,11,11,14,35,14,14,2,35,35,2,14,14,32,32,36,36,36,37,37,38,38,38,38,38,38,38,38,38,38,38,38,38,38,38,38,39,39,40,40,39,18,41,41,41,41,41,11,5,5,16,42,42,16,43,44,22,5,43,45,45,45,45,45,46,46,47,48,48,47,47,21,21,6,49,25,25,25,25,34,49,44,2,50,50,51,52,53,52,54,52,55,55,55,17,17,17,56,56,56,51,31,18,18,18,18,57,57,57,58,58,23,59,23,60,60,59,61,62,62,63,64,63,61,64,64,61,65,65,65,65,66,66,66,54,67,54,66,53,53,67,68,68,68,67,69,69,70,70,70,70,70,70,70,70,70,70,70,70,70,70,70,70,71,71,71,71,4,4,4,4,4,4,4,4,4,4,4,4,10;26.840269990184968
javaws;0,1,0,1,3,3,2,4,5,5,6,6,25,8,9,10,11,12,13,14,15,16,17,17,17,18,18,18,8,19,20,21,22,23,4,24,25,26,60,10,13,26,27,28,26,29,29,26,26,22,9,21,21,7,30,2,2,31,32,31,33,16,32,34,34,32,35,32,32,19,21,21,21,36,37,38,7,39,40,41,42,43,44,45,46,47,12,3,48,49,50,50,21,21,19,51,52,53,54,54,55,55,56,56,56,1,49,49,57,57,57,57,43,57,57,22,20,57,28,37,58,58,13,59,60,61,62,36,36,60,62,38,23,10,61,2,63,2,63,63,64,65,15,65,65,64,66,66,13,15,15,23,15,10,15,15,13,24,9,9,9,9,9,67,67,11,48,9,38,9,14,59,58,68,68,69,69,27,27,27,70,70,27,71,72,28,28,73,73,39,74,41,75,75,76,76,77,78,79,78,80,77,80,80,81,81,81,81,81,81,81,81,81,81,81,81,81,82,79,79,79,79,79,79,79,79,79,12,83,83,82,79,0,84,84,85,85,79,79,86,86,86,86,79,79,79,79,79,78,79,51,51,87,51,88,88,87,51,40,16,46,42,52,89,89,35,35,90,90,90,91,35,91,44,44,44,71,92,92,92,53,93,94,95,94,95,95,96,96,72,96,96,96,72,69,96,69,69,6,71,97,97,98,97,99,99,45,45,45,71,98,98,100,100,98,98,101,101,101,102,103,93,104,103,93,105,105,99,99,104,106,106,106,106,106,106,106,106,71,68,33,33,33,33,53,99,107,30,47,47,47,108,108,47,109,109,33,53,54,102,39,102,102,102,102,102,102,102,102,74,74,110,110,30,30,107,95;38.32099891097276
swing;0,1,2,3,4,5,6,40,7,8,9,8,11,10,11,12,13,14,15,16,17,17,18,18,19,20,19,21,21,47,47,152,22,13,23,23,24,24,12,25,26,27,28,29,29,30,31,32,29,33,34,31,32,36,36,36,37,37,5,129,39,38,40,5,41,42,4,43,44,44,45,46,46,46,99,48,46,49,50,51,52,53,92,54,55,56,57,54,58,58,59,57,60,61,62,63,64,65,60,66,67,127,127,55,50,68,55,57,69,70,71,99,72,73,73,73,74,73,75,73,1,33,76,77,78,79,2,31,52,53,80,81,81,82,82,83,84,84,76,85,86,86,87,36,88,26,90,91,92,93,94,95,96,96,97,98,98,98,58,100,101,102,103,103,103,104,103,105,106,107,107,83,16,83,63,67,108,84,109,109,27,110,111,111,112,115,113,115,115,113,116,117,118,119,120,120,121,41,10,122,122,122,123,7,124,41,51,125,126,14,14,99,22,126,39,8,129,35,130,35,131,132,133,132,133,133,133,134,134,134,134,90,3,4,135,3,9,128,136,16,137,137,43,148,126,135,139,140,140,75,74,68,11,141,129,129,105,142,142,18,64,114,114,143,143,143,144,144,133,145,130,146,146,61,147,61,119,138,145,148,138,122,149,149,149,141,147,51,150,139,128,139,136,150,21,65,0,131,6,45,151,151,148,78,68,23,62,62,50,78,78,50,78,30,65,116,93,30,152,153,153,123,154,154,156,155,155,156,89,37,37,49,42,157,157,125,60,158,158,70,156,159,159,86,89,89,92,96,160,160,101,64,88,124,111,117,34,28,38,48,56,59,66,69,71,72,1,77,79,80,81,85,87,91,94,95,97,100,102,104,106,108,110,112,118,120,123,130,161,161,133,144,162,162,165,163,164,163,165,164,165,90,121,152,19,131,32,166,166,25,28,20,15;45.17121660923237
lwjgl-2.8.4;0,1,2,3,4,4,5,2,2,2,2,2,2,6,7,7,5,8,9,10,8,10,9,11,11,11,12,12,12,1,13,14,15,14,14,14,16,17,16,18,19,20,20,20,20,21,22,22,23,82,24,24,24,17,23,25,23,26,27,27,28,26,27,26,21,27,28,28,29,29,29,30,31,32,33,30,34,32,35,3,3,29,36,36,37,38,37,39,39,30,40,41,41,38,40,43,44,44,45,45,46,33,46,46,46,47,48,48,49,49,45,51,15,15,50,40,43,43,47,51,51,47,39,51,45,45,38,42,52,53,42,35,34,54,54,32,53,55,31,13,44,56,56,55,33,6,56,56,34,50,53,55,35,57,1,1,6,6,58,59,60,61,62,60,58,60,59,63,63,0,0,9,59,0,9,61,59,62,9,62,9,9,64,64,65,65,66,67,35,59,68,68,58,69,69,69,62,59,70,70,71,71,63,72,72,73,73,74,74,59,72,61,75,75,59,64,74,67,76,61,0,62,66,9,70,63,0,65,72,64,64,62,71,62,57,71,59,63,70,0,65,71,71,64,9,68,74,77,67,66,78,78,65,79,79,59,62,9,9,9,2,0,61,63,9,59,80,81,80,83,80,84,85,84,84,86,87,88,89,90,91,91,92,92,92,90,93,93,93,85,85,85,85,89,94,94,94,19,25,19,19,52,84,94,19,82,95,96,97,98,0,61,59,0,59,59,0,63,63,63,76,61,59,62,99,9,76,9,63,66,61,0,67,62,61,59,0,99,61,62,62,62,77,76,67,100,100,100,63,76,63,67,61,101,61,101,62,102,102,103,103,86,86,25,104,104,104,95,104,105,106,105,106,105,106,107,108,107,96,96,108,88,109,110,110,111,112,112,97,113,114,109,111,113,113,114,9,59,59,61,9,79,62,115,115,59,99,61,116,0,62,61,63,9,61,62,83,0,61,0,116,0,61,0,0,2,59,9,115,62,83,117,117,76,84,118,118,67,98,98,81,119,87,120,120,119,121,18,18,119,18,121,104;37.10518900961639
res_cobol;0,1,2,3,4,0,5,6,0,7,5,8,9,2,6,111,10,11,7,12,13,14,3,3,3,15,11,17,18,16,12,19,16,16,21,22,6,22,23,23,4,5,24,25,26,4,27,28,9,29,8,30,27,8,32,33,34,17,35,34,36,37,38,39,36,38,12,37,4,29,40,41,31,12,37,37,42,43,8,38,24,44,45,24,46,24,24,24,47,48,49,50,49,49,49,47,51,51,51,23,52,52,53,35,14,54,53,55,26,53,55,28,28,28,28,28,31,9,35,4,26,50,50,28,26,25,45,25,21,12,45,39,30,4,4,26,26,31,35,17,56,14,56,31,25,42,4,29,31,12,42,42,43,21,21,21,21,12,21,21,4,12,29,17,29,14,14,35,35,35,4,48,48,48,9,9,9,4,14,4,12,25,29,12,23,29,17,45,23,44,20,42,57,58,59,57,28,43,4,9,31,29,29,17,12,59,59,9,9,20,4,29,54,41,8,54,41,23,31,30,8,8,20,60,36,61,2,12,31,12,29,21,32,4,62,63,8,4,33,31,36,32,12,64,4,65,31,46,60,46,4,4,32,32,2,31,17,29,46,4,4,29,36,31,58,29,66,61,64,23,4,36,4,20,62,63,8,4,29,4,4,64,65,4,40,67,67,68,68,29,21,12,31,69,58,29,70,70,70,12,71,58,58,69,69,72,70,71,73,58,73,74,75,75,75,66,76,73,76,77,77,78,78,79,79,80,80,81,73,80,80,31,80,82,82,83,83,84,84,27,26,12,26,4,85,28,86,87,74,27,88,4,86,89,12,31,85,12,69,87,89,4,26,74,88,74,90,90,91,91,92,31,92,26,81,93,93,31,85,85,81,93,94,94,95,95,96,96,97,97,69,88,6,6,4,29,31,27,4,29,31,20,20,20,1,15,72,98,98,98,99,100,101,101,102,103,101,103,104,112,105,102,102,102,102,102,106,102,102,102,10,107,108,108,105,103,103,105,109,105,105,107,104,100,106,106,106,109,109,99,101,110,11,110,10,110,111,111,18,58,18,10,19,11,19,18,1,13,112,19;16.026633150232083
y_base;0,1,2,3,4,5,6,1,8,9,10,11,1,10,12,13,12,0,12,14,15,16,15,17,11,18,18,19,9,20,16,21,20,22,2,23,23,24,25,8,13,52,17,17,26,6,27,27,27,27,27,28,29,30,29,0,31,32,32,33,33,34,34,8,25,30,30,18,35,35,52,24,28,13,22,22,36,36,36,31,31,31,26,37,37,21,38,39,39,1,3,40,38,41,41,40,1,1,42,42,7,43,43,7,2,5,5,38,38,40,44,45,44,46,46,47,47,48,49,50,49,49,48,49,48,51,51,44,45,45,53,54,53,55,56,56,56,55,50,50,50,57,50,47,57,58,58,60,59,6,60,61,62,59,63,63,63,59,63,59,59,61,67,64,65,60,60,67,65,66,66,74,69,69,70,70,71,71,71,71,71,71,71,71,72,72,73,74,74,62,62,62,62,66,73,65,66,64,75,75,75,75,76,77,78,79,80,81,82,80,83,80,54,84,84,85,86,87,87,88,88,76,82,89,89,14,90,91,92,92,92,82,76,93,93,93,82,4,80,14,94,94,95,95,76,3,4,96,96,96,97,97,97,98,99,100,101,100,100,101,102,102,102,102,19,102,19,19,102,103,103,83,104,104,104,103,104,104,105,106,83,103,103,77,77,104,104,104,104,104,104,107,108,81,109,110,110,111,163,85,85,111,111,112,112,112,113,113,98,113,114,115,116,117,117,118,119,81,120,120,120,119,91,119,121,121,91,91,91,91,122,79,123,79,122,122,124,125,125,123,124,126,126,126,110,127,127,127,108,118,105,128,158,130,131,132,105,90,77,99,90,133,134,135,136,137,138,90,116,139,140,117,141,142,143,186,141,144,144,145,145,137,146,146,147,147,148,148,135,149,135,78,77,150,150,151,152,68,68,153,153,152,153,153,83,107,151,154,154,154,86,86,164,155,157,157,156,158,158,155,155,155,159,159,159,159,160,160,157,116,116,161,161,162,163,164,156,164,131,114,163,129,129,165,165,166,167,168,130,169,169,169,169,169,138,138,134,170,171,170,165,98,165,170,172,173,173,173,174,174,148,174,174,174,136,174,134,134,139,139,175,175,175,175,176,176,175,175,141,177,177,143,178,178,143,109,179,179,143,168,168,172,167,167,180,180,167,181,182,133,115,115,115,183,183,183,140,184,184,184,181,181,185,185,182,182,180,182,186,186,186,187,187,106,132,186,136,166,188,188,166,166,128,147,145,147,147,147,147,171,149,142,142,142,162,142;58.232875922550974
apache_ant_taskdef;0,0,2,1,2,12,1,3,4,5,6,7,1,8,8,9,10,178,4,11,11,12,13,14,14,14,15,15,13,16,17,18,19,20,19,19,20,20,2,13,21,21,22,23,24,24,24,24,24,23,24,24,24,24,24,24,24,24,25,25,25,23,22,24,21,9,26,27,12,18,2,9,28,29,178,178,178,27,30,30,26,26,31,31,26,32,7,33,33,33,34,34,35,36,37,38,39,40,40,41,41,42,41,43,44,44,44,44,9,45,46,46,47,4,48,48,49,50,50,51,51,7,29,6,6,41,52,52,52,52,53,18,54,0,6,11,55,56,55,56,55,55,55,57,57,26,58,59,59,7,53,7,34,45,16,60,11,60,61,61,62,62,7,63,63,63,63,15,7,64,64,65,65,66,66,67,67,68,69,70,70,71,71,69,71,71,71,71,71,72,73,74,54,75,75,75,7,7,57,76,76,50,51,77,77,77,78,78,78,78,78,78,6,5,79,79,79,43,64,64,80,81,80,81,81,80,81,64,82,82,47,47,47,84,85,85,85,86,86,86,87,87,87,37,85,85,85,85,88,88,6,89,90,91,89,90,91,91,92,92,43,6,93,93,3,94,93,93,93,94,16,6,95,95,7,96,6,97,97,97,97,39,98,98,98,72,27,99,99,99,38,38,100,100,100,1,68,7,101,101,101,102,102,49,32,103,103,103,104,105,105,105,105,106,106,32,107,107,6,42,108,108,108,109,109,109,109,6,10,6,110,110,110,110,54,6,111,111,111,112,112,16,113,113,113,113,114,114,64,0,115,115,116,117,118,118,119,120,120,116,116,119,121,117,6,80,80,80,80,80,80,80,80,80,122,83,122,84,83,84,83,83,74,84,37,58,49,58,58,58,28,28,28,58,58,28,28,28,49,49,0,49,123,123,123,49,28,28,49,49,49,3,58,124,124,125,126,126,126,125,124,127,127,125,106,128,128,129,128,129,129,40,130,131,130,131,131,132,132,133,133,134,135,134,135,135,136,137,136,136,137,96,7,35,138,138,139,28,121,139,139,139,140,141,140,140,140,141,141,142,142,142,142,18,142,142,36,36,142,36,36,142,36,143,143,144,144,144,143,145,146,146,146,145,145,147,148,144,144,144,144,148,148,148,148,147,149,150,149,151,152,82,153,154,153,153,154,150,155,152,153,154,150,151,156,157,157,157,157,157,156,150,155,158,159,160,158,160,160,160,161,160,162,162,161,158,158,158,158,159,53,163,163,163,163,163,163,164,164,73,133,133,74,165,165,166,166,167,167,168,168,169,167,167,53,169,168,170,135,170,106,171,171,171,172,172,173,173,173,173,174,174,174,174,174,174,175,175,176,176,176,177,177,177,17,180,179,180,179,179,179,180,179,179,180,181,181,179,18,182,182,183,104,37,104,183;66.58278856318515
itextpdf;0,1,2,90,4,4,5,6,7,6,6,0,8,9,10,3,3,1,12,121,121,1,90,13,0,8,14,15,14,16,17,15,17,15,16,16,18,19,17,20,4,64,21,2,22,4,23,24,20,25,6,1,10,26,27,28,28,29,29,30,31,83,33,30,34,35,36,37,86,38,2,39,40,11,83,41,33,7,43,44,45,46,47,44,32,48,49,20,50,51,52,53,53,54,27,41,55,56,2,36,57,37,58,59,39,60,49,61,62,43,56,63,86,64,65,181,61,48,66,40,68,69,38,70,69,71,72,73,46,74,75,76,9,77,23,78,9,79,80,81,34,12,82,60,31,77,84,85,23,82,72,87,111,40,88,89,54,142,91,92,91,89,93,94,95,96,97,95,98,99,96,88,40,100,91,93,101,101,102,103,96,104,91,45,105,42,11,75,75,47,73,32,106,11,44,107,106,68,57,22,108,57,37,58,84,67,109,110,60,111,49,112,76,31,113,112,76,55,55,114,44,115,10,80,80,81,82,82,82,82,82,116,117,116,82,82,118,78,119,119,119,78,120,103,122,42,120,62,18,42,124,120,125,126,54,142,51,101,93,127,127,101,101,110,128,128,129,113,25,25,25,114,120,120,120,120,129,122,83,103,92,130,92,94,94,130,127,130,131,132,98,7,133,74,19,134,64,135,136,137,137,135,137,138,138,133,14,21,87,139,115,140,141,115,139,141,141,139,139,140,139,115,115,115,140,139,56,58,70,35,118,142,142,63,143,109,132,24,88,13,144,144,144,144,26,133,146,145,146,5,145,146,147,147,147,148,148,149,150,149,149,149,151,176,43,133,22,63,65,152,152,152,152,153,153,154,154,154,51,67,59,67,155,156,124,136,136,136,157,157,158,159,160,160,12,155,161,162,161,163,162,111,138,159,156,158,99,131,164,164,165,150,166,166,167,167,167,168,165,168,169,169,169,170,170,150,166,171,171,171,143,172,172,173,173,173,174,174,71,175,175,176,30,177,177,177,177,177,177,177,177,177,175,178,178,179,179,126,126,176,61,180,180,181,182,182,183,182,181,181,184,185,186,184,184,186,187,123,188,189,190,191,188,193,193,189,194,192,192,194,194,194,193,195,196,85,85,123,123,197,197,197,198,199,198,199,123,200,200,21,123,191,191,21,201,123,201,190,190,123,196,85,85,201,189,195,202,203,202,187,203,187,203,185,193,204,192,205,206,100,206,207,102,96,151,117,151,208,209,205,207,97,209,97,183,79,104,183,210,211,66,50,211,134,210,125,212,212,212,19,206,213,214,214,215,216,217,215,213,208,214,52,218,216,217,216,216,216,97,131,216,216,95,216,216,218,216,208,217,215,65,162,163,108,219,204,220,221,105,105,222,219,223,224,223,220,225,226,220,204,226,225,222,225,227,227,224,227,228,219,229,229,229,230,230,221,221,231,231,231,231,228,228,107,232,232,107,233,233,233;58.48251907862263
apache_lucene_core;3,1,0,2,3,0,4,5,6,4,7,7,8,8,9,9,10,9,12,12,12,12,13,14,14,15,11,1,16,16,1,17,0,17,13,18,18,0,19,20,21,4,22,22,17,23,24,24,24,25,25,31,26,26,26,26,10,23,27,28,28,10,29,2,29,30,30,31,31,31,32,0,32,27,15,28,20,3,19,33,33,33,33,33,34,35,35,35,35,36,36,37,37,38,39,40,40,40,33,39,58,42,58,41,44,42,45,45,46,47,46,48,49,49,50,51,52,49,98,54,55,56,55,57,57,57,57,57,55,44,46,59,60,44,61,62,63,63,43,43,63,65,66,66,66,67,68,69,70,69,67,71,72,48,56,73,74,74,72,75,76,77,78,47,79,78,78,78,80,81,81,81,80,77,82,83,70,79,58,84,85,65,86,86,86,87,54,88,89,88,90,90,89,91,91,92,92,54,88,93,90,88,93,87,87,94,95,94,95,95,96,96,85,94,94,97,97,98,99,53,100,98,49,101,102,102,103,103,104,105,106,103,82,82,107,108,108,5,5,6,93,75,75,75,109,109,110,110,110,111,110,112,110,113,113,53,114,53,53,114,98,98,98,114,124,83,83,112,84,84,71,47,70,115,115,48,115,98,73,61,116,116,116,116,117,99,99,118,118,118,119,119,119,119,120,120,47,47,52,62,51,67,67,68,121,121,41,122,123,122,76,111,56,35,60,124,124,82,93,123,123,125,126,107,100,100,50,50,127,127,128,128,127,129,129,130,131,132,130,133,130,134,135,133,136,133,136,38,137,138,137,137,132,139,140,141,131,142,143,138,144,145,145,146,104,146,147,148,149,150,151,150,150,147,147,152,152,153,152,153,148,154,148,155,104,155,156,156,157,158,159,160,161,159,154,162,162,162,140,163,163,163,164,165,165,166,166,166,166,167,168,169,168,178,168,170,171,172,171,173,174,173,175,175,176,176,177,177,170,169,171,177,170,178,179,180,181,182,183,174,181,174,172,184,184,179,174,42,42,181,173,42,174,174,185,186,185,158,187,187,188,188,189,189,190,190,191,191,192,192,186,186,193,193,193,194,172,197,197,169,195,176,197,196,196,175,197,182,197,195,198,199,198,195,200,201,200,199,199,199,199,199,199,199,182,199,202,202,226,202,202,203,204,203,204,205,205,205,206,206,206,207,142,142,207,208,209,209,208,117,210,211,212,213,117,214,210,105,143,143,134,166,212,212,212,151,198,138,160,215,216,138,138,138,215,215,215,217,217,217,21,217,218,218,219,219,135,196,139,139,159,60,216,216,140,138,201,201,167,167,167,101,101,101,183,157,157,220,221,220,144,144,140,34,222,222,222,222,223,223,223,223,211,214,214,224,225,226,227,228,214,224,225,226,227,228,213,213,213,141,229,230,229,230,231,231,231,231,232,230,233,233,234,235,236,234,235,237,237,238,238,239,239,236,232,232,232,240,240,241,242,241,242,242,59,240,240,243,220,243,244,245,243,221,246,246,59,247,149,244,245,245,248,248,249,249,247,247,250,251,252,64,252,62,64,62,250,253,62,254,253,255,256,251,65,65,257,258,258,258,258,254,259,259,255,260,260,260,261,256,261,257,11,11,262,262,180,106,161,184,184,184,263,263,194,194,164,264,264,264,34,265,265,265,125,126,266,266;76.74531714148434
eclipse_jgit;0,0,0,0,1,2,3,4,5,6,7,8,123,9,10,11,12,13,14,5,16,1,17,18,19,20,79,22,23,23,20,20,20,21,21,25,25,26,27,28,28,29,30,31,5,31,32,33,27,24,23,34,30,30,30,34,35,24,36,24,37,14,38,39,22,40,41,42,39,43,44,45,46,47,48,49,24,50,45,45,52,52,53,54,55,56,57,58,59,60,58,58,61,72,32,32,32,62,62,32,32,32,32,32,0,63,63,26,63,36,36,64,65,64,65,35,66,66,67,68,69,67,71,71,33,49,24,72,73,74,75,76,77,42,19,78,70,92,79,80,81,5,9,82,8,64,68,83,83,18,84,84,2,0,43,84,85,86,85,87,34,285,88,87,48,48,65,89,0,47,90,91,91,66,66,82,92,93,66,66,88,94,83,95,96,97,36,23,13,98,97,57,99,98,0,0,100,75,95,101,46,102,92,102,103,103,103,104,104,69,69,105,106,106,107,108,107,37,37,109,109,110,111,112,6,77,22,41,113,21,89,122,114,99,115,116,116,76,117,76,44,118,118,116,78,116,78,78,119,17,120,107,107,121,107,117,113,122,122,119,111,50,50,97,97,37,17,124,124,125,125,125,125,124,106,108,126,111,37,104,37,127,127,93,128,128,120,106,129,129,37,37,15,15,77,72,72,106,37,37,124,130,37,37,131,37,129,132,110,132,114,131,133,29,135,136,137,138,139,138,139,140,140,141,141,142,94,94,59,143,61,144,145,146,142,147,147,146,146,148,60,148,149,149,149,150,151,151,150,152,70,71,170,153,154,155,155,156,157,157,154,158,158,143,59,144,159,160,160,142,161,161,60,60,60,61,156,156,154,142,159,158,159,162,162,163,164,164,164,164,165,166,167,168,168,169,169,170,171,171,96,96,96,96,96,172,173,172,174,174,170,173,173,15,137,137,175,176,137,177,177,133,175,170,136,178,178,178,12,179,56,180,181,54,77,182,183,184,183,181,184,182,56,180,185,185,186,186,185,187,81,187,80,80,73,81,186,73,188,188,189,190,191,192,191,191,193,194,193,193,195,193,193,197,197,135,135,51,3,198,198,101,123,199,200,201,202,163,203,204,205,201,205,205,206,206,38,204,207,207,207,10,208,50,209,51,210,211,212,211,212,213,193,214,214,215,216,217,217,218,218,201,208,219,219,220,220,205,221,221,194,194,166,166,203,199,222,223,223,165,192,193,224,224,225,225,209,226,226,176,176,11,227,227,228,10,229,16,230,231,217,232,223,233,233,234,234,9,74,232,200,200,200,202,225,225,235,236,210,31,237,229,238,238,239,239,240,240,226,190,189,241,268,190,190,9,167,242,231,243,244,245,212,246,51,179,247,7,197,248,249,193,250,209,230,242,74,251,74,252,213,247,247,103,253,74,254,222,228,247,248,176,255,255,231,248,246,113,153,249,193,215,256,236,257,257,258,257,259,192,260,222,230,239,239,193,243,261,196,250,97,196,195,262,262,263,263,263,261,241,29,264,265,264,266,53,265,253,267,266,266,267,267,268,269,258,22,269,268,270,270,79,271,271,271,256,134,272,272,265,273,273,264,105,266,265,274,134,275,276,275,171,259,277,277,274,278,278,278,276,274,279,279,280,280,259,279,260,281,281,281,259,260,280,260,277,282,282,282,283,283,283,284,284,285,285,52,90,145,91,46,286,287,288,288,40,40,286,40,288,289,287,289,289,152,151,152,290,290,291,291,292,293,292,293,86,55,294,294,65,65,295,296,296,297,297,297,251,251,298,299,299,298,300,300,300,100,237,237,301,301,112,302,302,303,304,305,4,306,306,306,297,306,121,307,307,295,308,309,216,216,216,254,254,309,310,311,311,312,312,309,251,304,313,314,304,315,303,303,252,304,305,303,316,316,115,133,316,317,317,318,319,308,319,93,310,310,318,313,308,113,302,320,320,321,321,314,252,322,316,319,323,323,236,324,130,324,325,326,235,130,324,315,326,326,325,325,327,327,327,327,328,245,245,244,328,245,245,327,327,327,327,327,327,140,110,322,126,244;86.37846527395048
apache_ant;0,0,1,2,3,4,5,6,0,7,7,8,9,10,11,12,13,14,15,16,17,12,18,18,19,20,19,21,22,22,23,24,25,26,27,27,27,28,28,28,26,29,30,31,32,33,34,32,35,35,36,37,38,35,39,40,39,39,40,40,41,42,43,15,44,45,46,25,47,46,46,45,47,47,46,47,46,47,46,46,48,49,49,49,45,44,46,50,19,26,51,52,53,54,55,56,55,57,37,4,19,58,59,60,15,58,61,19,19,19,53,62,62,63,63,63,63,62,64,64,65,55,66,67,21,17,68,68,68,69,70,70,71,72,73,74,71,75,75,72,75,48,76,76,76,76,48,76,76,76,76,77,77,78,78,79,80,80,81,72,82,82,83,83,84,84,71,74,85,85,74,72,77,87,87,88,88,89,90,91,92,92,89,90,88,80,88,93,93,88,88,94,94,86,86,95,41,41,41,95,95,15,95,95,95,43,96,97,98,99,100,100,100,101,100,101,102,100,102,54,54,103,103,52,10,23,2,57,104,104,104,105,24,24,106,6,23,0,65,108,108,109,110,111,111,112,113,114,109,115,79,116,117,116,118,119,119,119,120,121,122,123,124,124,124,124,125,125,126,127,127,128,14,129,129,130,131,131,132,133,133,134,17,61,3,25,121,135,135,135,136,137,138,139,135,140,141,142,141,141,120,96,22,143,144,145,144,146,146,143,145,147,148,149,150,151,152,139,139,154,149,51,155,33,156,157,158,159,156,160,156,59,140,17,108,126,56,25,161,22,161,162,153,162,163,163,164,167,165,165,166,166,165,168,169,167,170,171,172,173,229,153,174,175,97,153,17,177,177,177,177,178,178,164,28,17,179,180,179,262,182,182,38,183,69,183,184,185,185,186,187,188,188,189,189,187,189,189,189,112,189,190,191,192,193,194,195,193,194,142,142,196,171,197,197,197,99,17,149,198,198,131,133,199,199,199,200,200,201,201,201,201,201,16,137,52,52,52,123,180,180,202,203,204,202,203,205,203,202,203,206,180,204,42,207,208,42,209,209,210,128,211,212,213,214,214,214,215,214,215,216,216,216,113,214,214,214,214,217,218,218,3,219,220,220,219,220,220,221,221,222,223,223,224,224,67,225,226,226,226,227,66,226,226,227,30,5,228,228,167,229,230,17,59,16,231,231,231,231,115,232,232,232,190,53,233,233,233,114,234,234,234,12,186,186,235,60,186,186,186,3,236,236,236,237,237,118,66,209,238,238,238,239,239,239,239,151,240,240,67,160,241,16,196,242,242,242,243,243,244,244,243,245,246,176,247,248,16,20,3,249,249,249,249,154,142,97,250,250,250,251,251,246,157,252,252,252,252,253,253,179,120,254,254,255,254,256,256,257,258,258,255,255,257,259,260,255,97,139,261,261,202,202,202,202,262,262,263,202,202,264,265,212,265,212,213,8,212,128,192,213,113,155,266,266,155,155,155,60,130,130,130,155,130,60,120,170,8,267,120,130,170,268,268,268,130,176,81,29,38,60,137,13,130,269,269,107,270,270,270,107,271,271,272,272,225,240,106,106,273,273,30,274,275,274,275,275,276,276,277,277,278,210,278,210,279,280,281,280,280,281,282,283,283,117,110,284,284,285,286,286,286,259,285,285,285,287,287,288,289,288,288,288,289,289,112,290,290,290,37,290,290,109,109,112,109,109,290,109,291,11,291,292,292,292,291,293,294,294,294,295,293,293,296,297,292,292,292,292,297,297,297,297,296,298,299,298,300,301,116,302,303,302,302,303,299,304,301,302,303,299,300,305,306,306,306,306,306,305,299,304,266,307,308,309,307,309,309,309,310,309,311,311,310,307,307,307,307,308,117,312,312,312,312,312,312,217,217,191,277,277,277,313,313,314,314,315,315,316,316,317,315,315,140,317,316,279,279,279,240,318,318,318,319,319,320,320,320,320,321,321,321,321,321,109,322,322,323,323,323,323,324,324,324,31,325,326,327,326,326,5,325,326,326,327,328,328,326,37,329,329,330,192,238,238,330,32,32,263,208,208,208,122,176,148,58,58,331,331,332,332,195,195,195,122,222,122,333,333,334,334,334,334,334,334,334,80,36,246,260,260,260,158,50,335,335,286,335,336,336,337,337,295,338,338,338,339,150,175,206,162,340,340,339,341,341,342,150,141,343,343,340,338,343,344,344,344,342,248,222,222,51,147,345,345,147,136,346,347,152,91,264,154,164,164,164,164,346,347,13,346,81,346,346,221,138,165,173,73,168,229,172,241,169,169,230,348,348,348,348,174,174,174,349,174,349,205,331,7,7,7,3,3,331,282,282,282,282,235,235,211,333,350,350,351,351,9,9,159,0,34,16,211,352,352,184,267,207,352,353,353,132,132,134,134,105,105,105,247,247,245,354,181,354,355,355,356,357,357,358,356,359,359,360,360,361,361,354,181,358,360,362,98,362,98;102.40966515669973
ylayout;0,1,2,3,4,4,4,4,4,4,5,6,7,8,8,9,10,10,2,11,6,10,12,13,14,15,16,16,16,17,17,18,18,19,20,21,22,43,23,1,1,9,9,9,8,24,25,9,19,25,19,25,306,28,28,24,24,26,26,29,26,30,31,30,32,33,31,23,33,32,34,34,35,35,36,36,37,37,37,37,37,37,37,38,39,40,40,40,41,42,43,31,44,44,0,22,22,0,0,12,12,12,45,12,12,46,11,47,48,49,49,50,51,47,48,52,52,53,53,48,54,39,55,56,56,56,56,56,56,7,2,57,57,57,58,58,58,59,59,60,61,62,63,64,65,66,67,66,68,61,69,68,65,70,70,71,72,73,73,74,65,75,75,75,74,60,75,65,72,76,77,78,79,80,71,81,77,82,80,71,64,69,69,62,63,66,83,83,83,66,79,84,84,84,85,86,14,87,88,89,89,90,90,89,91,91,92,21,21,93,93,93,15,94,95,94,96,96,96,96,96,97,97,98,98,99,145,98,100,98,101,101,101,101,101,101,94,101,101,101,115,103,104,104,104,104,100,98,105,105,106,106,106,106,107,108,109,106,107,110,111,95,95,102,112,112,112,112,113,114,115,115,113,114,116,116,117,118,111,119,111,120,98,103,86,121,86,122,123,124,125,126,127,128,129,130,131,131,132,133,127,131,134,134,134,134,135,136,136,136,120,120,118,118,137,137,138,138,117,119,139,119,140,27,27,141,108,107,107,102,102,142,143,144,109,113,103,133,123,145,146,46,147,147,126,132,98,148,149,150,15,124,127,124,151,151,151,151,151,151,151,99,152,152,152,129,129,153,153,5,154,155,155,155,155,156,135,135,157,135,157,146,158,171,159,121,160,161,162,146,163,164,164,164,122,157,125,165,166,166,164,164,164,164,167,167,88,121,159,165,166,168,168,161,160,87,169,169,170,170,168,159,87,171,142,142,172,165,145,145,121,88,159,121,121,169,169,171,143,156,163,150,23,173,174,175,176,177,178,179,180,181,126,180,180,126,130,130,130,130,148,148,46,46,128,128,182,182,176,176,183,184,184,184,183,178,178,178,178,178,178,177,177,144,143,185,154,154,154,154,87,154,154,185,162,158,158,158,162,173,99,152,152,152,152,152,152,152,152,152,152,152,152,152,152,181,174,146,149,149,149,149,186,186,172,179,85,179,179,85,179,179,179,175,175,175,175,42,187,187,188,188,189,190,189,29,42,191,191,13,13,192,192,192,192,193,193,41,194,194,190,195,195,190,194,196,196,196,197,198,198,198,14,199,199,199,201,201,200,200,202,203,204,204,200,206,206,205,205,206,206,206,197,207,208,208,209,209,197,197,81,81,210,210,20,20,78,78,78,92,78,75,92,78,211,212,213,213,214,214,215,215,216,67,217,217,217,217,217,218,217,219,220,203,221,222,82,223,223,72,224,225,224,226,226,227,76,76,203,227,218,71,228,228,228,228,207,201,212,204,224,204,229,229,229,207,230,231,231,73,231,231,211,211,211,80,80,80,80,80,80,80,80,80,80,80,80,80,80,225,232,220,222,232,232,220,219,233,233,222,222,234,234,234,234,234,234,202,202,202,202,225,235,235,212,230,216,221,221,219,219,52,38,43,236,237,238,238,239,38,240,241,236,242,243,244,245,246,247,248,249,249,250,251,252,253,249,254,255,256,241,239,257,258,259,260,261,262,263,264,265,265,265,266,257,268,267,269,269,262,262,267,270,271,272,272,261,261,273,261,273,261,274,275,275,275,263,306,271,276,276,276,277,277,278,278,277,276,268,279,280,279,281,281,258,264,282,283,284,282,282,285,285,285,285,260,286,286,286,287,287,287,288,288,265,284,289,289,289,257,266,266,266,256,290,271,241,253,253,291,291,271,292,247,293,293,294,294,294,294,294,295,250,293,296,297,296,297,297,296,298,298,293,295,250,299,299,248,290,290,300,300,300,300,300,298,298,298,301,302,303,270,303,304,304,305,299,302,306,245,307,308,308,308,246,246,270,301,302,305,252,252,252,309,309,309,309,251,247,307,310,311,311,311,237,311,255,255,236,312,273,312,254,269,312,313,314,315,316,317,318,318,318,319,319,320,315,310,310,320,313,313,313,321,283,283,283,269,317,314,317,322,322,244,323,244,324,244,243,243,243,325,325,326,326,259,283,259,321,321,321,274,324,327,316,316,316,280,269,292,323,328,328,327,328,329,323,330,328,329,331,331,332,332,329,330,330,331,10,333,110,110,110,110,334,334,335,335,336,336,336,337,22,333,333,333,338,339,338,339,339,340,340,339,341,341,54,342,342,343,343,54,344,54,342,345,346,345,347,341,348,346,55,349,349,349,50,50,350,350,51,51,51,351,351,352,352,352,352,51,353,353,353,353,1,354,355,355,355,354,45,347,337,337,344,345,356,356,357,354,357,345,342,358,347,358,348,45,359,359,347,347,360,360,360,360,140,361,240,240,141,362,362,361,361,363,364,362,362,362,362,363,364,364,365,366,365,366,367,139,367,364,364,63,63,63,365,365,368,368,369,369,364,370,370,27,27,92,141,371,141,371,27,372,372,371,371,242,242,373,373,373,373,373,373,374,375,375,374,374,3;110.88458958744775
squid;0,0;1.0
random;0,0,1,2,3,3,4,1,3,1,0,2,4;2.4409223817118555
regexp;0,0,1,2,3,1,0,3,2,2,2,2,1,0;1.7026556776556774
netkit-ping;0,0,0,0,0,0,0,0,0,0,0,0,0,0,0;1.0
nss_ldap;0,0,0,0,0,1,1,0,0,0,0,0,0,0,0;0.8972076576027314
netkit-tftpd;0,0,0,0,1,1,1,1,1,0,0,0,1,0,0,0,0,0;0.9524291497975709
sharutils;0,1,2,2,0,4,3,3,1,4,4,1,1,0,3,1,1,1,1;1.8525557011795544
spdb;0,0,0,1,1,2,2,3,3,4,4,5,4,4,4,4,4,4,4,4,5;5.58974358974359
xtell;0,0,0,0,0,1,1,0,1,1,0,0,0,0,1,1,0,0,0,1,0,0;1.1831802408654828
netkit-inetd;0,0,1,0,0,1,1,0,0,0,0,0,0,0,0,0,0,0,0,0,0,0,0,0;1.2601067887109076
bootp;0,1,2,3,4,5,2,0,3,4,6,4,6,5,5,7,0,3,4,5,0,0,7,1,0,0,5;1.770138384175624
sysklogd-1;0,1,2,3,4,4,0,3,4,2,4,0,1,3,3,4,1,0,1,0,2,2,3,4,1,0,0,2;1.1578472032481018
telnetd;2,0,0,2,2,1,3,0,0,1,1,3,3,3,0,1,2,2,2,3,0,3,0,0,3,0,2,2;1.6176799305070884
crond;0,1,1,2,3,4,3,5,3,0,4,3,3,3,1,5,0,5,0,2,4,2,1,1,1,1,2,2,4;1.7230294735046296
netkit-ftp;0,0,1,2,2,3,4,5,4,5,0,0,5,4,3,1,0,3,3,1,3,2,3,5,4,1,0,1,1;0.7795238756338954
dhcpd-2;0,0,1,2,3,4,5,3,1,6,1,0,3,5,4,0,5,1,4,2,5,2,3,2,6,7,7,4,3,2,5;3.0871143620409573
cyrus-sasl;0,1,2,3,3,4,4,5,6,7,1,8,9,7,2,7,1,5,9,7,10,2,6,10,3,5,3,2,6,8,0,0;2.5167170888954424
tcsh;0,1,0,0,0,2,0,2,1,0,0,1,0,3,3,0,0,0,3,1,1,0,0,3,3,3,0,2,1,1,1,3;0.6474045462762699
micq;6,1,2,2,3,0,0,3,3,0,4,1,2,5,6,7,6,2,0,7,0,7,6,3,3,6,1,4,0,3,5,1,1;1.372643092379216
cia;2,1,1,2,8,3,4,4,5,4,0,8,7,8,5,0,8,5,6,1,8,3,5,2,7,4,4,2,6,6,6,5,4,4,5,4,8,5;3.590333754410831
stunnel;0,1,2,3,4,1,1,4,6,5,6,6,2,0,4,3,4,6,4,7,3,5,7,3,6,7,2,5,7,4,3,2,0,0,2,1,3,0;2.0858866305398496
minicom;0,0,1,2,2,3,4,5,1,6,2,3,6,7,2,2,2,6,0,7,8,9,3,9,8,6,7,4,1,7,6,7,10,5,4,10,3,5,1,9;1.6096696752014308
mailx;0,1,2,0,3,2,3,0,1,4,3,2,3,5,2,6,3,2,0,1,7,7,6,4,1,4,0,7,5,2,8,5,9,10,10,7,10,9,9,8,1;2.4162311146920974
screen;0,1,2,4,4,1,0,3,4,10,5,6,6,0,7,0,0,8,9,9,0,7,10,0,7,2,4,8,3,0,6,2,5,4,6,1,10,5,7,1,5,0;1.5599159550285018
slang;0,1,2,2,4,3,0,6,9,9,3,8,8,7,2,5,10,8,9,11,4,12,3,5,13,11,1,1,3,7,6,4,6,0,13,5,10,10,12,12,11,13,4,13,3;3.3360952387858975
slrn;0,0,1,0,2,3,0,8,5,6,3,7,7,8,9,12,4,12,4,10,11,12,0,6,13,13,9,12,9,6,14,14,2,14,10,7,10,13,11,1,8,3,5,7,8;1.7483927097058065
net-tools;0,1,2,1,3,4,5,4,6,7,2,2,8,8,4,9,10,7,5,11,12,3,13,11,11,8,9,6,10,10,12,15,16,1,2,16,6,14,0,15,13,9,14,14,11,0,4,8;3.461285329281107
graph10up49;5,2,2,3,4,10,1,10,4,7,15,14,8,9,10,13,1,10,11,5,9,11,1,3,14,6,14,12,12,14,2,10,0,16,14,3,15,12,17,16,6,16,4,9,13,10,11,6,8;1.2587323366660235
wu-ftpd-1;0,10,1,1,1,3,2,4,1,6,10,7,10,4,4,4,1,3,1,8,5,5,8,9,1,0,3,0,1,3,8,4,2,6,6,10,2,0,1,9,7,9,5,5,3,0,1,0,2,3;1.5750170394316
joe;0,1,2,12,4,10,0,5,1,9,3,12,4,6,4,1,8,3,7,9,7,4,1,5,6,11,6,5,0,11,11,7,4,10,3,10,9,7,2,8,8,2,11,2,8,0,13,13,0,4,5;2.2335178960341775
hw;0,1,2,3,3,4,5,6,3,7,0,0,8,1,9,1,1,5,1,3,2,1,5,0,8,4,10,5,1,11,11,6,5,4,12,5,5,12,9,7,5,13,14,14,1,13,5,7,7,10,8,4,7;8.49671571422017
imapd-1;0,8,1,1,8,10,10,2,8,3,3,0,4,5,5,0,8,6,7,4,8,8,9,1,4,6,10,10,1,11,9,7,4,7,5,6,6,4,6,12,12,8,2,0,11,5,3,11,6,6,6,6,4;3.3828189441950456
wu-ftpd-3;0,0,1,1,2,3,4,1,5,5,8,2,6,1,1,5,7,6,8,9,4,4,8,10,1,11,7,7,1,3,12,13,8,10,1,2,13,12,5,13,9,0,11,8,12,0,3,0,2,3,0,0,0,1;2.389541579982086
dhcpd-1;1,7,0,3,4,14,6,7,5,1,8,9,10,2,11,5,8,14,12,4,7,13,6,14,2,12,0,14,3,13,14,2,14,8,5,6,15,13,2,3,15,3,0,4,11,5,0,13,6,2,7,2,7,12,10,9,1,4,5;2.868421901420212
icecast;0,10,2,7,0,10,10,3,3,10,4,10,5,7,10,6,10,3,8,8,10,9,9,3,7,8,4,9,1,2,2,10,10,8,7,11,8,12,5,3,1,1,4,12,8,2,8,1,13,11,8,5,10,6,6,6,13,5,10,1;2.234847563914047
php;0,0,2,2,3,4,7,3,6,5,0,5,8,1,5,8,0,9,7,10,11,12,12,2,1,8,0,10,10,13,2,11,2,2,4,7,4,2,12,13,6,2,1,2,4,0,14,7,3,3,7,14,7,2,1,4,2,14,2,14,2,9;3.819967241880401
elm-2;0,1,2,3,4,7,15,13,5,8,7,9,9,10,11,11,12,12,7,14,15,16,17,6,7,15,18,3,19,12,7,20,21,22,22,19,23,14,10,10,15,4,14,4,23,23,16,16,0,24,6,5,11,14,21,18,5,1,22,25,16,13,25,4,24,12,12,18,17,26,8,2,20,8,18,6,26,13,18,17,21;2.5401074859055472
elm-1;0,1,2,3,4,5,6,7,8,9,1,10,22,12,2,1,26,18,15,16,0,17,1,18,10,20,10,21,22,19,23,15,26,22,14,25,5,13,23,22,13,10,15,12,19,6,11,11,14,7,10,20,24,25,19,4,21,2,14,9,23,8,24,15,3,27,28,28,0,18,28,9,7,27,21,16,12,13,1,27,2,17,1,23,8,25,13,6;3.062738696942233
gnupg;9,1,2,2,3,5,4,14,6,14,8,9,0,23,23,14,8,14,4,10,8,9,0,9,1,4,13,0,12,15,15,13,17,14,6,23,4,3,14,18,23,3,0,11,19,19,20,0,3,4,10,18,12,3,21,2,5,16,8,0,22,9,21,3,17,6,5,22,16,1,13,6,11,17,19,21,14,20,7,11,20,7,5,17,15,8,16,11;5.580753949102847
inn;0,1,3,3,4,5,6,6,7,2,2,9,10,10,11,12,13,14,6,2,24,16,17,24,18,11,2,19,3,20,20,6,6,15,21,22,5,23,15,8,25,26,19,27,28,9,21,11,29,30,31,22,3,8,23,15,32,3,12,13,9,16,30,28,23,33,33,18,27,27,8,17,25,26,4,14,34,5,32,12,12,12,31,1,29,7,34,0,0,7;7.014229851011973
bash;0,0,33,2,3,4,5,5,11,7,8,33,33,10,3,33,33,14,16,11,12,13,11,13,14,15,10,6,16,14,17,13,9,18,28,19,20,18,6,21,22,23,24,25,26,26,27,23,11,24,12,19,1,30,18,17,29,24,1,5,31,32,20,11,20,16,5,9,20,27,1,28,21,31,15,7,20,0,32,33,30,0,29,31,25,4,8,0,21,2,22,6;4.403862822016863
bitchx;0,14,6,2,8,14,4,4,5,8,6,7,8,13,9,9,20,20,10,11,14,12,17,6,3,14,14,3,10,15,14,4,5,0,8,16,4,16,7,7,18,3,6,19,3,2,3,0,1,6,10,21,3,5,22,24,23,22,1,14,24,25,16,2,8,5,3,12,19,24,18,21,26,20,21,27,25,17,7,27,13,13,2,27,26,5,7,9,23,21,17,11,25,15,6,12,15;2.8740177074791164
xntp;3,5,2,2,4,2,5,9,3,0,6,7,1,8,9,10,11,15,12,6,6,13,14,2,29,5,16,17,4,18,19,11,0,5,0,20,9,21,21,22,3,23,16,24,18,11,25,3,12,2,19,7,26,23,2,27,25,0,22,20,28,23,26,14,29,1,30,16,31,26,25,5,9,32,17,25,18,33,17,10,30,15,28,14,14,20,6,4,27,30,1,13,30,18,22,32,4,34,12,18,31,3,8,31,21,29,24,29,31,33,34;6.833195365621861
acqcigna;10,0,0,1,1,2,2,3,2,32,32,5,5,6,7,8,9,9,6,10,10,11,4,4,4,4,12,13,14,15,15,16,17,17,18,18,4,19,20,19,3,14,21,21,22,23,22,9,24,24,24,25,26,26,27,27,15,21,28,4,4,4,4,25,29,22,4,4,11,14,30,30,30,30,12,19,7,4,31,31,31,33,33,34,35,34,5,6,12,12,30,16,16,23,13,19,20,20,35,12,12,12,27,29,29,12,36,36,15,8,3,37,37,28;16.516620787031442
exim;0,6,2,3,4,5,6,6,6,7,8,9,10,3,11,12,13,8,3,1,14,15,12,24,16,10,17,18,3,21,19,20,20,21,21,18,0,7,22,16,17,23,18,18,26,27,25,11,3,19,0,13,7,26,20,25,16,19,25,27,2,9,28,6,26,32,8,2,6,29,29,3,30,30,31,14,4,20,32,22,28,22,4,7,33,33,1,27,2,7,14,31,24,15,9,14,33,33,33,32,34,20,33,34,28,33,2,23,29,33,5,0,34,27,21,3,19,24;5.703268745685809
mod_ssl;0,1,2,2,3,4,5,6,7,8,8,9,10,11,13,39,6,14,15,16,17,18,0,0,15,19,20,21,17,6,2,22,21,23,24,31,25,4,16,26,1,27,15,23,4,28,29,35,5,6,30,31,13,32,33,30,20,32,7,2,34,35,22,16,36,37,11,38,39,40,40,10,41,37,23,41,21,12,42,26,14,33,16,18,43,43,44,45,23,16,9,7,45,46,30,20,16,8,39,4,20,31,3,44,10,36,24,34,3,29,28,19,42,17,12,38,35,47,25,29,46,47,17,16,9,25,27,27,5,29,38,11,5,14,28;8.30672481856542
ncurses;0,1,2,3,4,5,6,7,8,9,10,21,21,41,12,13,14,15,16,12,17,13,11,19,20,6,3,18,42,22,23,24,25,26,26,14,19,0,4,11,27,28,29,30,31,18,27,32,15,33,34,33,31,19,35,14,36,36,14,14,37,9,38,39,29,40,33,34,5,41,42,14,42,13,43,37,44,45,39,24,22,44,25,35,33,7,38,0,41,10,46,46,19,2,47,5,23,16,26,47,5,10,43,48,48,17,8,38,36,40,1,15,1,45,18,3,32,3,26,6,20,28,14,4,35,5,5,5,5,5,10,5,5,5,10,45,30,5;10.313564313934195
lynx;0,0,0,2,28,7,11,2,4,5,6,26,22,9,9,6,10,1,3,1,11,12,13,0,0,14,15,8,9,25,17,22,7,18,18,7,0,20,21,15,1,3,23,11,24,22,29,4,0,25,15,19,20,6,14,26,27,28,16,29,28,4,29,8,13,11,27,6,23,30,24,26,4,31,3,23,22,30,8,9,11,22,3,21,24,27,17,10,22,8,28,21,10,8,32,19,8,15,12,12,8,8,23,6,8,8,8,8,3,8,8,8,8,8,12,8,8,31,5,8,8,12,8,8,8,12,16,16,12,8,8,5,8,8,8,8,8,32,8,13,25,8,8,8,8,8,8,8;3.822362989437817
graph10up193;0,21,4,30,55,5,6,7,8,60,9,38,10,11,16,16,39,39,13,14,15,2,46,38,17,18,52,39,26,6,22,16,44,20,13,23,24,2,19,1,61,25,26,27,44,4,28,35,13,15,46,30,9,31,32,45,34,47,35,5,54,9,2,20,58,20,4,39,37,38,39,52,13,40,17,17,41,42,46,35,26,45,12,23,1,26,43,0,48,43,58,29,33,50,51,1,0,48,52,12,3,49,53,18,21,10,18,21,58,19,41,46,50,54,29,53,55,9,25,20,56,11,57,3,51,30,30,7,58,2,29,59,32,34,39,55,61,48,28,54,65,62,16,45,63,31,35,5,6,64,65,14,34,27,63,8,64,28,53,36,50,28,31,18,10,66,59,66,42,43,57,54,39,56,61,65,24,51,14,36,36,62,40,66,42,14,63,56,37,19,15,7,22;2.2451886372106697
nmh;0,1,0,3,54,4,5,6,7,8,54,23,9,26,18,11,12,5,13,14,15,38,41,17,6,18,22,23,9,0,38,13,19,17,8,9,21,57,25,20,21,22,23,10,22,16,24,13,25,20,28,3,20,27,43,14,24,19,7,29,30,31,18,32,30,17,3,41,5,33,34,34,35,36,17,37,25,38,39,22,48,41,35,48,24,42,43,18,44,38,28,19,13,45,46,32,29,47,48,49,50,35,51,6,2,2,24,26,34,2,47,41,17,52,44,31,51,33,48,19,26,9,22,53,27,39,54,12,42,27,30,1,55,56,40,57,50,56,51,57,52,4,58,57,59,4,60,24,56,36,58,37,61,62,62,20,51,61,27,60,62,61,28,33,46,17,14,50,63,64,29,15,37,23,43,21,6,64,55,59,0,38,52,63,10,12,49,40,16,45,11,53,10,42,39,21,0,12;7.607824346750361
ping_libc;0,1,2,3,4,5,6,7,8,9,137,5,11,12,13,14,15,15,16,17,18,19,20,21,22,23,24,25,25,26,27,20,28,29,30,31,32,33,34,35,36,21,37,38,39,40,41,31,42,43,44,30,8,45,46,47,48,49,50,51,52,53,54,54,55,56,57,36,58,20,38,59,60,60,19,62,63,52,64,65,66,67,68,69,70,62,61,71,71,72,44,73,74,75,118,66,29,76,43,14,77,58,50,78,78,79,53,80,81,82,82,83,41,6,66,84,84,47,85,86,87,88,89,80,90,90,91,20,90,32,92,93,23,30,7,94,95,96,97,98,99,100,100,52,101,101,28,102,103,104,55,105,105,2,106,106,70,28,34,56,49,107,108,109,110,110,56,111,112,113,114,115,116,27,79,97,38,117,19,41,94,137,96,119,120,75,121,121,48,122,46,123,123,125,126,127,72,83,115,128,129,130,131,132,133,114,132,104,125,118,24,16,134,13,9,135,42,111,136,22,105,124,137,138,138,73,118,132,39,51,62,139,8,10,140,141,142,142,14,143,143,144,61,18,1,45,18,59,29,3,145,145,133,111,124,88,16,138,69,79,93,69,10,146,146,147,108,10,122,148,58,149,150,149,131,77,99,91,26,79,134,138,125,26,151,102,152,153,81,117,148,73,154,155,155,156,156,157,157,158,159,101,94,113,138,116,153,160,30,153,76,161,161,110,15,162,12,154,36,139,46,17,148,136,163,164,17,33,64,165,53,128,39,120,103,159,37,124,66,153,166,47,158,156,167,7,86,138,59,152,7,165,107,165,9,47,151,98,119,4,13,95,92,168,87,150,1,8,82,169,169,126,169,98,160,166,144,0,145,139,63,127,46,107,129,67,58,170,170,12,163,171,172,134,105,135,173,52,174,35,89,142,12,142,130,141,34,169,175,132,142,127,137,139,52,7,20,132,147,119,140,11,106,130,171,171,74,172,162,24,109,30,138,176,176,174,71,177,12,141,175,68,120,12,173,12,65,127,30,85,168,7,112,22,132,157,27,12,43,106,177,144,150,106,57,164,12,157,27,138,40,7,25,17,167,12,12,12,12,157,18;46.21654237227737
krb5;0,1,2,2,4,4,5,6,7,8,9,10,11,12,13,14,119,6,15,16,17,18,19,20,21,22,23,24,25,26,27,28,29,30,30,31,32,33,34,35,37,37,126,38,28,39,62,10,40,41,42,44,44,7,45,46,37,119,47,48,49,50,51,36,52,53,54,55,56,57,58,59,60,61,62,63,57,64,65,66,67,189,68,20,69,70,96,72,72,73,32,74,75,76,77,77,78,79,80,32,81,82,82,32,83,84,28,71,85,86,87,150,88,89,89,90,91,92,93,93,94,122,156,18,133,97,98,170,99,100,3,21,101,102,103,104,105,106,107,108,109,110,110,91,95,111,112,113,113,114,114,66,115,15,202,117,100,142,118,82,2,120,121,3,122,116,123,80,124,125,107,89,126,104,127,118,7,13,128,129,130,131,132,28,32,117,52,204,73,126,95,60,134,135,135,136,49,137,138,139,139,140,61,61,141,74,142,142,8,61,137,40,70,143,144,33,116,145,146,17,147,48,148,110,149,59,123,144,150,151,152,46,153,86,154,128,127,23,152,155,155,112,43,43,149,129,146,128,141,51,9,156,156,83,52,157,158,69,159,160,121,79,157,130,161,136,88,162,7,107,163,41,164,165,21,166,166,163,167,167,168,16,169,169,133,64,169,100,170,63,171,171,36,58,35,143,103,172,147,71,173,55,133,147,121,108,75,124,174,174,27,84,175,176,0,177,178,145,173,179,179,180,69,181,181,102,159,116,72,50,31,89,182,32,183,183,184,103,109,82,185,185,122,89,97,167,97,178,144,114,120,87,71,83,177,186,187,188,23,140,68,189,190,90,172,19,78,99,11,25,161,190,49,53,24,151,184,5,111,23,174,170,10,131,191,180,60,192,54,54,141,171,193,193,194,195,161,148,171,86,127,162,98,189,196,196,175,116,197,77,174,198,161,117,198,60,199,199,187,12,200,80,32,83,22,201,202,145,150,83,81,127,42,191,27,203,188,106,154,164,109,45,125,203,192,201,81,71,204,204,204,129,166,47,139,110,205,205,65,65,53,86,194,206,85,202,99,83,207,124,191,14,186,186,76,94,18,198,101,115,197,138,11,22,192,43,12,113,33,6,67,94,39,44,27,110,8,182,176,176,96,206,12,105,89,199,207,92,146,153,192,26,70,160,134,205,28,208,208,38,129,56,117,12,153,70,12,11,1,12,165,195,36,158,209,209,132,39,184,117,83,117,34,168,64,50,48,153,147,12,161,203,117,12,12,200,87,1;47.10316803583321
linux;0,3,2,3,4,5,5,6,7,8,9,6,11,11,12,12,13,14,7,14,15,16,8,18,19,20,21,22,23,300,25,300,184,300,28,29,30,31,32,260,34,27,36,37,38,39,40,41,42,43,198,45,46,47,48,49,50,51,52,53,10,22,54,4,55,56,122,237,58,59,60,61,62,63,64,10,10,10,65,66,67,68,69,70,10,71,71,10,72,73,74,75,76,76,77,78,78,78,79,316,80,81,82,83,260,84,85,81,86,87,88,89,90,91,92,93,94,95,96,97,98,99,100,101,102,103,104,105,106,107,108,253,109,110,111,244,112,113,299,114,115,116,117,118,119,120,121,122,8,123,124,125,126,127,128,40,129,130,131,132,133,237,134,135,136,29,137,138,207,139,140,17,142,143,144,145,33,147,148,149,150,151,237,153,153,57,135,154,270,156,157,158,159,160,161,162,163,163,163,164,24,165,166,26,167,168,169,170,171,172,27,173,174,278,175,27,176,133,177,178,178,179,180,140,181,181,182,183,35,184,185,186,187,188,189,10,213,190,191,192,141,10,193,194,44,195,196,237,151,197,198,199,200,201,202,203,238,204,205,26,109,207,129,208,15,209,210,211,222,189,212,99,205,213,214,215,216,213,206,26,217,44,218,219,220,221,222,223,224,225,33,79,226,227,228,133,229,230,231,232,233,234,146,134,235,236,237,238,232,106,239,240,155,7,49,242,243,244,244,245,135,203,351,247,248,249,29,250,251,252,111,100,254,111,255,244,113,256,257,258,259,260,261,120,262,83,263,264,265,266,219,267,268,269,270,271,272,273,63,274,275,276,275,54,277,277,158,32,278,253,244,255,113,279,280,271,281,282,85,162,153,283,162,0,284,178,42,255,192,285,152,286,287,25,23,25,240,102,288,276,289,290,291,289,292,293,293,294,292,295,296,293,297,295,292,298,299,86,197,377,167,47,281,301,353,281,152,241,303,304,176,24,305,15,306,305,306,307,146,0,96,146,308,308,309,310,311,88,88,119,119,309,312,310,230,230,314,1,24,243,313,230,315,314,316,317,318,206,197,87,319,57,320,320,321,322,272,323,17,17,122,324,159,325,237,68,326,101,327,328,329,81,218,330,142,19,35,331,332,333,334,171,333,335,336,99,111,337,24,338,255,339,340,29,340,341,115,342,343,131,131,344,37,199,345,346,345,199,347,348,348,349,348,350,246,351,351,270,352,353,354,354,355,355,355,244,356,211,211,211,40,207,112,40,302,113,357,42,358,42,359,360,359,207,361,66,358,302,365,362,363,269,283,167,206,286,364,190,365,278,366,367,290,366,368,138,369,276,102,291,370,371,34,372,373,80,80,116,373,329,367,259,374,350,375,374,376,194,165,93,102,377,31,119,140,158,244,378,126,2,3,65,143,144,175,353,85,303,303,146,379,380,381,172,57,136,382,257,383,10,36,118,158,341,377,41,38,146,384,31,320,385,76,235,331,25,386,387,387,322,385,76,388,389,167,162,390,390,390,380,100,391,376,254,360,392,116,179,225,384,392,261,266,360,376,81,266,393,325,84,253,2,99,246,227,99,162,320,61,215,62,332,104,105,335,94,300,279,394,119,119,146,146,146,364,395,396,298,397,397,395,398,398,399,399,324,233,22,103,183,400,400,379,400,379,400,379,379,400,324,122,401,131,47,391,371,85,288,400,174,152,293,350,282,402,331,125,234,230,63,95,20,33,24,365,173,49,334,403,302,282,200,162,155,284,358,132,239,293,195,307,318,220,224,221,393,393,170,396,307,231,361,178,180,242,50,394,304,239,404,241,201,370,264,266,295,295,297,267,389,386,299,301,96,312,154,144,370,71,46,49,55,55,97,191,51,382,382,382,404,387,71,71,59,56,160,319,18,18,67,66,388,381,124,10,405,405,142,165,332,136,39,402,379,216,285,296,109,345,406,406,406,204,149,184,255,378,403,184,184,184,184,288,288,366,89,288,290,37,208,407,407,152,367,34,372,383,389,402,306,306,48,311,322,10,194,193,124,114,401,131,32,384,45,139,76,202,78,321,82,342,131,262,265,408,408;54.141749178807515
