NONE;;SEM-SA_500_-1_-1_0.15_CAMQ_DR_RGBI;0;0;29.13917984437418;29.579851437114232;199;301;2750;97
NONE;;SEM-SA_500_-1_-1_0.15_CAMQ_DR_RGBI;0;1;29.13917984437418;29.50779618137808;227;273;2620;96
NONE;;SEM-SA_500_-1_-1_0.15_CAMQ_DR_RGBI;0;2;29.13917984437418;29.617636420049152;281;219;2635;96
NONE;;SEM-SA_500_-1_-1_0.15_CAMQ_DR_RGBI;0;3;29.13917984437418;29.506380703100984;273;227;2605;96
NONE;;SEM-SA_500_-1_-1_0.15_CAMQ_DR_RGBI;0;4;29.13917984437418;29.555217400337867;331;169;2725;99
NONE;;SEM-SA_500_-1_-1_0.15_CAMQ_DR_RGBI;0;5;29.13917984437418;29.586809929507123;397;178;2625;96
NONE;;SEM-SA_500_-1_-1_0.15_CAMQ_DR_RGBI;0;6;29.13917984437418;29.55307868052518;240;260;2705;98
NONE;;SEM-SA_500_-1_-1_0.15_CAMQ_DR_RGBI;0;7;29.13917984437418;29.588548055485642;461;64;2715;96
NONE;;SEM-SA_500_-1_-1_0.15_CAMQ_DR_RGBI;0;8;29.13917984437418;29.586630031941198;404;96;2675;97
NONE;;SEM-SA_500_-1_-1_0.15_CAMQ_DR_RGBI;0;9;29.13917984437418;29.547365733696278;286;214;2730;99
NONE;;SEM-SA_500_-1_-1_0.15_CAMQ_DR_RGBI;0;10;29.13917984437418;29.647202402459648;486;106;2770;100
NONE;;SEM-SA_500_-1_-1_0.15_CAMQ_DR_RGBI;0;11;29.13917984437418;29.547894456961185;370;152;2610;97
NONE;;SEM-SA_500_-1_-1_0.15_CAMQ_DR_RGBI;0;12;29.13917984437418;29.5499487105409;147;353;2700;100
NONE;;SEM-SA_500_-1_-1_0.15_CAMQ_DR_RGBI;0;13;29.13917984437418;29.567584066356734;229;271;2665;98
NONE;;SEM-SA_500_-1_-1_0.15_CAMQ_DR_RGBI;0;14;29.13917984437418;29.582747398187703;494;185;3295;99
NONE;;SEM-SA_500_-1_-1_0.15_CAMQ_DR_RGBI;0;15;29.13917984437418;29.559894332327353;498;90;2815;101
NONE;;SEM-SA_500_-1_-1_0.15_CAMQ_DR_RGBI;0;16;29.13917984437418;29.564232557646996;429;127;2640;97
NONE;;SEM-SA_500_-1_-1_0.15_CAMQ_DR_RGBI;0;17;29.13917984437418;29.574115256400738;380;120;2575;95
NONE;;SEM-SA_500_-1_-1_0.15_CAMQ_DR_RGBI;0;18;29.13917984437418;29.613255559080315;333;167;2665;98
NONE;;SEM-SA_500_-1_-1_0.15_CAMQ_DR_RGBI;0;19;29.13917984437418;29.612340117296558;474;182;2675;98
NONE;;SEM-SA_500_-1_-1_0.15_CAMQ_DR_RGBI;0;20;29.13917984437418;29.567571371679577;490;166;2750;99
NONE;;SEM-SA_500_-1_-1_0.15_CAMQ_DR_RGBI;0;21;29.13917984437418;29.58392718131565;480;136;2675;97
NONE;;SEM-SA_500_-1_-1_0.15_CAMQ_DR_RGBI;0;22;29.13917984437418;29.576352021441075;467;56;2715;97
NONE;;SEM-SA_500_-1_-1_0.15_CAMQ_DR_RGBI;0;23;29.13917984437418;29.6055985439822;214;286;2600;96
NONE;;SEM-SA_500_-1_-1_0.15_CAMQ_DR_RGBI;0;24;29.13917984437418;29.653942196898274;430;92;2710;99
NONE;;SEM-SA_500_-1_-1_0.15_CAMQ_DR_RGBI;0;25;29.13917984437418;29.553389706517173;350;150;2580;95
NONE;;SEM-SA_500_-1_-1_0.15_CAMQ_DR_RGBI;0;26;29.13917984437418;29.563760619822276;408;92;2715;101
NONE;;SEM-SA_500_-1_-1_0.15_CAMQ_DR_RGBI;0;27;29.13917984437418;29.593183577995802;499;209;2675;97
NONE;;SEM-SA_500_-1_-1_0.15_CAMQ_DR_RGBI;0;28;29.13917984437418;29.53343847086532;484;129;2670;99
NONE;;SEM-SA_500_-1_-1_0.15_CAMQ_DR_RGBI;0;29;29.13917984437418;29.58434937065141;448;208;2580;95
NONE;;SEM-SA_500_-1_-1_0.15_CAMQ_DR_RGBI;0;30;29.13917984437418;29.545287562651204;296;204;2610;96
NONE;;SEM-SA_500_-1_-1_0.15_CAMQ_DR_RGBI;0;31;29.13917984437418;29.52540999590406;376;124;2710;100
NONE;;SEM-SA_500_-1_-1_0.15_CAMQ_DR_RGBI;0;32;29.13917984437418;29.59982294979136;477;95;2735;100
NONE;;SEM-SA_500_-1_-1_0.15_CAMQ_DR_RGBI;0;33;29.13917984437418;29.56832963707343;410;90;2620;97
NONE;;SEM-SA_500_-1_-1_0.15_CAMQ_DR_RGBI;0;34;29.13917984437418;29.494987682086183;299;201;2665;99
NONE;;SEM-SA_500_-1_-1_0.15_CAMQ_DR_RGBI;0;35;29.13917984437418;29.568458709665812;456;104;2615;96
NONE;;SEM-SA_500_-1_-1_0.15_CAMQ_DR_RGBI;0;36;29.13917984437418;29.61553806854863;461;251;2640;96
NONE;;SEM-SA_500_-1_-1_0.15_CAMQ_DR_RGBI;0;37;29.13917984437418;29.49447850602354;367;133;2680;97
NONE;;SEM-SA_500_-1_-1_0.15_CAMQ_DR_RGBI;0;38;29.13917984437418;29.560464749192857;254;246;2670;96
NONE;;SEM-SA_500_-1_-1_0.15_CAMQ_DR_RGBI;0;39;29.13917984437418;29.56525852122073;291;209;2660;98
NONE;;SEM-SA_500_-1_-1_0.15_CAMQ_DR_RGBI;0;40;29.13917984437418;29.512888605079958;385;115;2660;97
NONE;;SEM-SA_500_-1_-1_0.15_CAMQ_DR_RGBI;0;41;29.13917984437418;29.582994826339498;402;244;2675;99
NONE;;SEM-SA_500_-1_-1_0.15_CAMQ_DR_RGBI;0;42;29.13917984437418;29.57331540608639;372;128;2675;97
NONE;;SEM-SA_500_-1_-1_0.15_CAMQ_DR_RGBI;0;43;29.13917984437418;29.585730791594333;229;271;2715;98
NONE;;SEM-SA_500_-1_-1_0.15_CAMQ_DR_RGBI;0;44;29.13917984437418;29.461554995129227;353;151;2675;97
NONE;;SEM-SA_500_-1_-1_0.15_CAMQ_DR_RGBI;0;45;29.13917984437418;29.54745578303709;499;82;2735;98
NONE;;SEM-SA_500_-1_-1_0.15_CAMQ_DR_RGBI;0;46;29.13917984437418;29.58082159531106;315;185;2695;99
NONE;;SEM-SA_500_-1_-1_0.15_CAMQ_DR_RGBI;0;47;29.13917984437418;29.528046850051;389;111;2630;97
NONE;;SEM-SA_500_-1_-1_0.15_CAMQ_DR_RGBI;0;48;29.13917984437418;29.654250768349613;271;229;2665;97
NONE;;SEM-SA_500_-1_-1_0.15_CAMQ_DR_RGBI;0;49;29.13917984437418;29.553071826048303;479;169;2660;96
NONE;;SEM-SA_500_-1_-1_0.15_CAMQ_DR_RGBI;0;50;29.13917984437418;29.530624579762176;482;90;2625;97
NONE;;SEM-SA_500_-1_-1_0.15_CAMQ_DR_RGBI;0;51;29.13917984437418;29.60142905535601;496;92;2675;97
NONE;;SEM-SA_500_-1_-1_0.15_CAMQ_DR_RGBI;0;52;29.13917984437418;29.57033417163926;463;190;2710;100
NONE;;SEM-SA_500_-1_-1_0.15_CAMQ_DR_RGBI;0;53;29.13917984437418;29.585637899736742;493;144;2720;98
NONE;;SEM-SA_500_-1_-1_0.15_CAMQ_DR_RGBI;0;54;29.13917984437418;29.530120300106113;437;67;2710;99
NONE;;SEM-SA_500_-1_-1_0.15_CAMQ_DR_RGBI;0;55;29.13917984437418;29.597978949038833;462;114;2700;98
NONE;;SEM-SA_500_-1_-1_0.15_CAMQ_DR_RGBI;0;56;29.13917984437418;29.60787598577577;222;278;2620;97
NONE;;SEM-SA_500_-1_-1_0.15_CAMQ_DR_RGBI;0;57;29.13917984437418;29.51578679885608;493;185;2645;98
NONE;;SEM-SA_500_-1_-1_0.15_CAMQ_DR_RGBI;0;58;29.13917984437418;29.587689751133556;419;81;2655;97
NONE;;SEM-SA_500_-1_-1_0.15_CAMQ_DR_RGBI;0;59;29.13917984437418;29.467609337722642;463;81;2690;98
NONE;;SEM-SA_500_-1_-1_0.15_CAMQ_DR_RGBI;0;60;29.13917984437418;29.467494277491003;391;109;2590;95
NONE;;SEM-SA_500_-1_-1_0.15_CAMQ_DR_RGBI;0;61;29.13917984437418;29.59447234659134;415;85;2710;99
NONE;;SEM-SA_500_-1_-1_0.15_CAMQ_DR_RGBI;0;62;29.13917984437418;29.571770957960375;438;138;2640;95
NONE;;SEM-SA_500_-1_-1_0.15_CAMQ_DR_RGBI;0;63;29.13917984437418;29.570121525238804;393;107;2705;97
NONE;;SEM-SA_500_-1_-1_0.15_CAMQ_DR_RGBI;0;64;29.13917984437418;29.58052573896219;495;169;2675;97
NONE;;SEM-SA_500_-1_-1_0.15_CAMQ_DR_RGBI;0;65;29.13917984437418;29.545580896960445;385;115;2705;100
NONE;;SEM-SA_500_-1_-1_0.15_CAMQ_DR_RGBI;0;66;29.13917984437418;29.574279079328793;486;121;2725;100
NONE;;SEM-SA_500_-1_-1_0.15_CAMQ_DR_RGBI;0;67;29.13917984437418;29.529768328483293;337;163;2590;95
NONE;;SEM-SA_500_-1_-1_0.15_CAMQ_DR_RGBI;0;68;29.13917984437418;29.601836179663515;365;135;2695;98
NONE;;SEM-SA_500_-1_-1_0.15_CAMQ_DR_RGBI;0;69;29.13917984437418;29.578571234457677;498;85;2725;99
NONE;;SEM-SA_500_-1_-1_0.15_CAMQ_DR_RGBI;0;70;29.13917984437418;29.57426959974004;319;181;2610;96
NONE;;SEM-SA_500_-1_-1_0.15_CAMQ_DR_RGBI;0;71;29.13917984437418;29.589660698803;401;165;2740;100
NONE;;SEM-SA_500_-1_-1_0.15_CAMQ_DR_RGBI;0;72;29.13917984437418;29.598618221358834;496;192;2655;97
NONE;;SEM-SA_500_-1_-1_0.15_CAMQ_DR_RGBI;0;73;29.13917984437418;29.51895836812164;326;174;2670;97
NONE;;SEM-SA_500_-1_-1_0.15_CAMQ_DR_RGBI;0;74;29.13917984437418;29.51577305372632;483;125;2645;97
NONE;;SEM-SA_500_-1_-1_0.15_CAMQ_DR_RGBI;0;75;29.13917984437418;29.62818902338576;498;187;2685;97
NONE;;SEM-SA_500_-1_-1_0.15_CAMQ_DR_RGBI;0;76;29.13917984437418;29.567115420691596;377;123;2680;98
NONE;;SEM-SA_500_-1_-1_0.15_CAMQ_DR_RGBI;0;77;29.13917984437418;29.578535392479;365;257;2665;98
NONE;;SEM-SA_500_-1_-1_0.15_CAMQ_DR_RGBI;0;78;29.13917984437418;29.64863889880601;422;113;2730;99
NONE;;SEM-SA_500_-1_-1_0.15_CAMQ_DR_RGBI;0;79;29.13917984437418;29.489409936659225;472;103;2665;99
NONE;;SEM-SA_500_-1_-1_0.15_CAMQ_DR_RGBI;0;80;29.13917984437418;29.543148172923654;256;244;2580;96
NONE;;SEM-SA_500_-1_-1_0.15_CAMQ_DR_RGBI;0;81;29.13917984437418;29.600102377369687;467;147;2710;97
NONE;;SEM-SA_500_-1_-1_0.15_CAMQ_DR_RGBI;0;82;29.13917984437418;29.658833661585692;451;150;2700;99
NONE;;SEM-SA_500_-1_-1_0.15_CAMQ_DR_RGBI;0;83;29.13917984437418;29.558717839786556;465;164;2660;97
NONE;;SEM-SA_500_-1_-1_0.15_CAMQ_DR_RGBI;0;84;29.13917984437418;29.64011198825833;500;131;2685;97
NONE;;SEM-SA_500_-1_-1_0.15_CAMQ_DR_RGBI;0;85;29.13917984437418;29.580753582468077;456;86;2785;100
NONE;;SEM-SA_500_-1_-1_0.15_CAMQ_DR_RGBI;0;86;29.13917984437418;29.605054226702347;422;152;2660;99
NONE;;SEM-SA_500_-1_-1_0.15_CAMQ_DR_RGBI;0;87;29.13917984437418;29.608404851511658;450;87;2805;100
NONE;;SEM-SA_500_-1_-1_0.15_CAMQ_DR_RGBI;0;88;29.13917984437418;29.56744630926212;436;164;2700;98
NONE;;SEM-SA_500_-1_-1_0.15_CAMQ_DR_RGBI;0;89;29.13917984437418;29.595427292465928;494;297;2685;97
NONE;;SEM-SA_500_-1_-1_0.15_CAMQ_DR_RGBI;0;90;29.13917984437418;29.690444349129567;456;79;2700;96
NONE;;SEM-SA_500_-1_-1_0.15_CAMQ_DR_RGBI;0;91;29.13917984437418;29.531753308480237;248;252;2675;99
NONE;;SEM-SA_500_-1_-1_0.15_CAMQ_DR_RGBI;0;92;29.13917984437418;29.583322511074936;494;285;2675;98
NONE;;SEM-SA_500_-1_-1_0.15_CAMQ_DR_RGBI;0;93;29.13917984437418;29.649793527518288;427;189;2655;97
NONE;;SEM-SA_500_-1_-1_0.15_CAMQ_DR_RGBI;0;94;29.13917984437418;29.585787066293403;446;167;2640;96
NONE;;SEM-SA_500_-1_-1_0.15_CAMQ_DR_RGBI;0;95;29.13917984437418;29.604773512158797;477;77;2710;96
NONE;;SEM-SA_500_-1_-1_0.15_CAMQ_DR_RGBI;0;96;29.13917984437418;29.650311417772752;474;248;2610;97
NONE;;SEM-SA_500_-1_-1_0.15_CAMQ_DR_RGBI;0;97;29.13917984437418;29.523778541509525;355;145;2670;97
NONE;;SEM-SA_500_-1_-1_0.15_CAMQ_DR_RGBI;0;98;29.13917984437418;29.598747945939763;241;259;2645;96
NONE;;SEM-SA_500_-1_-1_0.15_CAMQ_DR_RGBI;0;99;29.13917984437418;29.61412127200964;491;185;2665;98
