"REPAIR_METHOD";"RGBI";15817;1979.94277777778
"REPAIR_METHOD";"RGBIR";11853;64.6181111111111
"REPAIR_METHOD";"RFIR";1659;24.0228888888889
"REPAIR_METHOD";"RGBWI";0;1612.59847222222
"REPAIR_METHOD";"RGWIR";0;64.5616944444444
